%!PS-Adobe-3.0 EPSF-3.0
%%BoundingBox: 0 0 1059 445
%%LanguageLevel: 2
%%Creator: OriginLab Corporation
%%Title: (C:\Users\MJ\GooleDrive\CAMEL-MEMBER\Wonil\Simulator\ASPLOS'15\draft-2-mj-resize-fig\eval-micro.eps)
%%CreationDate: Thu Aug 07 16:22:32 2014
%%EndComments

/OriginLab::PSL1 128 dict dup begin def
/Save0 save def
%%BeginResource: procset OriginLab::PSL1
/wd{1 index where{pop pop pop}{bind def}ifelse}bind def
/setcmykcolor{1 sub 4 1 roll 3{3 index add neg dup 0 lt{pop 0}if 3 1 roll}repeat setrgbcolor pop}wd
/selectfont{dup type/arraytype eq{exch findfont exch makefont setfont}{exch findfont exch scalefont setfont}ifelse}wd
/xshow{1 index length 0 le{}{currentpoint exch 3 index length 1 sub 0 exch 1 exch{dup 5 index exch 1 getinterval show 3 index exch get add 2 copy exch moveto}for pop pop}ifelse pop pop}wd
/glyphshow{matrix currentmatrix exch currentfont dup/FontMatrix get concat currentpoint translate
 dup/Metrics get 2 index get 0 4 2 roll gsave/CharProcs get exch 2 copy known not{pop/.notdef}if
 get exec fill grestore moveto setmatrix}wd
/grayimage/image load def/rgbtogray{cvx exec dup length 3 idiv 1 sub 0 exch 1 exch{dup 3 mul dup 3 index exch get 255 div .3 mul exch
 1 add dup 4 index exch get 255 div .59 mul exch 1 add 4 index exch get 255 div .11 mul add add
 255 mul dup 255 gt{255}if round cvi 2 index 3 1 roll put}for dup length 3 idiv 0 exch getinterval}bind def
/colorimage{0 setgray pop pop cvlit/rgbtogray cvx 2 packedarray cvx grayimage}wd
/bd{bind def}bind def/ld{load def}bd/ed{exch def}bd/xd{cvx def}bd
/np/newpath ld/a/arc ld/m/moveto ld/l/lineto ld/c/curveto ld/rm/rmoveto ld/rl/rlineto ld/rc/rcurveto ld/cp/closepath ld/cpt/currentpoint ld
/tr/translate ld/sc/scale ld/ro/rotate ld/t/transform ld/it/itransform ld/dt/dtransform ld/idt/idtransform ld
/mtx/matrix ld/cmtx/currentmatrix ld/dmtx/defaultmatrix ld/smtx/setmatrix ld/catmtx/concatmatrix ld
/sw/setlinewidth ld/scap/setlinecap ld/sj/setlinejoin ld/sm/setmiterlimit ld/sd/setdash ld/rgb/setrgbcolor ld/crgb/currentrgbcolor ld/cmyk/setcmykcolor ld/gs/gsave ld/gr/grestore ld
/st/stroke ld/fi/fill ld/eofi/eofill ld/cl/clip ld/eocl/eoclip ld
/df/definefont ld/ff/findfont ld/sf/setfont ld/scf/scalefont ld/self/selectfont ld/cf/currentfont ld
/s/show ld/xs/xshow ld/gls/glyphshow ld/xgls{cpt 3 1 roll add exch 3 -1 roll gls m}bd
/cd/currentdict ld/i/index ld
/DrawBox{4 2 roll m 1 index 0 rl 0 exch rl neg 0 rl cp}bd
/plus.re { 6 { 3 index } repeat moveto 0 exch rlineto 0 rlineto pop pop neg 0 exch rlineto pop lineto closepath } def
/DrawBcc{4 2 roll m 2 copy 0 lt exch 0 lt xor{dup 0 exch rl exch 0 rl neg 0 exch rl}{exch dup 0 rl exch 0 exch rl neg 0 rl}ifelse cp}bd
/rectline{dup type/arraytype eq{dup length 0 exch 4 exch 4 sub{0 1 3{3 copy add get 4 1 roll pop}for pop 5 1 roll DrawBox}for pop}{DrawBox}ifelse}bd
/rectpath{dup type/arraytype eq{dup length 0 exch 4 exch 4 sub{0 1 3{3 copy add get 4 1 roll pop}for pop 5 1 roll DrawBcc}for pop}{DrawBcc}ifelse}bd
/pathproc{[{/m cvx}{/l cvx}{/c cvx}{/cp cvx}pathforall]cvx}bd
/L1img/image ld/L1idx[{0}
 {dup 7 and 3 1 roll -3 bitshift get exch 7 sub 1 mul bitshift  1 and}bind 1 index dup
 {dup 1 and 3 1 roll -1 bitshift get exch 1 sub 4 mul bitshift 15 and}bind 1 index dup dup
 {get}bind]def
/image{dup type/dicttype eq {dup/ImgCS get 0 get/Indexed eq}{false}ifelse
 {begin Width Height 8 ImageMatrix {rgb_string rgb_lookup
 cd/DataSource get dup type/filetype eq
 {mystring readstring pop}{exec}ifelse
 dup length 0 ne
 {L1idx BitsPerComponent get 0 1 Width 1 sub
 {3 copy exch exec exch 3 mul exch
 3 mul dup 5 index exch get exch 1 add dup 6 index exch get exch 1 add 6 index exch get
 7 index exch 4 index 2 add exch put 6 index exch 3 index 1 add exch put 5 index exch 2 index exch put pop
 }for pop pop pop }{pop pop pop ()}ifelse }false 3 colorimage end} {dup type/dicttype eq
 {{dup mark exch L1img pop pop}stopped{cleartomark begin Width Height BitsPerComponent ImageMatrix
 {cd/DataSource get dup type/filetype eq {mystring readstring pop}{exec}ifelse
 }false 3 colorimage end} if}{L1img}ifelse}ifelse
 }bd
/L1imgmask/imagemask ld/imagemask{dup type/dicttype eq
 {{dup mark exch L1imgmask pop pop}stopped {cleartomark begin Width Height polarityflag ImageMatrix
 {cd/DataSource get dup type/filetype eq {mystring readstring pop}{exec}ifelse
 }L1imgmask end}if}{L1imgmask}ifelse
 }bd
% Gradient function
/GradientStep 1 150 div def
/GradientStartRGB { /R1 exch def /G1 exch def /B1 exch def } def
/GradientEndRGB { /R2 exch def /G2 exch def /B2 exch def
/GradientSteps GradientLength GradientStep div def
/GradientRStep R2 R1 sub GradientSteps div def
/GradientGStep G2 G1 sub GradientSteps div def
/GradientBStep B2 B1 sub GradientSteps div def
} def
/GradientStepRGB { /R1 R1 GradientRStep add def
/G1 G1 GradientGStep add def
/B1 B1 GradientBStep add def
R1 G1 B1 setrgbcolor
} def
%%EndResource
/rectclip{np rectpath clip np}wd
/rectfill{gs np rectpath fi gr}wd
/rectstroke{gs np dup type/arraytype eq{dup length 6 eq}{false}ifelse{1 index type/arraytype eq{exch}{5 1 roll}ifelse rectline concat st}{rectline st}ifelse gr}wd
%%BeginResource: procset OriginLab::Image
/OriginLab::Image 32 dict dup begin
/BinProc{[currentfile mystring /readstring cvx /pop cvx] cvx bind}bd
/HexProc{[currentfile mystring /readhexstring cvx /pop cvx] cvx bind}bd
/Ascii85Proc{currentfile /ASCII85Decode filter}bd
/LZWA85{currentfile /ASCII85Decode filter /LZWDecode filter}bd
/ImgProcArray[/BinProc /HexProc /Ascii85Proc /LZWA85]def
/ImgDict{/ImgDict 16 dict def ImgDict dup begin /ImageType 1 def /MultipleDataSource false def end}bd
/L2Dec{{[1 0]}{[0 1]}ifelse}bd
/BegImg{ /Img_sv save def
 /ImgDir ed ImgProcArray exch get /ImgProc exch ld
 dup /polarityflag ed L2Dec /polarity ed /smoothflag ed
 tr /dx 2 index def /dy 1 index abs def sc
 string /mystring ed /bpc ed /ih ed /iw ed
 }bd
/EndImg {Img_sv restore}bd
/DoXImg{ /rgb_lookup ed /hival ed ImgDict dup begin
 [/Indexed /DeviceRGB hival rgb_lookup] /L1img where{pop/ImgCS ed}{setcolorspace}ifelse
 /rgb_string iw 3 mul string def
 /Width iw def
 /Height ih def
 /Decode [0 1 bpc{2 mul}repeat 1 sub] def
 /ImageMatrix
  ImgDir 0 eq{[iw 0 0 ih 0 0]}if
  ImgDir 1 eq{[iw neg 0 0 ih iw 0]}if
  ImgDir 2 eq{[iw 0 0 ih neg 0 ih]}if
  ImgDir 3 eq{[iw neg 0 0 ih neg iw ih]}if
  def
 /DataSource ImgProc def
 /BitsPerComponent bpc def
 /Interpolate smoothflag def
 end image}bd
/DoImg{ ImgDict dup begin
 [/DeviceRGB] /L1img where{pop/ImgCS ed}{setcolorspace}ifelse
 /rgb_string iw 3 mul string def
 /Width iw def
 /Height ih def
 /Decode [0 1 0 1 0 1] def
 /ImageMatrix
  ImgDir 0 eq{[iw 0 0 ih 0 0]}if
  ImgDir 1 eq{[iw neg 0 0 ih iw 0]}if
  ImgDir 2 eq{[iw 0 0 ih neg 0 ih]}if
  ImgDir 3 eq{[iw neg 0 0 ih neg iw ih]}if
  def
 /DataSource ImgProc def
 /BitsPerComponent 8 def
 /Interpolate smoothflag def
 end image}bd
end def
%%EndResource
%%BeginFont: /MC1_Arial
12 dict begin
/FontInfo 8 dict dup begin
/ItalicAngle 0 def
/UnderlinePosition -217.00 def
/UnderlineThickness 150.00 def
/StrikeoutPosition 530.00 def
/StrikeoutThickness 102.00 def
/isFixedPitch false def
end readonly def
/FontName /MC1_Arial def
/FontType 3 def
/FontMatrix [1 2048 div 0 0 1 2048 div 0 0] def
/FontBBox [-1361 -665 4096 2060] def
/Encoding 256 array def 0 1 255{Encoding exch/.notdef put}for
Encoding 32/s32 put
Encoding 48/s48 put
Encoding 49/s49 put
Encoding 50/s50 put
Encoding 51/s51 put
Encoding 52/s52 put
Encoding 53/s53 put
Encoding 54/s54 put
Encoding 56/s56 put
Encoding 57/s57 put
/BoundingBoxes 11 dict def
BoundingBoxes begin
/s32 [0 -434 569 1854] def
/s48 [0 -434 1139 1854] def
/s49 [0 -434 1139 1854] def
/s50 [0 -434 1139 1854] def
/s51 [0 -434 1139 1854] def
/s52 [0 -434 1139 1854] def
/s53 [0 -434 1139 1854] def
/s54 [0 -434 1139 1854] def
/s56 [0 -434 1139 1854] def
/s57 [0 -434 1139 1854] def
end
/Metrics 11 dict def
 Metrics begin
/s32 569 def
/s48 1139 def
/s49 1139 def
/s50 1139 def
/s51 1139 def
/s52 1139 def
/s53 1139 def
/s54 1139 def
/s56 1139 def
/s57 1139 def
end
/CharProcs 11 dict def
CharProcs begin
/.notdef {} def
/s48 {
85 723 m
85 896.33 102.83 1035.83 138.5 1141.5 c
174.17 1247.17 227.17 1328.67 297.5 1386 c
367.83 1443.33 456.33 1472 563 1472 c
641.67 1472 710.67 1456.17 770 1424.5 c
829.33 1392.83 878.33 1347.17 917 1287.5 c
955.67 1227.83 986 1155.17 1008 1069.5 c
1030 983.83 1041 868.33 1041 723 c
1041 551 1023.33 412.17 988 306.5 c
952.67 200.83 899.83 119.17 829.5 61.5 c
759.17 3.83 670.33 -25 563 -25 c
421.67 -25 310.67 25.67 230 127 c
133.33 249 85 447.67 85 723 c
closepath 270 723 m
270 482.33 298.17 322.17 354.5 242.5 c
410.83 162.83 480.33 123 563 123 c
645.67 123 715.17 163 771.5 243 c
827.83 323 856 483 856 723 c
856 964.33 827.83 1124.67 771.5 1204 c
715.17 1283.33 645 1323 561 1323 c
478.33 1323 412.33 1288 363 1218 c
301 1128.67 270 963.67 270 723 c
closepath } bind def
/s49 {
763 0 m
583 0 763 0 583 0 c
583 1147 583 0 583 1147 c
539.67 1105.67 482.83 1064.33 412.5 1023 c
342.17 981.67 279 950.67 223 930 c
223 1104 223 930 223 1104 c
323.67 1151.33 411.67 1208.67 487 1276 c
562.33 1343.33 615.67 1408.67 647 1472 c
763 1472 647 1472 763 1472 c
763 0 763 1472 763 0 c
closepath } bind def
/s50 {
1031 173 m
1031 0 1031 173 1031 0 c
62 0 1031 0 62 0 c
60.67 43.33 67.67 85 83 125 c
107.67 191 147.17 256 201.5 320 c
255.83 384 334.33 458 437 542 c
596.33 672.67 704 776.17 760 852.5 c
816 928.83 844 1001 844 1069 c
844 1140.33 818.5 1200.5 767.5 1249.5 c
716.5 1298.5 650 1323 568 1323 c
481.33 1323 412 1297 360 1245 c
308 1193 281.67 1121 281 1029 c
96 1048 281 1029 96 1048 c
108.67 1186 156.33 1291.17 239 1363.5 c
321.67 1435.83 432.67 1472 572 1472 c
712.67 1472 824 1433 906 1355 c
988 1277 1029 1180.33 1029 1065 c
1029 1006.33 1017 948.67 993 892 c
969 835.33 929.17 775.67 873.5 713 c
817.83 650.33 725.33 564.33 596 455 c
488 364.33 418.67 302.83 388 270.5 c
357.33 238.17 332 205.67 312 173 c
1031 173 312 173 1031 173 c
closepath } bind def
/s51 {
86 387 m
266 411 86 387 266 411 c
286.67 309 321.83 235.5 371.5 190.5 c
421.17 145.5 481.67 123 553 123 c
637.67 123 709.17 152.33 767.5 211 c
825.83 269.67 855 342.33 855 429 c
855 511.67 828 579.83 774 633.5 c
720 687.17 651.33 714 568 714 c
534 714 491.67 707.33 441 694 c
461 852 441 694 461 852 c
473 850.67 482.67 850 490 850 c
566.67 850 635.67 870 697 910 c
758.33 950 789 1011.67 789 1095 c
789 1161 766.67 1215.67 722 1259 c
677.33 1302.33 619.67 1324 549 1324 c
479 1324 420.67 1302 374 1258 c
327.33 1214 297.33 1148 284 1060 c
104 1092 284 1060 104 1092 c
126 1212.67 176 1306.17 254 1372.5 c
332 1438.83 429 1472 545 1472 c
625 1472 698.67 1454.83 766 1420.5 c
833.33 1386.17 884.83 1339.33 920.5 1280 c
956.17 1220.67 974 1157.67 974 1091 c
974 1027.67 957 970 923 918 c
889 866 838.67 824.67 772 794 c
858.67 774 926 732.5 974 669.5 c
1022 606.5 1046 527.67 1046 433 c
1046 305 999.33 196.5 906 107.5 c
812.67 18.5 694.67 -26 552 -26 c
423.33 -26 316.5 12.33 231.5 89 c
146.5 165.67 98 265 86 387 c
closepath } bind def
/s52 {
662 0 m
662 351 662 0 662 351 c
26 351 662 351 26 351 c
26 516 26 351 26 516 c
695 1466 26 516 695 1466 c
842 1466 695 1466 842 1466 c
842 516 842 1466 842 516 c
1040 516 842 516 1040 516 c
1040 351 1040 516 1040 351 c
842 351 1040 351 842 351 c
842 0 842 351 842 0 c
662 0 842 0 662 0 c
closepath 662 516 m
662 1177 662 516 662 1177 c
203 516 662 1177 203 516 c
662 516 203 516 662 516 c
closepath } bind def
/s53 {
85 384 m
274 400 85 384 274 400 c
288 308 320.5 238.83 371.5 192.5 c
422.5 146.17 484 123 556 123 c
642.67 123 716 155.67 776 221 c
836 286.33 866 373 866 481 c
866 583.67 837.17 664.67 779.5 724 c
721.83 783.33 646.33 813 553 813 c
495 813 442.67 799.83 396 773.5 c
349.33 747.17 312.67 713 286 671 c
117 693 286 671 117 693 c
259 1446 117 693 259 1446 c
988 1446 259 1446 988 1446 c
988 1274 988 1446 988 1274 c
403 1274 988 1274 403 1274 c
324 880 403 1274 324 880 c
412 941.33 504.33 972 601 972 c
729 972 837 927.67 925 839 c
1013 750.33 1057 636.33 1057 497 c
1057 364.33 1018.33 249.67 941 153 c
847 34.33 718.67 -25 556 -25 c
422.67 -25 313.83 12.33 229.5 87 c
145.17 161.67 97 260.67 85 384 c
closepath } bind def
/s54 {
1019 1107 m
840 1093 1019 1107 840 1093 c
824 1163.67 801.33 1215 772 1247 c
723.33 1298.33 663.33 1324 592 1324 c
534.67 1324 484.33 1308 441 1276 c
384.33 1234.67 339.67 1174.33 307 1095 c
274.33 1015.67 257.33 902.67 256 756 c
299.33 822 352.33 871 415 903 c
477.67 935 543.33 951 612 951 c
732 951 834.17 906.83 918.5 818.5 c
1002.83 730.17 1045 616 1045 476 c
1045 384 1025.17 298.5 985.5 219.5 c
945.83 140.5 891.33 80 822 38 c
752.67 -4 674 -25 586 -25 c
436 -25 313.67 30.17 219 140.5 c
124.33 250.83 77 432.67 77 686 c
77 969.33 129.33 1175.33 234 1304 c
325.33 1416 448.33 1472 603 1472 c
718.33 1472 812.83 1439.67 886.5 1375 c
960.17 1310.33 1004.33 1221 1019 1107 c
closepath 284 475 m
284 413 297.17 353.67 323.5 297 c
349.83 240.33 386.67 197.17 434 167.5 c
481.33 137.83 531 123 583 123 c
659 123 724.33 153.67 779 215 c
833.67 276.33 861 359.67 861 465 c
861 566.33 834 646.17 780 704.5 c
726 762.83 658 792 576 792 c
494.67 792 425.67 762.83 369 704.5 c
312.33 646.17 284 569.67 284 475 c
closepath } bind def
/s56 {
362 795 m
287.33 822.33 232 861.33 196 912 c
160 962.67 142 1023.33 142 1094 c
142 1200.67 180.33 1290.33 257 1363 c
333.67 1435.67 435.67 1472 563 1472 c
691 1472 794 1434.83 872 1360.5 c
950 1286.17 989 1195.67 989 1089 c
989 1021 971.17 961.83 935.5 911.5 c
899.83 861.17 845.67 822.33 773 795 c
863 765.67 931.5 718.33 978.5 653 c
1025.5 587.67 1049 509.67 1049 419 c
1049 293.67 1004.67 188.33 916 103 c
827.33 17.67 710.67 -25 566 -25 c
421.33 -25 304.67 17.83 216 103.5 c
127.33 189.17 83 296 83 424 c
83 519.33 107.17 599.17 155.5 663.5 c
203.83 727.83 272.67 771.67 362 795 c
closepath 326 1100 m
326 1030.67 348.33 974 393 930 c
437.67 886 495.67 864 567 864 c
636.33 864 693.17 885.83 737.5 929.5 c
781.83 973.17 804 1026.67 804 1090 c
804 1156 781.17 1211.5 735.5 1256.5 c
689.83 1301.5 633 1324 565 1324 c
496.33 1324 439.33 1302 394 1258 c
348.67 1214 326 1161.33 326 1100 c
closepath 268 423 m
268 371.67 280.17 322 304.5 274 c
328.83 226 365 188.83 413 162.5 c
461 136.17 512.67 123 568 123 c
654 123 725 150.67 781 206 c
837 261.33 865 331.67 865 417 c
865 503.67 836.17 575.33 778.5 632 c
720.83 688.67 648.67 717 562 717 c
477.33 717 407.17 689 351.5 633 c
295.83 577 268 507 268 423 c
closepath } bind def
/s57 {
112 339 m
285 355 112 339 285 355 c
299.67 273.67 327.67 214.67 369 178 c
410.33 141.33 463.33 123 528 123 c
583.33 123 631.83 135.67 673.5 161 c
715.17 186.33 749.33 220.17 776 262.5 c
802.67 304.83 825 362 843 434 c
861 506 870 579.33 870 654 c
870 662 869.67 674 869 690 c
833 632.67 783.83 586.17 721.5 550.5 c
659.17 514.83 591.67 497 519 497 c
397.67 497 295 541 211 629 c
127 717 85 833 85 977 c
85 1125.67 128.83 1245.33 216.5 1336 c
304.17 1426.67 414 1472 546 1472 c
641.33 1472 728.5 1446.33 807.5 1395 c
886.5 1343.67 946.5 1270.5 987.5 1175.5 c
1028.5 1080.5 1049 943 1049 763 c
1049 575.67 1028.67 426.5 988 315.5 c
947.33 204.5 886.83 120 806.5 62 c
726.17 4 632 -25 524 -25 c
409.33 -25 315.67 6.83 243 70.5 c
170.33 134.17 126.67 223.67 112 339 c
closepath 849 986 m
849 1089.33 821.5 1171.33 766.5 1232 c
711.5 1292.67 645.33 1323 568 1323 c
488 1323 418.33 1290.33 359 1225 c
299.67 1159.67 270 1075 270 971 c
270 877.67 298.17 801.83 354.5 743.5 c
410.83 685.17 480.33 656 563 656 c
646.33 656 714.83 685.17 768.5 743.5 c
822.17 801.83 849 882.67 849 986 c
closepath } bind def
end
/BuildGlyph {
 exch dup /Metrics get 2 index get 0 setcharwidth
/CharProcs get exch 2 copy known not{pop/.notdef}if get exec fill}bind def
/BuildChar {
1 index /Encoding get exch get
1 index /BuildGlyph get exec
} bind def
currentdict end /MC1_Arial exch definefont pop
%%EndFont
%%BeginFont: /MC2_Arial
12 dict begin
/FontInfo 8 dict dup begin
/ItalicAngle 0 def
/UnderlinePosition -217.00 def
/UnderlineThickness 150.00 def
/StrikeoutPosition 530.00 def
/StrikeoutThickness 102.00 def
/isFixedPitch false def
end readonly def
/FontName /MC2_Arial def
/FontType 3 def
/FontMatrix [1 2048 div 0 0 1 2048 div 0 0] def
/FontBBox [-1361 -665 4096 2060] def
/Encoding 256 array def 0 1 255{Encoding exch/.notdef put}for
Encoding 32/s32 put
Encoding 40/s40 put
Encoding 41/s41 put
Encoding 47/s47 put
Encoding 66/s66 put
Encoding 71/s71 put
Encoding 84/s84 put
Encoding 99/s99 put
Encoding 101/s101 put
Encoding 103/s103 put
Encoding 104/s104 put
Encoding 111/s111 put
Encoding 112/s112 put
Encoding 114/s114 put
Encoding 115/s115 put
Encoding 116/s116 put
Encoding 117/s117 put
/BoundingBoxes 18 dict def
BoundingBoxes begin
/s32 [0 -434 569 1854] def
/s40 [0 -434 682 1854] def
/s41 [0 -434 682 1854] def
/s47 [0 -434 569 1854] def
/s66 [0 -434 1366 1854] def
/s71 [0 -434 1593 1854] def
/s84 [0 -434 1251 1854] def
/s99 [0 -434 1024 1854] def
/s101 [0 -434 1139 1854] def
/s103 [0 -434 1139 1854] def
/s104 [0 -434 1139 1854] def
/s111 [0 -434 1139 1854] def
/s112 [0 -434 1139 1854] def
/s114 [0 -434 682 1854] def
/s115 [0 -434 1024 1854] def
/s116 [0 -434 569 1854] def
/s117 [0 -434 1139 1854] def
end
/Metrics 18 dict def
 Metrics begin
/s32 569 def
/s40 682 def
/s41 682 def
/s47 569 def
/s66 1366 def
/s71 1593 def
/s84 1251 def
/s99 1024 def
/s101 1139 def
/s103 1139 def
/s104 1139 def
/s111 1139 def
/s112 1139 def
/s114 682 def
/s115 1024 def
/s116 569 def
/s117 1139 def
end
/CharProcs 18 dict def
CharProcs begin
/.notdef {} def
/s40 {
479 -431 m
379.67 -305.67 295.67 -159 227 9 c
158.33 177 124 351 124 531 c
124 689.67 149.67 841.67 201 987 c
261 1155.67 353.67 1323.67 479 1491 c
608 1491 479 1491 608 1491 c
527.33 1352.33 474 1253.33 448 1194 c
407.33 1102 375.33 1006 352 906 c
323.33 781.33 309 656 309 530 c
309 209.33 408.67 -111 608 -431 c
479 -431 608 -431 479 -431 c
closepath } bind def
/s41 {
253 -431 m
124 -431 253 -431 124 -431 c
323.33 -111 423 209.33 423 530 c
423 655.33 408.67 779.67 380 903 c
357.33 1003 325.67 1099 285 1191 c
259 1251 205.33 1351 124 1491 c
253 1491 124 1491 253 1491 c
378.33 1323.67 471 1155.67 531 987 c
582.33 841.67 608 689.67 608 531 c
608 351 573.5 177 504.5 9 c
435.5 -159 351.67 -305.67 253 -431 c
closepath } bind def
/s47 {
0 -25 m
425 1491 0 -25 425 1491 c
569 1491 425 1491 569 1491 c
145 -25 569 1491 145 -25 c
0 -25 145 -25 0 -25 c
closepath } bind def
/s66 {
150 0 m
150 1466 150 0 150 1466 c
700 1466 150 1466 700 1466 c
812 1466 901.83 1451.17 969.5 1421.5 c
1037.17 1391.83 1090.17 1346.17 1128.5 1284.5 c
1166.83 1222.83 1186 1158.33 1186 1091 c
1186 1028.33 1169 969.33 1135 914 c
1101 858.67 1049.67 814 981 780 c
1069.67 754 1137.83 709.67 1185.5 647 c
1233.17 584.33 1257 510.33 1257 425 c
1257 356.33 1242.5 292.5 1213.5 233.5 c
1184.5 174.5 1148.67 129 1106 97 c
1063.33 65 1009.83 40.83 945.5 24.5 c
881.17 8.17 802.33 0 709 0 c
150 0 709 0 150 0 c
closepath 344 850 m
661 850 344 850 661 850 c
747 850 808.67 855.67 846 867 c
895.33 881.67 932.5 906 957.5 940 c
982.5 974 995 1016.67 995 1068 c
995 1116.67 983.33 1159.5 960 1196.5 c
936.67 1233.5 903.33 1258.83 860 1272.5 c
816.67 1286.17 742.33 1293 637 1293 c
344 1293 637 1293 344 1293 c
344 850 344 1293 344 850 c
closepath 344 173 m
709 173 344 173 709 173 c
771.67 173 815.67 175.33 841 180 c
885.67 188 923 201.33 953 220 c
983 238.67 1007.67 265.83 1027 301.5 c
1046.33 337.17 1056 378.33 1056 425 c
1056 479.67 1042 527.17 1014 567.5 c
986 607.83 947.17 636.17 897.5 652.5 c
847.83 668.83 776.33 677 683 677 c
344 677 683 677 344 677 c
344 173 344 677 344 173 c
closepath } bind def
/s71 {
844 575 m
844 747 844 575 844 747 c
1465 748 844 747 1465 748 c
1465 204 1465 748 1465 204 c
1369.67 128 1271.33 70.83 1170 32.5 c
1068.67 -5.83 964.67 -25 858 -25 c
714 -25 583.17 5.83 465.5 67.5 c
347.83 129.17 259 218.33 199 335 c
139 451.67 109 582 109 726 c
109 868.67 138.83 1001.83 198.5 1125.5 c
258.17 1249.17 344 1341 456 1401 c
568 1461 697 1491 843 1491 c
949 1491 1044.83 1473.83 1130.5 1439.5 c
1216.17 1405.17 1283.33 1357.33 1332 1296 c
1380.67 1234.67 1417.67 1154.67 1443 1056 c
1268 1008 1443 1056 1268 1008 c
1246 1082.67 1218.67 1141.33 1186 1184 c
1153.33 1226.67 1106.67 1260.83 1046 1286.5 c
985.33 1312.17 918 1325 844 1325 c
755.33 1325 678.67 1311.5 614 1284.5 c
549.33 1257.5 497.17 1222 457.5 1178 c
417.83 1134 387 1085.67 365 1033 c
327.67 942.33 309 844 309 738 c
309 607.33 331.5 498 376.5 410 c
421.5 322 487 256.67 573 214 c
659 171.33 750.33 150 847 150 c
931 150 1013 166.17 1093 198.5 c
1173 230.83 1233.67 265.33 1275 302 c
1275 575 1275 302 1275 575 c
844 575 1275 575 844 575 c
closepath } bind def
/s84 {
531 0 m
531 1293 531 0 531 1293 c
48 1293 531 1293 48 1293 c
48 1466 48 1293 48 1466 c
1210 1466 48 1466 1210 1466 c
1210 1293 1210 1466 1210 1293 c
725 1293 1210 1293 725 1293 c
725 0 725 1293 725 0 c
531 0 725 0 531 0 c
closepath } bind def
/s99 {
828 389 m
1005 366 828 389 1005 366 c
985.67 244 936.17 148.5 856.5 79.5 c
776.83 10.5 679 -24 563 -24 c
417.67 -24 300.83 23.5 212.5 118.5 c
124.17 213.5 80 349.67 80 527 c
80 641.67 99 742 137 828 c
175 914 232.83 978.5 310.5 1021.5 c
388.17 1064.5 472.67 1086 564 1086 c
679.33 1086 773.67 1056.83 847 998.5 c
920.33 940.17 967.33 857.33 988 750 c
813 723 988 750 813 723 c
796.33 794.33 766.83 848 724.5 884 c
682.17 920 631 938 571 938 c
480.33 938 406.67 905.5 350 840.5 c
293.33 775.5 265 672.67 265 532 c
265 389.33 292.33 285.67 347 221 c
401.67 156.33 473 124 561 124 c
631.67 124 690.67 145.67 738 189 c
785.33 232.33 815.33 299 828 389 c
closepath } bind def
/s101 {
862 342 m
1048 319 862 342 1048 319 c
1018.67 210.33 964.33 126 885 66 c
805.67 6 704.33 -24 581 -24 c
425.67 -24 302.5 23.83 211.5 119.5 c
120.5 215.17 75 349.33 75 522 c
75 700.67 121 839.33 213 938 c
305 1036.67 424.33 1086 571 1086 c
713 1086 829 1037.67 919 941 c
1009 844.33 1054 708.33 1054 533 c
1054 522.33 1053.67 506.33 1053 485 c
261 485 1053 485 261 485 c
267.67 368.33 300.67 279 360 217 c
419.33 155 493.33 124 582 124 c
648 124 704.33 141.33 751 176 c
797.67 210.67 834.67 266 862 342 c
closepath 271 633 m
864 633 271 633 864 633 c
856 722.33 833.33 789.33 796 834 c
738.67 903.33 664.33 938 573 938 c
490.33 938 420.83 910.33 364.5 855 c
308.17 799.67 277 725.67 271 633 c
closepath } bind def
/s103 {
102 -88 m
277 -114 102 -88 277 -114 c
284.33 -168 304.67 -207.33 338 -232 c
382.67 -265.33 443.67 -282 521 -282 c
604.33 -282 668.67 -265.33 714 -232 c
759.33 -198.67 790 -152 806 -92 c
815.33 -55.33 819.67 21.67 819 139 c
740.33 46.33 642.33 0 525 0 c
379 0 266 52.67 186 158 c
106 263.33 66 389.67 66 537 c
66 638.33 84.33 731.83 121 817.5 c
157.67 903.17 210.83 969.33 280.5 1016 c
350.17 1062.67 432 1086 526 1086 c
651.33 1086 754.67 1035.33 836 934 c
836 1062 836 934 836 1062 c
1002 1062 836 1062 1002 1062 c
1002 144 1002 1062 1002 144 c
1002 -21.33 985.17 -138.5 951.5 -207.5 c
917.83 -276.5 864.5 -331 791.5 -371 c
718.5 -411 628.67 -431 522 -431 c
395.33 -431 293 -402.5 215 -345.5 c
137 -288.5 99.33 -202.67 102 -88 c
closepath 251 550 m
251 410.67 278.67 309 334 245 c
389.33 181 458.67 149 542 149 c
624.67 149 694 180.83 750 244.5 c
806 308.17 834 408 834 544 c
834 674 805.17 772 747.5 838 c
689.83 904 620.33 937 539 937 c
459 937 391 904.5 335 839.5 c
279 774.5 251 678 251 550 c
closepath } bind def
/s104 {
135 0 m
135 1466 135 0 135 1466 c
315 1466 135 1466 315 1466 c
315 940 315 1466 315 940 c
399 1037.33 505 1086 633 1086 c
711.67 1086 780 1070.5 838 1039.5 c
896 1008.5 937.5 965.67 962.5 911 c
987.5 856.33 1000 777 1000 673 c
1000 0 1000 673 1000 0 c
820 0 1000 0 820 0 c
820 673 820 0 820 673 c
820 763 800.5 828.5 761.5 869.5 c
722.5 910.5 667.33 931 596 931 c
542.67 931 492.5 917.17 445.5 889.5 c
398.5 861.83 365 824.33 345 777 c
325 729.67 315 664.33 315 581 c
315 0 315 581 315 0 c
135 0 315 0 135 0 c
closepath } bind def
/s111 {
68 531 m
68 727.67 122.67 873.33 232 968 c
323.33 1046.67 434.67 1086 566 1086 c
712 1086 831.33 1038.17 924 942.5 c
1016.67 846.83 1063 714.67 1063 546 c
1063 409.33 1042.5 301.83 1001.5 223.5 c
960.5 145.17 900.83 84.33 822.5 41 c
744.17 -2.33 658.67 -24 566 -24 c
417.33 -24 297.17 23.67 205.5 119 c
113.83 214.33 68 351.67 68 531 c
closepath 253 531 m
253 395 282.67 293.17 342 225.5 c
401.33 157.83 476 124 566 124 c
655.33 124 729.67 158 789 226 c
848.33 294 878 397.67 878 537 c
878 668.33 848.17 767.83 788.5 835.5 c
728.83 903.17 654.67 937 566 937 c
476 937 401.33 903.33 342 836 c
282.67 768.67 253 667 253 531 c
closepath } bind def
/s112 {
135 -407 m
135 1062 135 -407 135 1062 c
299 1062 135 1062 299 1062 c
299 924 299 1062 299 924 c
337.67 978 381.33 1018.5 430 1045.5 c
478.67 1072.5 537.67 1086 607 1086 c
697.67 1086 777.67 1062.67 847 1016 c
916.33 969.33 968.67 903.5 1004 818.5 c
1039.33 733.5 1057 640.33 1057 539 c
1057 430.33 1037.5 332.5 998.5 245.5 c
959.5 158.5 902.83 91.83 828.5 45.5 c
754.17 -0.83 676 -24 594 -24 c
534 -24 480.17 -11.33 432.5 14 c
384.83 39.33 345.67 71.33 315 110 c
315 -407 315 110 315 -407 c
135 -407 315 -407 135 -407 c
closepath 298 525 m
298 388.33 325.67 287.33 381 222 c
436.33 156.67 503.33 124 582 124 c
662 124 730.5 157.83 787.5 225.5 c
844.5 293.17 873 398 873 540 c
873 675.33 845.17 776.67 789.5 844 c
733.83 911.33 667.33 945 590 945 c
513.33 945 445.5 909.17 386.5 837.5 c
327.5 765.83 298 661.67 298 525 c
closepath } bind def
/s114 {
133 0 m
133 1062 133 0 133 1062 c
295 1062 133 1062 295 1062 c
295 901 295 1062 295 901 c
336.33 976.33 374.5 1026 409.5 1050 c
444.5 1074 483 1086 525 1086 c
585.67 1086 647.33 1066.67 710 1028 c
648 861 710 1028 648 861 c
604 887 560 900 516 900 c
476.67 900 441.33 888.17 410 864.5 c
378.67 840.83 356.33 808 343 766 c
323 702 313 632 313 556 c
313 0 313 556 313 0 c
133 0 313 0 133 0 c
closepath } bind def
/s115 {
63 317 m
241 345 63 317 241 345 c
251 273.67 278.83 219 324.5 181 c
370.17 143 434 124 516 124 c
598.67 124 660 140.83 700 174.5 c
740 208.17 760 247.67 760 293 c
760 333.67 742.33 365.67 707 389 c
682.33 405 621 425.33 523 450 c
391 483.33 299.5 512.17 248.5 536.5 c
197.5 560.83 158.83 594.5 132.5 637.5 c
106.17 680.5 93 728 93 780 c
93 827.33 103.83 871.17 125.5 911.5 c
147.17 951.83 176.67 985.33 214 1012 c
242 1032.67 280.17 1050.17 328.5 1064.5 c
376.83 1078.83 428.67 1086 484 1086 c
567.33 1086 640.5 1074 703.5 1050 c
766.5 1026 813 993.5 843 952.5 c
873 911.5 893.67 856.67 905 788 c
729 764 905 788 729 764 c
721 818.67 697.83 861.33 659.5 892 c
621.17 922.67 567 938 497 938 c
414.33 938 355.33 924.33 320 897 c
284.67 869.67 267 837.67 267 801 c
267 777.67 274.33 756.67 289 738 c
303.67 718.67 326.67 702.67 358 690 c
376 683.33 429 668 517 644 c
644.33 610 733.17 582.17 783.5 560.5 c
833.83 538.83 873.33 507.33 902 466 c
930.67 424.67 945 373.33 945 312 c
945 252 927.5 195.5 892.5 142.5 c
857.5 89.5 807 48.5 741 19.5 c
675 -9.5 600.33 -24 517 -24 c
379 -24 273.83 4.67 201.5 62 c
129.17 119.33 83 204.33 63 317 c
closepath } bind def
/s116 {
528 161 m
554 2 528 161 554 2 c
503.33 -8.67 458 -14 418 -14 c
352.67 -14 302 -3.67 266 17 c
230 37.67 204.67 64.83 190 98.5 c
175.33 132.17 168 203 168 311 c
168 922 168 311 168 922 c
36 922 168 922 36 922 c
36 1062 36 922 36 1062 c
168 1062 36 1062 168 1062 c
168 1325 168 1062 168 1325 c
347 1433 168 1325 347 1433 c
347 1062 347 1433 347 1062 c
528 1062 347 1062 528 1062 c
528 922 528 1062 528 922 c
347 922 528 922 347 922 c
347 301 347 922 347 301 c
347 249.67 350.17 216.67 356.5 202 c
362.83 187.33 373.17 175.67 387.5 167 c
401.83 158.33 422.33 154 449 154 c
469 154 495.33 156.33 528 161 c
closepath } bind def
/s117 {
831 0 m
831 156 831 0 831 156 c
748.33 36 636 -24 494 -24 c
431.33 -24 372.83 -12 318.5 12 c
264.17 36 223.83 66.17 197.5 102.5 c
171.17 138.83 152.67 183.33 142 236 c
134.67 271.33 131 327.33 131 404 c
131 1062 131 404 131 1062 c
311 1062 131 1062 311 1062 c
311 473 311 1062 311 473 c
311 379 314.67 315.67 322 283 c
333.33 235.67 357.33 198.5 394 171.5 c
430.67 144.5 476 131 530 131 c
584 131 634.67 144.83 682 172.5 c
729.33 200.17 762.83 237.83 782.5 285.5 c
802.17 333.17 812 402.33 812 493 c
812 1062 812 493 812 1062 c
992 1062 812 1062 992 1062 c
992 0 992 1062 992 0 c
831 0 992 0 831 0 c
closepath } bind def
end
/BuildGlyph {
 exch dup /Metrics get 2 index get 0 setcharwidth
/CharProcs get exch 2 copy known not{pop/.notdef}if get exec fill}bind def
/BuildChar {
1 index /Encoding get exch get
1 index /BuildGlyph get exec
} bind def
currentdict end /MC2_Arial exch definefont pop
%%EndFont
%%BeginFont: /MC3_Arial
12 dict begin
/FontInfo 8 dict dup begin
/ItalicAngle 0 def
/UnderlinePosition -217.00 def
/UnderlineThickness 150.00 def
/StrikeoutPosition 530.00 def
/StrikeoutThickness 102.00 def
/isFixedPitch false def
end readonly def
/FontName /MC3_Arial def
/FontType 3 def
/FontMatrix [1 2048 div 0 0 1 2048 div 0 0] def
/FontBBox [-1361 -665 4096 2060] def
/Encoding 256 array def 0 1 255{Encoding exch/.notdef put}for
Encoding 32/s32 put
Encoding 40/s40 put
Encoding 41/s41 put
Encoding 65/s65 put
Encoding 66/s66 put
Encoding 68/s68 put
Encoding 69/s69 put
Encoding 73/s73 put
Encoding 75/s75 put
Encoding 76/s76 put
Encoding 82/s82 put
Encoding 83/s83 put
Encoding 87/s87 put
Encoding 101/s101 put
Encoding 105/s105 put
Encoding 113/s113 put
Encoding 115/s115 put
Encoding 116/s116 put
Encoding 117/s117 put
Encoding 122/s122 put
/BoundingBoxes 21 dict def
BoundingBoxes begin
/s32 [0 -434 569 1854] def
/s40 [0 -434 682 1854] def
/s41 [0 -434 682 1854] def
/s65 [-3 -434 1366 1854] def
/s66 [0 -434 1366 1854] def
/s68 [0 -434 1479 1854] def
/s69 [0 -434 1366 1854] def
/s73 [0 -434 569 1854] def
/s75 [0 -434 1366 1854] def
/s76 [0 -434 1139 1854] def
/s82 [0 -434 1479 1854] def
/s83 [0 -434 1366 1854] def
/s87 [0 -434 1933 1854] def
/s101 [0 -434 1139 1854] def
/s105 [0 -434 455 1854] def
/s113 [0 -434 1139 1854] def
/s115 [0 -434 1024 1854] def
/s116 [0 -434 569 1854] def
/s117 [0 -434 1139 1854] def
/s122 [0 -434 1024 1854] def
end
/Metrics 21 dict def
 Metrics begin
/s32 569 def
/s40 682 def
/s41 682 def
/s65 1366 def
/s66 1366 def
/s68 1479 def
/s69 1366 def
/s73 569 def
/s75 1366 def
/s76 1139 def
/s82 1479 def
/s83 1366 def
/s87 1933 def
/s101 1139 def
/s105 455 def
/s113 1139 def
/s115 1024 def
/s116 569 def
/s117 1139 def
/s122 1024 def
end
/CharProcs 21 dict def
CharProcs begin
/.notdef {} def
/s40 {
479 -431 m
379.67 -305.67 295.67 -159 227 9 c
158.33 177 124 351 124 531 c
124 689.67 149.67 841.67 201 987 c
261 1155.67 353.67 1323.67 479 1491 c
608 1491 479 1491 608 1491 c
527.33 1352.33 474 1253.33 448 1194 c
407.33 1102 375.33 1006 352 906 c
323.33 781.33 309 656 309 530 c
309 209.33 408.67 -111 608 -431 c
479 -431 608 -431 479 -431 c
closepath } bind def
/s41 {
253 -431 m
124 -431 253 -431 124 -431 c
323.33 -111 423 209.33 423 530 c
423 655.33 408.67 779.67 380 903 c
357.33 1003 325.67 1099 285 1191 c
259 1251 205.33 1351 124 1491 c
253 1491 124 1491 253 1491 c
378.33 1323.67 471 1155.67 531 987 c
582.33 841.67 608 689.67 608 531 c
608 351 573.5 177 504.5 9 c
435.5 -159 351.67 -305.67 253 -431 c
closepath } bind def
/s65 {
-3 0 m
560 1466 -3 0 560 1466 c
769 1466 560 1466 769 1466 c
1369 0 769 1466 1369 0 c
1148 0 1369 0 1148 0 c
977 444 1148 0 977 444 c
364 444 977 444 364 444 c
203 0 364 444 203 0 c
-3 0 203 0 -3 0 c
closepath 420 602 m
917 602 420 602 917 602 c
764 1008 917 602 764 1008 c
717.33 1131.33 682.67 1232.67 660 1312 c
641.33 1218 615 1124.67 581 1032 c
420 602 581 1032 420 602 c
closepath } bind def
/s66 {
150 0 m
150 1466 150 0 150 1466 c
700 1466 150 1466 700 1466 c
812 1466 901.83 1451.17 969.5 1421.5 c
1037.17 1391.83 1090.17 1346.17 1128.5 1284.5 c
1166.83 1222.83 1186 1158.33 1186 1091 c
1186 1028.33 1169 969.33 1135 914 c
1101 858.67 1049.67 814 981 780 c
1069.67 754 1137.83 709.67 1185.5 647 c
1233.17 584.33 1257 510.33 1257 425 c
1257 356.33 1242.5 292.5 1213.5 233.5 c
1184.5 174.5 1148.67 129 1106 97 c
1063.33 65 1009.83 40.83 945.5 24.5 c
881.17 8.17 802.33 0 709 0 c
150 0 709 0 150 0 c
closepath 344 850 m
661 850 344 850 661 850 c
747 850 808.67 855.67 846 867 c
895.33 881.67 932.5 906 957.5 940 c
982.5 974 995 1016.67 995 1068 c
995 1116.67 983.33 1159.5 960 1196.5 c
936.67 1233.5 903.33 1258.83 860 1272.5 c
816.67 1286.17 742.33 1293 637 1293 c
344 1293 637 1293 344 1293 c
344 850 344 1293 344 850 c
closepath 344 173 m
709 173 344 173 709 173 c
771.67 173 815.67 175.33 841 180 c
885.67 188 923 201.33 953 220 c
983 238.67 1007.67 265.83 1027 301.5 c
1046.33 337.17 1056 378.33 1056 425 c
1056 479.67 1042 527.17 1014 567.5 c
986 607.83 947.17 636.17 897.5 652.5 c
847.83 668.83 776.33 677 683 677 c
344 677 683 677 344 677 c
344 173 344 677 344 173 c
closepath } bind def
/s68 {
158 0 m
158 1466 158 0 158 1466 c
663 1466 158 1466 663 1466 c
777 1466 864 1459 924 1445 c
1008 1425.67 1079.67 1390.67 1139 1340 c
1216.33 1274.67 1274.17 1191.17 1312.5 1089.5 c
1350.83 987.83 1370 871.67 1370 741 c
1370 629.67 1357 531 1331 445 c
1305 359 1271.67 287.83 1231 231.5 c
1190.33 175.17 1145.83 130.83 1097.5 98.5 c
1049.17 66.17 990.83 41.67 922.5 25 c
854.17 8.33 775.67 0 687 0 c
158 0 687 0 158 0 c
closepath 352 173 m
665 173 352 173 665 173 c
761.67 173 837.5 182 892.5 200 c
947.5 218 991.33 243.33 1024 276 c
1070 322 1105.83 383.83 1131.5 461.5 c
1157.17 539.17 1170 633.33 1170 744 c
1170 897.33 1144.83 1015.17 1094.5 1097.5 c
1044.17 1179.83 983 1235 911 1263 c
859 1283 775.33 1293 660 1293 c
352 1293 660 1293 352 1293 c
352 173 352 1293 352 173 c
closepath } bind def
/s69 {
162 0 m
162 1466 162 0 162 1466 c
1222 1466 162 1466 1222 1466 c
1222 1293 1222 1466 1222 1293 c
356 1293 1222 1293 356 1293 c
356 844 356 1293 356 844 c
1167 844 356 844 1167 844 c
1167 672 1167 844 1167 672 c
356 672 1167 672 356 672 c
356 173 356 672 356 173 c
1256 173 356 173 1256 173 c
1256 0 1256 173 1256 0 c
162 0 1256 0 162 0 c
closepath } bind def
/s73 {
191 0 m
191 1466 191 0 191 1466 c
385 1466 191 1466 385 1466 c
385 0 385 1466 385 0 c
191 0 385 0 191 0 c
closepath } bind def
/s75 {
150 0 m
150 1466 150 0 150 1466 c
344 1466 150 1466 344 1466 c
344 739 344 1466 344 739 c
1072 1466 344 739 1072 1466 c
1335 1466 1072 1466 1335 1466 c
720 872 1335 1466 720 872 c
1362 0 720 872 1362 0 c
1106 0 1362 0 1106 0 c
584 742 1106 0 584 742 c
344 508 584 742 344 508 c
344 0 344 508 344 0 c
150 0 344 0 150 0 c
closepath } bind def
/s76 {
150 0 m
150 1466 150 0 150 1466 c
344 1466 150 1466 344 1466 c
344 173 344 1466 344 173 c
1066 173 344 173 1066 173 c
1066 0 1066 173 1066 0 c
150 0 1066 0 150 0 c
closepath } bind def
/s82 {
161 0 m
161 1466 161 0 161 1466 c
811 1466 161 1466 811 1466 c
941.67 1466 1041 1452.83 1109 1426.5 c
1177 1400.17 1231.33 1353.67 1272 1287 c
1312.67 1220.33 1333 1146.67 1333 1066 c
1333 962 1299.33 874.33 1232 803 c
1164.67 731.67 1060.67 686.33 920 667 c
971.33 642.33 1010.33 618 1037 594 c
1093.67 542 1147.33 477 1198 399 c
1453 0 1198 399 1453 0 c
1209 0 1453 0 1209 0 c
1015 305 1209 0 1015 305 c
958.33 393 911.67 460.33 875 507 c
838.33 553.67 805.5 586.33 776.5 605 c
747.5 623.67 718 636.67 688 644 c
666 648.67 630 651 580 651 c
355 651 580 651 355 651 c
355 0 355 651 355 0 c
161 0 355 0 161 0 c
closepath 355 819 m
772 819 355 819 772 819 c
860.67 819 930 828.17 980 846.5 c
1030 864.83 1068 894.17 1094 934.5 c
1120 974.83 1133 1018.67 1133 1066 c
1133 1135.33 1107.83 1192.33 1057.5 1237 c
1007.17 1281.67 927.67 1304 819 1304 c
355 1304 819 1304 355 1304 c
355 819 355 1304 355 819 c
closepath } bind def
/s83 {
92 471 m
275 487 92 471 275 487 c
283.67 413.67 303.83 353.5 335.5 306.5 c
367.17 259.5 416.33 221.5 483 192.5 c
549.67 163.5 624.67 149 708 149 c
782 149 847.33 160 904 182 c
960.67 204 1002.83 234.17 1030.5 272.5 c
1058.17 310.83 1072 352.67 1072 398 c
1072 444 1058.67 484.17 1032 518.5 c
1005.33 552.83 961.33 581.67 900 605 c
860.67 620.33 773.67 644.17 639 676.5 c
504.33 708.83 410 739.33 356 768 c
286 804.67 233.83 850.17 199.5 904.5 c
165.17 958.83 148 1019.67 148 1087 c
148 1161 169 1230.17 211 1294.5 c
253 1358.83 314.33 1407.67 395 1441 c
475.67 1474.33 565.33 1491 664 1491 c
772.67 1491 868.5 1473.5 951.5 1438.5 c
1034.5 1403.5 1098.33 1352 1143 1284 c
1187.67 1216 1211.67 1139 1215 1053 c
1029 1039 1215 1053 1029 1039 c
1019 1131.67 985.17 1201.67 927.5 1249 c
869.83 1296.33 784.67 1320 672 1320 c
554.67 1320 469.17 1298.5 415.5 1255.5 c
361.83 1212.5 335 1160.67 335 1100 c
335 1047.33 354 1004 392 970 c
429.33 936 526.83 901.17 684.5 865.5 c
842.17 829.83 950.33 798.67 1009 772 c
1094.33 732.67 1157.33 682.83 1198 622.5 c
1238.67 562.17 1259 492.67 1259 414 c
1259 336 1236.67 262.5 1192 193.5 c
1147.33 124.5 1083.17 70.83 999.5 32.5 c
915.83 -5.83 821.67 -25 717 -25 c
584.33 -25 473.17 -5.67 383.5 33 c
293.83 71.67 223.5 129.83 172.5 207.5 c
121.5 285.17 94.67 373 92 471 c
closepath } bind def
/s87 {
414 0 m
25 1466 414 0 25 1466 c
224 1466 25 1466 224 1466 c
447 505 224 1466 447 505 c
471 404.33 491.67 304.33 509 205 c
546.33 361.67 568.33 452 575 476 c
854 1466 575 476 854 1466 c
1088 1466 854 1466 1088 1466 c
1298 724 1088 1466 1298 724 c
1350.67 540 1388.67 367 1412 205 c
1430.67 297.67 1455 404 1485 524 c
1715 1466 1485 524 1715 1466 c
1910 1466 1715 1466 1910 1466 c
1508 0 1910 1466 1508 0 c
1321 0 1508 0 1321 0 c
1012 1117 1321 0 1012 1117 c
986 1210.33 970.67 1267.67 966 1289 c
950.67 1221.67 936.33 1164.33 923 1117 c
612 0 923 1117 612 0 c
414 0 612 0 414 0 c
closepath } bind def
/s101 {
862 342 m
1048 319 862 342 1048 319 c
1018.67 210.33 964.33 126 885 66 c
805.67 6 704.33 -24 581 -24 c
425.67 -24 302.5 23.83 211.5 119.5 c
120.5 215.17 75 349.33 75 522 c
75 700.67 121 839.33 213 938 c
305 1036.67 424.33 1086 571 1086 c
713 1086 829 1037.67 919 941 c
1009 844.33 1054 708.33 1054 533 c
1054 522.33 1053.67 506.33 1053 485 c
261 485 1053 485 261 485 c
267.67 368.33 300.67 279 360 217 c
419.33 155 493.33 124 582 124 c
648 124 704.33 141.33 751 176 c
797.67 210.67 834.67 266 862 342 c
closepath 271 633 m
864 633 271 633 864 633 c
856 722.33 833.33 789.33 796 834 c
738.67 903.33 664.33 938 573 938 c
490.33 938 420.83 910.33 364.5 855 c
308.17 799.67 277 725.67 271 633 c
closepath } bind def
/s105 {
136 1259 m
136 1466 136 1259 136 1466 c
316 1466 136 1466 316 1466 c
316 1259 316 1466 316 1259 c
136 1259 316 1259 136 1259 c
closepath 136 0 m
136 1062 136 0 136 1062 c
316 1062 136 1062 316 1062 c
316 0 316 1062 316 0 c
136 0 316 0 136 0 c
closepath } bind def
/s113 {
812 -407 m
812 113 812 -407 812 113 c
784 73.67 744.83 41 694.5 15 c
644.17 -11 590.67 -24 534 -24 c
408 -24 299.5 26.33 208.5 127 c
117.5 227.67 72 365.67 72 541 c
72 647.67 90.5 743.33 127.5 828 c
164.5 912.67 218.17 976.83 288.5 1020.5 c
358.83 1064.17 436 1086 520 1086 c
651.33 1086 754.67 1030.67 830 920 c
830 1062 830 920 830 1062 c
992 1062 830 1062 992 1062 c
992 -407 992 1062 992 -407 c
812 -407 992 -407 812 -407 c
closepath 257 534 m
257 397.33 285.67 294.83 343 226.5 c
400.33 158.17 469 124 549 124 c
625.67 124 691.67 156.5 747 221.5 c
802.33 286.5 830 385.33 830 518 c
830 659.33 800.83 765.67 742.5 837 c
684.17 908.33 615.67 944 537 944 c
459 944 392.83 910.83 338.5 844.5 c
284.17 778.17 257 674.67 257 534 c
closepath } bind def
/s115 {
63 317 m
241 345 63 317 241 345 c
251 273.67 278.83 219 324.5 181 c
370.17 143 434 124 516 124 c
598.67 124 660 140.83 700 174.5 c
740 208.17 760 247.67 760 293 c
760 333.67 742.33 365.67 707 389 c
682.33 405 621 425.33 523 450 c
391 483.33 299.5 512.17 248.5 536.5 c
197.5 560.83 158.83 594.5 132.5 637.5 c
106.17 680.5 93 728 93 780 c
93 827.33 103.83 871.17 125.5 911.5 c
147.17 951.83 176.67 985.33 214 1012 c
242 1032.67 280.17 1050.17 328.5 1064.5 c
376.83 1078.83 428.67 1086 484 1086 c
567.33 1086 640.5 1074 703.5 1050 c
766.5 1026 813 993.5 843 952.5 c
873 911.5 893.67 856.67 905 788 c
729 764 905 788 729 764 c
721 818.67 697.83 861.33 659.5 892 c
621.17 922.67 567 938 497 938 c
414.33 938 355.33 924.33 320 897 c
284.67 869.67 267 837.67 267 801 c
267 777.67 274.33 756.67 289 738 c
303.67 718.67 326.67 702.67 358 690 c
376 683.33 429 668 517 644 c
644.33 610 733.17 582.17 783.5 560.5 c
833.83 538.83 873.33 507.33 902 466 c
930.67 424.67 945 373.33 945 312 c
945 252 927.5 195.5 892.5 142.5 c
857.5 89.5 807 48.5 741 19.5 c
675 -9.5 600.33 -24 517 -24 c
379 -24 273.83 4.67 201.5 62 c
129.17 119.33 83 204.33 63 317 c
closepath } bind def
/s116 {
528 161 m
554 2 528 161 554 2 c
503.33 -8.67 458 -14 418 -14 c
352.67 -14 302 -3.67 266 17 c
230 37.67 204.67 64.83 190 98.5 c
175.33 132.17 168 203 168 311 c
168 922 168 311 168 922 c
36 922 168 922 36 922 c
36 1062 36 922 36 1062 c
168 1062 36 1062 168 1062 c
168 1325 168 1062 168 1325 c
347 1433 168 1325 347 1433 c
347 1062 347 1433 347 1062 c
528 1062 347 1062 528 1062 c
528 922 528 1062 528 922 c
347 922 528 922 347 922 c
347 301 347 922 347 301 c
347 249.67 350.17 216.67 356.5 202 c
362.83 187.33 373.17 175.67 387.5 167 c
401.83 158.33 422.33 154 449 154 c
469 154 495.33 156.33 528 161 c
closepath } bind def
/s117 {
831 0 m
831 156 831 0 831 156 c
748.33 36 636 -24 494 -24 c
431.33 -24 372.83 -12 318.5 12 c
264.17 36 223.83 66.17 197.5 102.5 c
171.17 138.83 152.67 183.33 142 236 c
134.67 271.33 131 327.33 131 404 c
131 1062 131 404 131 1062 c
311 1062 131 1062 311 1062 c
311 473 311 1062 311 473 c
311 379 314.67 315.67 322 283 c
333.33 235.67 357.33 198.5 394 171.5 c
430.67 144.5 476 131 530 131 c
584 131 634.67 144.83 682 172.5 c
729.33 200.17 762.83 237.83 782.5 285.5 c
802.17 333.17 812 402.33 812 493 c
812 1062 812 493 812 1062 c
992 1062 812 1062 992 1062 c
992 0 992 1062 992 0 c
831 0 992 0 831 0 c
closepath } bind def
/s122 {
40 0 m
40 146 40 0 40 146 c
716 922 40 146 716 922 c
639.33 918 571.67 916 513 916 c
80 916 513 916 80 916 c
80 1062 80 916 80 1062 c
948 1062 80 1062 948 1062 c
948 943 948 1062 948 943 c
373 269 948 943 373 269 c
262 146 373 269 262 146 c
342.67 152 418.33 155 489 155 c
980 155 489 155 980 155 c
980 0 980 155 980 0 c
40 0 980 0 40 0 c
closepath } bind def
end
/BuildGlyph {
 exch dup /Metrics get 2 index get 0 setcharwidth
/CharProcs get exch 2 copy known not{pop/.notdef}if get exec fill}bind def
/BuildChar {
1 index /Encoding get exch get
1 index /BuildGlyph get exec
} bind def
currentdict end /MC3_Arial exch definefont pop
%%EndFont
/clipproc{clippath{[{/m cvx}{/l cvx}{/c cvx}{/cp cvx}pathforall}stopped
{cleartomark[pathbbox exch 3 i sub exch 2 i sub/rectpath cvx}if]np}bd
/iclmtx mtx cmtx def/iclpath clipproc xd/clinit{pathproc initclip np iclpath cl np exec}bd
/clmove{pathproc 3 1 roll clippath pathproc 2 i neg 2 i neg tr initclip np exec cl tr np exec}bd
/clrect[gs np iclpath{pathbbox}stopped{0 0 1058.4 444.25 }if gr]def
/cloper{mtx cmtx iclmtx smtx exch exec smtx}bd
/cland{{exch cvx exec}cloper}bd
/clcopy{{exch clinit cvx exec}cloper}bd
/cldiff{{exch pathbbox 4 -1 roll clrect 0 get 2 copy gt{exch}if pop 4 1 roll
 3 -1 roll clrect 1 get 2 copy gt{exch}if pop 3 1 roll
 2 -1 roll clrect 2 get 2 copy lt{exch}if pop 2 1 roll
 1 -1 roll clrect 3 get 2 copy lt{exch}if pop 1 1 roll
 exch 3 i sub exch 2 i sub rectpath cvx exec}cloper}bd
/icl{{clinit}cloper}bd
0.240119 0.240004 sc

/initmtx mtx cmtx def
[0.999508 -0 0 -1 0 1851] concat
gs
gs
gs
1 -1 sc
806 -1613 tr
45 ro
/MC1_Arial 154 self 0 0 m
(1)[85 ] xs
1 -1 sc
gr
gr
gs
gs
1 -1 sc
1086 -1613 tr
45 ro
/MC1_Arial 154 self 0 0 m
(2)[85 ] xs
1 -1 sc
gr
gr
gs
gs
1 -1 sc
1366 -1613 tr
45 ro
/MC1_Arial 154 self 0 0 m
(4)[85 ] xs
1 -1 sc
gr
gr
gs
gs
1 -1 sc
1646 -1613 tr
45 ro
/MC1_Arial 154 self 0 0 m
(8)[85 ] xs
1 -1 sc
gr
gr
gs
gs
1 -1 sc
1866 -1673 tr
45 ro
/MC1_Arial 154 self 0 0 m
(16)[85 85 ] xs
1 -1 sc
gr
gr
gs
gs
1 -1 sc
2146 -1673 tr
45 ro
/MC1_Arial 154 self 0 0 m
(32)[85 85 ] xs
1 -1 sc
gr
gr
gs
gs
1 -1 sc
2426 -1673 tr
45 ro
/MC1_Arial 154 self 0 0 m
(64)[85 85 ] xs
1 -1 sc
gr
gr
gs
gs
1 -1 sc
2646 -1733 tr
45 ro
/MC1_Arial 154 self 0 0 m
(128)[85 85 85 ] xs
1 -1 sc
gr
gr
gs
gs
1 -1 sc
2926 -1733 tr
45 ro
/MC1_Arial 154 self 0 0 m
(256)[85 85 85 ] xs
1 -1 sc
gr
gr
gs
gs
1 -1 sc
3206 -1733 tr
45 ro
/MC1_Arial 154 self 0 0 m
(512)[85 85 85 ] xs
1 -1 sc
gr
gr
gs
gs
1 -1 sc
3426 -1793 tr
45 ro
/MC1_Arial 154 self 0 0 m
(1024)[85 85 85 85 ] xs
1 -1 sc
gr
gr
gs
gs
1 -1 sc
3706 -1793 tr
45 ro
/MC1_Arial 154 self 0 0 m
(2048)[85 85 85 85 ] xs
1 -1 sc
gr
gr
gs
gs
1 -1 sc
3986 -1793 tr
45 ro
/MC1_Arial 154 self 0 0 m
(4096)[85 85 85 85 ] xs
1 -1 sc
gr
gr
gs
1 -1 sc
/MC1_Arial 174 self 588 -1504 m
(0)[97 ] xs
1 -1 sc
gr
gs
1 -1 sc
/MC1_Arial 174 self 491 -1327 m
(20)[97 97 ] xs
1 -1 sc
gr
gs
1 -1 sc
/MC1_Arial 174 self 491 -1151 m
(40)[97 97 ] xs
1 -1 sc
gr
gs
1 -1 sc
/MC1_Arial 174 self 491 -974 m
(60)[97 97 ] xs
1 -1 sc
gr
gs
1 -1 sc
/MC1_Arial 174 self 491 -798 m
(80)[97 97 ] xs
1 -1 sc
gr
gs
1 -1 sc
/MC1_Arial 174 self 394 -621 m
(100)[97 97 97 ] xs
1 -1 sc
gr
gs
1 -1 sc
/MC1_Arial 174 self 394 -445 m
(120)[97 97 97 ] xs
1 -1 sc
gr
gs
1 -1 sc
/MC1_Arial 174 self 394 -268 m
(140)[97 97 97 ] xs
1 -1 sc
gr
698 1451 m
698 1451 l
7 sw
1 sj
1 scap
st
728 1451 m
728 1451 l
st
755 1451 m
755 1451 l
st
781 1451 m
781 1451 l
st
806 1451 m
806 1451 l
st
829 1451 m
829 1451 l
st
872 1451 m
872 1451 l
st
910 1451 m
910 1451 l
st
945 1451 m
945 1451 l
st
978 1451 m
978 1451 l
st
1008 1451 m
1008 1451 l
st
1035 1451 m
1035 1451 l
st
1061 1451 m
1061 1451 l
st
1086 1451 m
1086 1451 l
st
1109 1451 m
1109 1451 l
st
1152 1451 m
1152 1451 l
st
1190 1451 m
1190 1451 l
st
1225 1451 m
1225 1451 l
st
1258 1451 m
1258 1451 l
st
1288 1451 m
1288 1451 l
st
1315 1451 m
1315 1451 l
st
1341 1451 m
1341 1451 l
st
1366 1451 m
1366 1451 l
st
1389 1451 m
1389 1451 l
st
1432 1451 m
1432 1451 l
st
1470 1451 m
1470 1451 l
st
1505 1451 m
1505 1451 l
st
1538 1451 m
1538 1451 l
st
1568 1451 m
1568 1451 l
st
1595 1451 m
1595 1451 l
st
1621 1451 m
1621 1451 l
st
1646 1451 m
1646 1451 l
st
1669 1451 m
1669 1451 l
st
1712 1451 m
1712 1451 l
st
1750 1451 m
1750 1451 l
st
1785 1451 m
1785 1451 l
st
1818 1451 m
1818 1451 l
st
1848 1451 m
1848 1451 l
st
1875 1451 m
1875 1451 l
st
1901 1451 m
1901 1451 l
st
1926 1451 m
1926 1451 l
st
1949 1451 m
1949 1451 l
st
1992 1451 m
1992 1451 l
st
2030 1451 m
2030 1451 l
st
2065 1451 m
2065 1451 l
st
2098 1451 m
2098 1451 l
st
2128 1451 m
2128 1451 l
st
2155 1451 m
2155 1451 l
st
2181 1451 m
2181 1451 l
st
2206 1451 m
2206 1451 l
st
2229 1451 m
2229 1451 l
st
2272 1451 m
2272 1451 l
st
2310 1451 m
2310 1451 l
st
2345 1451 m
2345 1451 l
st
2378 1451 m
2378 1451 l
st
2408 1451 m
2408 1451 l
st
2435 1451 m
2435 1451 l
st
2461 1451 m
2461 1451 l
st
2486 1451 m
2486 1451 l
st
2509 1451 m
2509 1451 l
st
2552 1451 m
2552 1451 l
st
2590 1451 m
2590 1451 l
st
2625 1451 m
2625 1451 l
st
2658 1451 m
2658 1451 l
st
2688 1451 m
2688 1451 l
st
2715 1451 m
2715 1451 l
st
2741 1451 m
2741 1451 l
st
2766 1451 m
2766 1451 l
st
2789 1451 m
2789 1451 l
st
2832 1451 m
2832 1451 l
st
2870 1451 m
2870 1451 l
st
2905 1451 m
2905 1451 l
st
2938 1451 m
2938 1451 l
st
2968 1451 m
2968 1451 l
st
2995 1451 m
2995 1451 l
st
3021 1451 m
3021 1451 l
st
3046 1451 m
3046 1451 l
st
3069 1451 m
3069 1451 l
st
3112 1451 m
3112 1451 l
st
3150 1451 m
3150 1451 l
st
3185 1451 m
3185 1451 l
st
3218 1451 m
3218 1451 l
st
3248 1451 m
3248 1451 l
st
3275 1451 m
3275 1451 l
st
3301 1451 m
3301 1451 l
st
3326 1451 m
3326 1451 l
st
3349 1451 m
3349 1451 l
st
3392 1451 m
3392 1451 l
st
3430 1451 m
3430 1451 l
st
3465 1451 m
3465 1451 l
st
3498 1451 m
3498 1451 l
st
3527 1451 m
3527 1451 l
st
3555 1451 m
3555 1451 l
st
3581 1451 m
3581 1451 l
st
3606 1451 m
3606 1451 l
st
3629 1451 m
3629 1451 l
st
3672 1451 m
3672 1451 l
st
3710 1451 m
3710 1451 l
st
3745 1451 m
3745 1451 l
st
3778 1451 m
3778 1451 l
st
3807 1451 m
3807 1451 l
st
3835 1451 m
3835 1451 l
st
3861 1451 m
3861 1451 l
st
3886 1451 m
3886 1451 l
st
3909 1451 m
3909 1451 l
st
3952 1451 m
3952 1451 l
st
3990 1451 m
3990 1451 l
st
4025 1451 m
4025 1451 l
st
4058 1451 m
4058 1451 l
st
4087 1451 m
4087 1451 l
st
4115 1451 m
4115 1451 l
st
4141 1451 m
4141 1451 l
st
4166 1451 m
4166 1451 l
st
4189 1451 m
4189 1451 l
st
685 1451 m
4227 1451 l
st
685 1451 m
685 1451 l
st
685 1363 m
685 1363 l
st
685 1274 m
685 1274 l
st
685 1186 m
685 1186 l
st
685 1098 m
685 1098 l
st
685 1010 m
685 1010 l
st
685 921 m
685 921 l
st
685 833 m
685 833 l
st
685 745 m
685 745 l
st
685 656 m
685 656 l
st
685 568 m
685 568 l
st
685 480 m
685 480 l
st
685 392 m
685 392 l
st
685 303 m
685 303 l
st
685 215 m
685 215 l
st
685 1451 m
685 215 l
st
gs
pathproc 685 215 3543 1237 np rectpath
/eocl cland
np exec
1109 1010 m
829 1259 l
13 sw
st
1389 561 m
1109 1010 l
st
1669 421 m
1389 561 l
st
1949 421 m
1669 421 l
st
2229 421 m
1949 421 l
st
2509 421 m
2229 421 l
st
2789 421 m
2509 421 l
st
3069 422 m
2789 421 l
st
3349 423 m
3069 422 l
st
3629 421 m
3349 423 l
st
3909 421 m
3629 421 l
st
4189 424 m
3909 421 l
st
799 1229 60 60 rectfill
3909 421 m
5 sw
799 1229 60 60 rectstroke
1079 980 60 60 rectfill
1079 980 60 60 rectstroke
1359 531 60 60 rectfill
1359 531 60 60 rectstroke
1639 391 60 60 rectfill
1639 391 60 60 rectstroke
1919 391 60 60 rectfill
1919 391 60 60 rectstroke
2199 391 60 60 rectfill
2199 391 60 60 rectstroke
2479 391 60 60 rectfill
2479 391 60 60 rectstroke
2759 391 60 60 rectfill
2759 391 60 60 rectstroke
3039 392 60 60 rectfill
3039 392 60 60 rectstroke
3319 393 60 60 rectfill
3319 393 60 60 rectstroke
3599 391 60 60 rectfill
3599 391 60 60 rectstroke
3879 391 60 60 rectfill
3879 391 60 60 rectstroke
4159 394 60 60 rectfill
4159 394 60 60 rectstroke
gr
gs
pathproc 685 215 3543 1237 np rectpath
/eocl cland
np exec
1109 1360 m
829 1406 l
13 sw
1 0 0 rgb
st
1389 1269 m
1109 1360 l
st
1669 1131 m
1389 1269 l
st
1949 934 m
1669 1131 l
st
2229 934 m
1949 934 l
st
2509 934 m
2229 934 l
st
2789 934 m
2509 934 l
st
3069 934 m
2789 934 l
st
3349 934 m
3069 934 l
st
3629 934 m
3349 934 l
st
3909 934 m
3629 934 l
st
4189 935 m
3909 934 l
st
np
829 1406 34 0 360  a
cp
gs
eofi
gr
5 sw
st
np
1109 1360 34 0 360  a
cp
gs
eofi
gr
st
np
1389 1269 34 0 360  a
cp
gs
eofi
gr
st
np
1669 1131 34 0 360  a
cp
gs
eofi
gr
st
np
1949 934 34 0 360  a
cp
gs
eofi
gr
st
np
2229 934 34 0 360  a
cp
gs
eofi
gr
st
np
2509 934 34 0 360  a
cp
gs
eofi
gr
st
np
2789 934 34 0 360  a
cp
gs
eofi
gr
st
np
3069 934 34 0 360  a
cp
gs
eofi
gr
st
np
3349 934 34 0 360  a
cp
gs
eofi
gr
st
np
3629 934 34 0 360  a
cp
gs
eofi
gr
st
np
3909 934 34 0 360  a
cp
gs
eofi
gr
st
np
4189 935 34 0 360  a
cp
gs
eofi
gr
st
gr
gs
pathproc 685 215 3543 1237 np rectpath
/eocl cland
np exec
1109 1078 m
829 1269 l
13 sw
0 0 1 rgb
st
1389 717 m
1109 1078 l
st
1669 610 m
1389 717 l
st
1949 556 m
1669 610 l
st
2229 551 m
1949 556 l
st
2509 549 m
2229 551 l
st
2789 556 m
2509 549 l
st
3069 571 m
2789 556 l
st
3349 561 m
3069 571 l
st
3629 561 m
3349 561 l
st
3909 555 m
3629 561 l
st
4189 571 m
3909 555 l
st
829 1222 m
869 1292 l
788 1292 l
cp
gs
eofi
gr
5 sw
st
1109 1031 m
1149 1101 l
1068 1101 l
cp
gs
eofi
gr
st
1389 670 m
1429 740 l
1348 740 l
cp
gs
eofi
gr
st
1669 563 m
1709 633 l
1628 633 l
cp
gs
eofi
gr
st
1949 509 m
1989 579 l
1908 579 l
cp
gs
eofi
gr
st
2229 504 m
2269 574 l
2188 574 l
cp
gs
eofi
gr
st
2509 502 m
2549 572 l
2468 572 l
cp
gs
eofi
gr
st
2789 509 m
2829 579 l
2748 579 l
cp
gs
eofi
gr
st
3069 524 m
3109 594 l
3028 594 l
cp
gs
eofi
gr
st
3349 514 m
3389 584 l
3308 584 l
cp
gs
eofi
gr
st
3629 514 m
3669 584 l
3588 584 l
cp
gs
eofi
gr
st
3909 508 m
3949 578 l
3868 578 l
cp
gs
eofi
gr
st
4189 524 m
4229 594 l
4148 594 l
cp
gs
eofi
gr
st
gr
gs
pathproc 685 215 3543 1237 np rectpath
/eocl cland
np exec
1109 1428 m
829 1440 l
13 sw
0 0.502 0.502 rgb
st
1389 1405 m
1109 1428 l
st
1669 1385 m
1389 1405 l
st
1949 1365 m
1669 1385 l
st
2229 1352 m
1949 1365 l
st
2509 1343 m
2229 1352 l
st
2789 1338 m
2509 1343 l
st
3069 1337 m
2789 1338 l
st
3349 1337 m
3069 1337 l
st
3629 1336 m
3349 1337 l
st
3909 1335 m
3629 1336 l
st
4189 1337 m
3909 1335 l
st
869 1417 m
829 1487 l
788 1417 l
cp
gs
eofi
gr
5 sw
st
1149 1405 m
1109 1475 l
1068 1405 l
cp
gs
eofi
gr
st
1429 1382 m
1389 1452 l
1348 1382 l
cp
gs
eofi
gr
st
1709 1362 m
1669 1432 l
1628 1362 l
cp
gs
eofi
gr
st
1989 1342 m
1949 1412 l
1908 1342 l
cp
gs
eofi
gr
st
2269 1329 m
2229 1399 l
2188 1329 l
cp
gs
eofi
gr
st
2549 1320 m
2509 1390 l
2468 1320 l
cp
gs
eofi
gr
st
2829 1315 m
2789 1385 l
2748 1315 l
cp
gs
eofi
gr
st
3109 1314 m
3069 1384 l
3028 1314 l
cp
gs
eofi
gr
st
3389 1314 m
3349 1384 l
3308 1314 l
cp
gs
eofi
gr
st
3669 1313 m
3629 1383 l
3588 1313 l
cp
gs
eofi
gr
st
3949 1312 m
3909 1382 l
3868 1312 l
cp
gs
eofi
gr
st
4229 1314 m
4189 1384 l
4148 1314 l
cp
gs
eofi
gr
st
gr
gs
pathproc 685 215 3543 1237 np rectpath
/eocl cland
np exec
1109 321 m
829 321 l
13 sw
1 0 1 rgb
st
1389 321 m
1109 321 l
st
1669 321 m
1389 321 l
st
1949 321 m
1669 321 l
st
2229 321 m
1949 321 l
st
2509 321 m
2229 321 l
st
2789 321 m
2509 321 l
st
3069 321 m
2789 321 l
st
3349 321 m
3069 321 l
st
3629 321 m
3349 321 l
st
3909 321 m
3629 321 l
st
4189 321 m
3909 321 l
st
782 321 m
852 361 l
852 280 l
cp
gs
eofi
gr
5 sw
st
1062 321 m
1132 361 l
1132 280 l
cp
gs
eofi
gr
st
1342 321 m
1412 361 l
1412 280 l
cp
gs
eofi
gr
st
1622 321 m
1692 361 l
1692 280 l
cp
gs
eofi
gr
st
1902 321 m
1972 361 l
1972 280 l
cp
gs
eofi
gr
st
2182 321 m
2252 361 l
2252 280 l
cp
gs
eofi
gr
st
2462 321 m
2532 361 l
2532 280 l
cp
gs
eofi
gr
st
2742 321 m
2812 361 l
2812 280 l
cp
gs
eofi
gr
st
3022 321 m
3092 361 l
3092 280 l
cp
gs
eofi
gr
st
3302 321 m
3372 361 l
3372 280 l
cp
gs
eofi
gr
st
3582 321 m
3652 361 l
3652 280 l
cp
gs
eofi
gr
st
3862 321 m
3932 361 l
3932 280 l
cp
gs
eofi
gr
st
4142 321 m
4212 361 l
4212 280 l
cp
gs
eofi
gr
st
gr
gs
gs
1 -1 sc
283 -1755 tr
90 ro
/MC2_Arial 174 self 0 0 m
(Throughput \(GB/sec\))[106 96 58 96 96 96 96 96 96 48 48 58 134 115 48 86 96 86 58 ] xs
1 -1 sc
gr
gr
gs
1 -1 sc
/MC3_Arial 174 self 674 -1812 m
(Request Size \(KB\))[126 97 97 97 97 87 48 48 116 39 87 97 48 58 116 116 58 ] xs
1 -1 sc
gr
1212 44 m
3973 44 l
3973 192 l
1212 192 l
cp
gs
1 1 1 rgb
eofi
gr
3 sw
st
gs
gs
gs
1246 122 m
1520 122 l
13 sw
st
gr
1353 93 60 60 rectfill
1212 192 m
5 sw
1353 93 60 60 rectstroke
gr
1 -1 sc
/MC3_Arial 122 self 1520 -164 m
( )[34 ] xs
1 -1 sc
1 -1 sc
1554 -164 m
(SR)[81 88 ] xs
1 -1 sc
1 -1 sc
1723 -164 m
( )[34 ] xs
1 -1 sc
gs
gs
1757 122 m
2031 122 l
13 sw
1 0 0 rgb
st
gr
np
1894 123 34 0 360  a
cp
gs
1 0 0 rgb
eofi
gr
5 sw
1 0 0 rgb
st
gr
1 -1 sc
2031 -164 m
( )[34 ] xs
1 -1 sc
1 -1 sc
2065 -164 m
(SW)[81 118 ] xs
1 -1 sc
1 -1 sc
2264 -164 m
( )[34 ] xs
1 -1 sc
gs
gs
2298 122 m
2572 122 l
13 sw
0 0 1 rgb
st
gr
2435 76 m
2475 146 l
2394 146 l
cp
gs
0 0 1 rgb
eofi
gr
5 sw
0 0 1 rgb
st
gr
1 -1 sc
2572 -164 m
( )[34 ] xs
1 -1 sc
1 -1 sc
2606 -164 m
(RR)[88 88 ] xs
1 -1 sc
gs
gs
2782 122 m
3056 122 l
13 sw
0 0.502 0.502 rgb
st
gr
2959 100 m
2919 170 l
2878 100 l
cp
gs
0 0.502 0.502 rgb
eofi
gr
5 sw
0 0.502 0.502 rgb
st
gr
1 -1 sc
3056 -164 m
( )[34 ] xs
1 -1 sc
1 -1 sc
3090 -164 m
(RW)[88 118 ] xs
1 -1 sc
gs
gs
3296 122 m
3570 122 l
13 sw
1 0 1 rgb
st
gr
3386 123 m
3456 163 l
3456 82 l
cp
gs
1 0 1 rgb
eofi
gr
5 sw
1 0 1 rgb
st
gr
1 -1 sc
3570 -164 m
( )[34 ] xs
1 -1 sc
1 -1 sc
3604 -164 m
(IDEAL)[34 88 81 81 68 ] xs
1 -1 sc
gr
685 215 m
685 215 l
7 sw
st
1039 215 m
1039 215 l
st
1393 215 m
1393 215 l
st
1748 215 m
1748 215 l
st
2102 215 m
2102 215 l
st
2456 215 m
2456 215 l
st
2810 215 m
2810 215 l
st
3164 215 m
3164 215 l
st
3519 215 m
3519 215 l
st
3873 215 m
3873 215 l
st
4227 215 m
4227 215 l
st
685 215 m
4227 215 l
st
4227 1451 m
4227 1451 l
st
4227 1327 m
4227 1327 l
st
4227 1204 m
4227 1204 l
st
4227 1080 m
4227 1080 l
st
4227 957 m
4227 957 l
st
4227 833 m
4227 833 l
st
4227 709 m
4227 709 l
st
4227 586 m
4227 586 l
st
4227 462 m
4227 462 l
st
4227 339 m
4227 339 l
st
4227 215 m
4227 215 l
st
4227 1451 m
4227 215 l
st
gr
Save0 restore end
showpage
%%EOF
