%!PS-Adobe-3.0 EPSF-3.0
%%BoundingBox: 0 0 1059 360
%%LanguageLevel: 2
%%Creator: OriginLab Corporation
%%Title: (C:\Users\MJ\GooleDrive\CAMEL-MEMBER\Wonil\Simulator\ASPLOS'15\draft-2-mj-resize-fig\eval-multi.eps)
%%CreationDate: Thu Aug 07 16:20:18 2014
%%EndComments

/OriginLab::PSL1 128 dict dup begin def
/Save0 save def
%%BeginResource: procset OriginLab::PSL1
/wd{1 index where{pop pop pop}{bind def}ifelse}bind def
/setcmykcolor{1 sub 4 1 roll 3{3 index add neg dup 0 lt{pop 0}if 3 1 roll}repeat setrgbcolor pop}wd
/selectfont{dup type/arraytype eq{exch findfont exch makefont setfont}{exch findfont exch scalefont setfont}ifelse}wd
/xshow{1 index length 0 le{}{currentpoint exch 3 index length 1 sub 0 exch 1 exch{dup 5 index exch 1 getinterval show 3 index exch get add 2 copy exch moveto}for pop pop}ifelse pop pop}wd
/glyphshow{matrix currentmatrix exch currentfont dup/FontMatrix get concat currentpoint translate
 dup/Metrics get 2 index get 0 4 2 roll gsave/CharProcs get exch 2 copy known not{pop/.notdef}if
 get exec fill grestore moveto setmatrix}wd
/grayimage/image load def/rgbtogray{cvx exec dup length 3 idiv 1 sub 0 exch 1 exch{dup 3 mul dup 3 index exch get 255 div .3 mul exch
 1 add dup 4 index exch get 255 div .59 mul exch 1 add 4 index exch get 255 div .11 mul add add
 255 mul dup 255 gt{255}if round cvi 2 index 3 1 roll put}for dup length 3 idiv 0 exch getinterval}bind def
/colorimage{0 setgray pop pop cvlit/rgbtogray cvx 2 packedarray cvx grayimage}wd
/bd{bind def}bind def/ld{load def}bd/ed{exch def}bd/xd{cvx def}bd
/np/newpath ld/a/arc ld/m/moveto ld/l/lineto ld/c/curveto ld/rm/rmoveto ld/rl/rlineto ld/rc/rcurveto ld/cp/closepath ld/cpt/currentpoint ld
/tr/translate ld/sc/scale ld/ro/rotate ld/t/transform ld/it/itransform ld/dt/dtransform ld/idt/idtransform ld
/mtx/matrix ld/cmtx/currentmatrix ld/dmtx/defaultmatrix ld/smtx/setmatrix ld/catmtx/concatmatrix ld
/sw/setlinewidth ld/scap/setlinecap ld/sj/setlinejoin ld/sm/setmiterlimit ld/sd/setdash ld/rgb/setrgbcolor ld/crgb/currentrgbcolor ld/cmyk/setcmykcolor ld/gs/gsave ld/gr/grestore ld
/st/stroke ld/fi/fill ld/eofi/eofill ld/cl/clip ld/eocl/eoclip ld
/df/definefont ld/ff/findfont ld/sf/setfont ld/scf/scalefont ld/self/selectfont ld/cf/currentfont ld
/s/show ld/xs/xshow ld/gls/glyphshow ld/xgls{cpt 3 1 roll add exch 3 -1 roll gls m}bd
/cd/currentdict ld/i/index ld
/DrawBox{4 2 roll m 1 index 0 rl 0 exch rl neg 0 rl cp}bd
/plus.re { 6 { 3 index } repeat moveto 0 exch rlineto 0 rlineto pop pop neg 0 exch rlineto pop lineto closepath } def
/DrawBcc{4 2 roll m 2 copy 0 lt exch 0 lt xor{dup 0 exch rl exch 0 rl neg 0 exch rl}{exch dup 0 rl exch 0 exch rl neg 0 rl}ifelse cp}bd
/rectline{dup type/arraytype eq{dup length 0 exch 4 exch 4 sub{0 1 3{3 copy add get 4 1 roll pop}for pop 5 1 roll DrawBox}for pop}{DrawBox}ifelse}bd
/rectpath{dup type/arraytype eq{dup length 0 exch 4 exch 4 sub{0 1 3{3 copy add get 4 1 roll pop}for pop 5 1 roll DrawBcc}for pop}{DrawBcc}ifelse}bd
/pathproc{[{/m cvx}{/l cvx}{/c cvx}{/cp cvx}pathforall]cvx}bd
/L1img/image ld/L1idx[{0}
 {dup 7 and 3 1 roll -3 bitshift get exch 7 sub 1 mul bitshift  1 and}bind 1 index dup
 {dup 1 and 3 1 roll -1 bitshift get exch 1 sub 4 mul bitshift 15 and}bind 1 index dup dup
 {get}bind]def
/image{dup type/dicttype eq {dup/ImgCS get 0 get/Indexed eq}{false}ifelse
 {begin Width Height 8 ImageMatrix {rgb_string rgb_lookup
 cd/DataSource get dup type/filetype eq
 {mystring readstring pop}{exec}ifelse
 dup length 0 ne
 {L1idx BitsPerComponent get 0 1 Width 1 sub
 {3 copy exch exec exch 3 mul exch
 3 mul dup 5 index exch get exch 1 add dup 6 index exch get exch 1 add 6 index exch get
 7 index exch 4 index 2 add exch put 6 index exch 3 index 1 add exch put 5 index exch 2 index exch put pop
 }for pop pop pop }{pop pop pop ()}ifelse }false 3 colorimage end} {dup type/dicttype eq
 {{dup mark exch L1img pop pop}stopped{cleartomark begin Width Height BitsPerComponent ImageMatrix
 {cd/DataSource get dup type/filetype eq {mystring readstring pop}{exec}ifelse
 }false 3 colorimage end} if}{L1img}ifelse}ifelse
 }bd
/L1imgmask/imagemask ld/imagemask{dup type/dicttype eq
 {{dup mark exch L1imgmask pop pop}stopped {cleartomark begin Width Height polarityflag ImageMatrix
 {cd/DataSource get dup type/filetype eq {mystring readstring pop}{exec}ifelse
 }L1imgmask end}if}{L1imgmask}ifelse
 }bd
% Gradient function
/GradientStep 1 150 div def
/GradientStartRGB { /R1 exch def /G1 exch def /B1 exch def } def
/GradientEndRGB { /R2 exch def /G2 exch def /B2 exch def
/GradientSteps GradientLength GradientStep div def
/GradientRStep R2 R1 sub GradientSteps div def
/GradientGStep G2 G1 sub GradientSteps div def
/GradientBStep B2 B1 sub GradientSteps div def
} def
/GradientStepRGB { /R1 R1 GradientRStep add def
/G1 G1 GradientGStep add def
/B1 B1 GradientBStep add def
R1 G1 B1 setrgbcolor
} def
%%EndResource
/rectclip{np rectpath clip np}wd
/rectfill{gs np rectpath fi gr}wd
/rectstroke{gs np dup type/arraytype eq{dup length 6 eq}{false}ifelse{1 index type/arraytype eq{exch}{5 1 roll}ifelse rectline concat st}{rectline st}ifelse gr}wd
%%BeginResource: procset OriginLab::Image
/OriginLab::Image 32 dict dup begin
/BinProc{[currentfile mystring /readstring cvx /pop cvx] cvx bind}bd
/HexProc{[currentfile mystring /readhexstring cvx /pop cvx] cvx bind}bd
/Ascii85Proc{currentfile /ASCII85Decode filter}bd
/LZWA85{currentfile /ASCII85Decode filter /LZWDecode filter}bd
/ImgProcArray[/BinProc /HexProc /Ascii85Proc /LZWA85]def
/ImgDict{/ImgDict 16 dict def ImgDict dup begin /ImageType 1 def /MultipleDataSource false def end}bd
/L2Dec{{[1 0]}{[0 1]}ifelse}bd
/BegImg{ /Img_sv save def
 /ImgDir ed ImgProcArray exch get /ImgProc exch ld
 dup /polarityflag ed L2Dec /polarity ed /smoothflag ed
 tr /dx 2 index def /dy 1 index abs def sc
 string /mystring ed /bpc ed /ih ed /iw ed
 }bd
/EndImg {Img_sv restore}bd
/DoXImg{ /rgb_lookup ed /hival ed ImgDict dup begin
 [/Indexed /DeviceRGB hival rgb_lookup] /L1img where{pop/ImgCS ed}{setcolorspace}ifelse
 /rgb_string iw 3 mul string def
 /Width iw def
 /Height ih def
 /Decode [0 1 bpc{2 mul}repeat 1 sub] def
 /ImageMatrix
  ImgDir 0 eq{[iw 0 0 ih 0 0]}if
  ImgDir 1 eq{[iw neg 0 0 ih iw 0]}if
  ImgDir 2 eq{[iw 0 0 ih neg 0 ih]}if
  ImgDir 3 eq{[iw neg 0 0 ih neg iw ih]}if
  def
 /DataSource ImgProc def
 /BitsPerComponent bpc def
 /Interpolate smoothflag def
 end image}bd
/DoImg{ ImgDict dup begin
 [/DeviceRGB] /L1img where{pop/ImgCS ed}{setcolorspace}ifelse
 /rgb_string iw 3 mul string def
 /Width iw def
 /Height ih def
 /Decode [0 1 0 1 0 1] def
 /ImageMatrix
  ImgDir 0 eq{[iw 0 0 ih 0 0]}if
  ImgDir 1 eq{[iw neg 0 0 ih iw 0]}if
  ImgDir 2 eq{[iw 0 0 ih neg 0 ih]}if
  ImgDir 3 eq{[iw neg 0 0 ih neg iw ih]}if
  def
 /DataSource ImgProc def
 /BitsPerComponent 8 def
 /Interpolate smoothflag def
 end image}bd
end def
%%EndResource
%%BeginFont: /MC1_Arial
12 dict begin
/FontInfo 8 dict dup begin
/ItalicAngle 0 def
/UnderlinePosition -217.00 def
/UnderlineThickness 150.00 def
/StrikeoutPosition 530.00 def
/StrikeoutThickness 102.00 def
/isFixedPitch false def
end readonly def
/FontName /MC1_Arial def
/FontType 3 def
/FontMatrix [1 2048 div 0 0 1 2048 div 0 0] def
/FontBBox [-1361 -665 4096 2060] def
/Encoding 256 array def 0 1 255{Encoding exch/.notdef put}for
Encoding 32/s32 put
Encoding 49/s49 put
Encoding 50/s50 put
Encoding 51/s51 put
Encoding 52/s52 put
Encoding 53/s53 put
Encoding 54/s54 put
Encoding 107/s107 put
Encoding 109/s109 put
Encoding 119/s119 put
/BoundingBoxes 11 dict def
BoundingBoxes begin
/s32 [0 -434 569 1854] def
/s49 [0 -434 1139 1854] def
/s50 [0 -434 1139 1854] def
/s51 [0 -434 1139 1854] def
/s52 [0 -434 1139 1854] def
/s53 [0 -434 1139 1854] def
/s54 [0 -434 1139 1854] def
/s107 [0 -434 1024 1854] def
/s109 [0 -434 1706 1854] def
/s119 [0 -434 1479 1854] def
end
/Metrics 11 dict def
 Metrics begin
/s32 569 def
/s49 1139 def
/s50 1139 def
/s51 1139 def
/s52 1139 def
/s53 1139 def
/s54 1139 def
/s107 1024 def
/s109 1706 def
/s119 1479 def
end
/CharProcs 11 dict def
CharProcs begin
/.notdef {} def
/s49 {
763 0 m
583 0 763 0 583 0 c
583 1147 583 0 583 1147 c
539.67 1105.67 482.83 1064.33 412.5 1023 c
342.17 981.67 279 950.67 223 930 c
223 1104 223 930 223 1104 c
323.67 1151.33 411.67 1208.67 487 1276 c
562.33 1343.33 615.67 1408.67 647 1472 c
763 1472 647 1472 763 1472 c
763 0 763 1472 763 0 c
closepath } bind def
/s50 {
1031 173 m
1031 0 1031 173 1031 0 c
62 0 1031 0 62 0 c
60.67 43.33 67.67 85 83 125 c
107.67 191 147.17 256 201.5 320 c
255.83 384 334.33 458 437 542 c
596.33 672.67 704 776.17 760 852.5 c
816 928.83 844 1001 844 1069 c
844 1140.33 818.5 1200.5 767.5 1249.5 c
716.5 1298.5 650 1323 568 1323 c
481.33 1323 412 1297 360 1245 c
308 1193 281.67 1121 281 1029 c
96 1048 281 1029 96 1048 c
108.67 1186 156.33 1291.17 239 1363.5 c
321.67 1435.83 432.67 1472 572 1472 c
712.67 1472 824 1433 906 1355 c
988 1277 1029 1180.33 1029 1065 c
1029 1006.33 1017 948.67 993 892 c
969 835.33 929.17 775.67 873.5 713 c
817.83 650.33 725.33 564.33 596 455 c
488 364.33 418.67 302.83 388 270.5 c
357.33 238.17 332 205.67 312 173 c
1031 173 312 173 1031 173 c
closepath } bind def
/s51 {
86 387 m
266 411 86 387 266 411 c
286.67 309 321.83 235.5 371.5 190.5 c
421.17 145.5 481.67 123 553 123 c
637.67 123 709.17 152.33 767.5 211 c
825.83 269.67 855 342.33 855 429 c
855 511.67 828 579.83 774 633.5 c
720 687.17 651.33 714 568 714 c
534 714 491.67 707.33 441 694 c
461 852 441 694 461 852 c
473 850.67 482.67 850 490 850 c
566.67 850 635.67 870 697 910 c
758.33 950 789 1011.67 789 1095 c
789 1161 766.67 1215.67 722 1259 c
677.33 1302.33 619.67 1324 549 1324 c
479 1324 420.67 1302 374 1258 c
327.33 1214 297.33 1148 284 1060 c
104 1092 284 1060 104 1092 c
126 1212.67 176 1306.17 254 1372.5 c
332 1438.83 429 1472 545 1472 c
625 1472 698.67 1454.83 766 1420.5 c
833.33 1386.17 884.83 1339.33 920.5 1280 c
956.17 1220.67 974 1157.67 974 1091 c
974 1027.67 957 970 923 918 c
889 866 838.67 824.67 772 794 c
858.67 774 926 732.5 974 669.5 c
1022 606.5 1046 527.67 1046 433 c
1046 305 999.33 196.5 906 107.5 c
812.67 18.5 694.67 -26 552 -26 c
423.33 -26 316.5 12.33 231.5 89 c
146.5 165.67 98 265 86 387 c
closepath } bind def
/s52 {
662 0 m
662 351 662 0 662 351 c
26 351 662 351 26 351 c
26 516 26 351 26 516 c
695 1466 26 516 695 1466 c
842 1466 695 1466 842 1466 c
842 516 842 1466 842 516 c
1040 516 842 516 1040 516 c
1040 351 1040 516 1040 351 c
842 351 1040 351 842 351 c
842 0 842 351 842 0 c
662 0 842 0 662 0 c
closepath 662 516 m
662 1177 662 516 662 1177 c
203 516 662 1177 203 516 c
662 516 203 516 662 516 c
closepath } bind def
/s53 {
85 384 m
274 400 85 384 274 400 c
288 308 320.5 238.83 371.5 192.5 c
422.5 146.17 484 123 556 123 c
642.67 123 716 155.67 776 221 c
836 286.33 866 373 866 481 c
866 583.67 837.17 664.67 779.5 724 c
721.83 783.33 646.33 813 553 813 c
495 813 442.67 799.83 396 773.5 c
349.33 747.17 312.67 713 286 671 c
117 693 286 671 117 693 c
259 1446 117 693 259 1446 c
988 1446 259 1446 988 1446 c
988 1274 988 1446 988 1274 c
403 1274 988 1274 403 1274 c
324 880 403 1274 324 880 c
412 941.33 504.33 972 601 972 c
729 972 837 927.67 925 839 c
1013 750.33 1057 636.33 1057 497 c
1057 364.33 1018.33 249.67 941 153 c
847 34.33 718.67 -25 556 -25 c
422.67 -25 313.83 12.33 229.5 87 c
145.17 161.67 97 260.67 85 384 c
closepath } bind def
/s54 {
1019 1107 m
840 1093 1019 1107 840 1093 c
824 1163.67 801.33 1215 772 1247 c
723.33 1298.33 663.33 1324 592 1324 c
534.67 1324 484.33 1308 441 1276 c
384.33 1234.67 339.67 1174.33 307 1095 c
274.33 1015.67 257.33 902.67 256 756 c
299.33 822 352.33 871 415 903 c
477.67 935 543.33 951 612 951 c
732 951 834.17 906.83 918.5 818.5 c
1002.83 730.17 1045 616 1045 476 c
1045 384 1025.17 298.5 985.5 219.5 c
945.83 140.5 891.33 80 822 38 c
752.67 -4 674 -25 586 -25 c
436 -25 313.67 30.17 219 140.5 c
124.33 250.83 77 432.67 77 686 c
77 969.33 129.33 1175.33 234 1304 c
325.33 1416 448.33 1472 603 1472 c
718.33 1472 812.83 1439.67 886.5 1375 c
960.17 1310.33 1004.33 1221 1019 1107 c
closepath 284 475 m
284 413 297.17 353.67 323.5 297 c
349.83 240.33 386.67 197.17 434 167.5 c
481.33 137.83 531 123 583 123 c
659 123 724.33 153.67 779 215 c
833.67 276.33 861 359.67 861 465 c
861 566.33 834 646.17 780 704.5 c
726 762.83 658 792 576 792 c
494.67 792 425.67 762.83 369 704.5 c
312.33 646.17 284 569.67 284 475 c
closepath } bind def
/s107 {
136 0 m
136 1466 136 0 136 1466 c
316 1466 136 1466 316 1466 c
316 630 316 1466 316 630 c
742 1062 316 630 742 1062 c
975 1062 742 1062 975 1062 c
569 668 975 1062 569 668 c
1016 0 569 668 1016 0 c
794 0 1016 0 794 0 c
443 543 794 0 443 543 c
316 421 443 543 316 421 c
316 0 316 421 316 0 c
136 0 316 0 136 0 c
closepath } bind def
/s109 {
135 0 m
135 1062 135 0 135 1062 c
296 1062 135 1062 296 1062 c
296 913 296 1062 296 913 c
329.33 965 373.67 1006.83 429 1038.5 c
484.33 1070.17 547.33 1086 618 1086 c
696.67 1086 761.17 1069.67 811.5 1037 c
861.83 1004.33 897.33 958.67 918 900 c
1002 1024 1111.33 1086 1246 1086 c
1351.33 1086 1432.33 1056.83 1489 998.5 c
1545.67 940.17 1574 850.33 1574 729 c
1574 0 1574 729 1574 0 c
1395 0 1574 0 1395 0 c
1395 669 1395 0 1395 669 c
1395 741 1389.17 792.83 1377.5 824.5 c
1365.83 856.17 1344.67 881.67 1314 901 c
1283.33 920.33 1247.33 930 1206 930 c
1131.33 930 1069.33 905.17 1020 855.5 c
970.67 805.83 946 726.33 946 617 c
946 0 946 617 946 0 c
766 0 946 0 766 0 c
766 690 766 0 766 690 c
766 770 751.33 830 722 870 c
692.67 910 644.67 930 578 930 c
527.33 930 480.5 916.67 437.5 890 c
394.5 863.33 363.33 824.33 344 773 c
324.67 721.67 315 647.67 315 551 c
315 0 315 551 315 0 c
135 0 315 0 135 0 c
closepath } bind def
/s119 {
331 0 m
6 1062 331 0 6 1062 c
192 1062 6 1062 192 1062 c
361 449 192 1062 361 449 c
424 221 361 449 424 221 c
426.67 232.33 445 305.33 479 440 c
648 1062 479 440 648 1062 c
833 1062 648 1062 833 1062 c
992 446 833 1062 992 446 c
1045 243 992 446 1045 243 c
1106 448 1045 243 1106 448 c
1288 1062 1106 448 1288 1062 c
1463 1062 1288 1062 1463 1062 c
1131 0 1463 1062 1131 0 c
944 0 1131 0 944 0 c
775 636 944 0 775 636 c
734 817 775 636 734 817 c
519 0 734 817 519 0 c
331 0 519 0 331 0 c
closepath } bind def
end
/BuildGlyph {
 exch dup /Metrics get 2 index get 0 setcharwidth
/CharProcs get exch 2 copy known not{pop/.notdef}if get exec fill}bind def
/BuildChar {
1 index /Encoding get exch get
1 index /BuildGlyph get exec
} bind def
currentdict end /MC1_Arial exch definefont pop
%%EndFont
%%BeginFont: /MC2_Arial
12 dict begin
/FontInfo 8 dict dup begin
/ItalicAngle 0 def
/UnderlinePosition -217.00 def
/UnderlineThickness 150.00 def
/StrikeoutPosition 530.00 def
/StrikeoutThickness 102.00 def
/isFixedPitch false def
end readonly def
/FontName /MC2_Arial def
/FontType 3 def
/FontMatrix [1 2048 div 0 0 1 2048 div 0 0] def
/FontBBox [-1361 -665 4096 2060] def
/Encoding 256 array def 0 1 255{Encoding exch/.notdef put}for
Encoding 32/s32 put
Encoding 40/s40 put
Encoding 41/s41 put
Encoding 47/s47 put
Encoding 65/s65 put
Encoding 66/s66 put
Encoding 77/s77 put
Encoding 84/s84 put
Encoding 97/s97 put
Encoding 99/s99 put
Encoding 101/s101 put
Encoding 103/s103 put
Encoding 104/s104 put
Encoding 111/s111 put
Encoding 112/s112 put
Encoding 114/s114 put
Encoding 115/s115 put
Encoding 116/s116 put
Encoding 117/s117 put
/BoundingBoxes 20 dict def
BoundingBoxes begin
/s32 [0 -434 569 1854] def
/s40 [0 -434 682 1854] def
/s41 [0 -434 682 1854] def
/s47 [0 -434 569 1854] def
/s65 [-3 -434 1366 1854] def
/s66 [0 -434 1366 1854] def
/s77 [0 -434 1706 1854] def
/s84 [0 -434 1251 1854] def
/s97 [0 -434 1139 1854] def
/s99 [0 -434 1024 1854] def
/s101 [0 -434 1139 1854] def
/s103 [0 -434 1139 1854] def
/s104 [0 -434 1139 1854] def
/s111 [0 -434 1139 1854] def
/s112 [0 -434 1139 1854] def
/s114 [0 -434 682 1854] def
/s115 [0 -434 1024 1854] def
/s116 [0 -434 569 1854] def
/s117 [0 -434 1139 1854] def
end
/Metrics 20 dict def
 Metrics begin
/s32 569 def
/s40 682 def
/s41 682 def
/s47 569 def
/s65 1366 def
/s66 1366 def
/s77 1706 def
/s84 1251 def
/s97 1139 def
/s99 1024 def
/s101 1139 def
/s103 1139 def
/s104 1139 def
/s111 1139 def
/s112 1139 def
/s114 682 def
/s115 1024 def
/s116 569 def
/s117 1139 def
end
/CharProcs 20 dict def
CharProcs begin
/.notdef {} def
/s40 {
479 -431 m
379.67 -305.67 295.67 -159 227 9 c
158.33 177 124 351 124 531 c
124 689.67 149.67 841.67 201 987 c
261 1155.67 353.67 1323.67 479 1491 c
608 1491 479 1491 608 1491 c
527.33 1352.33 474 1253.33 448 1194 c
407.33 1102 375.33 1006 352 906 c
323.33 781.33 309 656 309 530 c
309 209.33 408.67 -111 608 -431 c
479 -431 608 -431 479 -431 c
closepath } bind def
/s41 {
253 -431 m
124 -431 253 -431 124 -431 c
323.33 -111 423 209.33 423 530 c
423 655.33 408.67 779.67 380 903 c
357.33 1003 325.67 1099 285 1191 c
259 1251 205.33 1351 124 1491 c
253 1491 124 1491 253 1491 c
378.33 1323.67 471 1155.67 531 987 c
582.33 841.67 608 689.67 608 531 c
608 351 573.5 177 504.5 9 c
435.5 -159 351.67 -305.67 253 -431 c
closepath } bind def
/s47 {
0 -25 m
425 1491 0 -25 425 1491 c
569 1491 425 1491 569 1491 c
145 -25 569 1491 145 -25 c
0 -25 145 -25 0 -25 c
closepath } bind def
/s65 {
-3 0 m
560 1466 -3 0 560 1466 c
769 1466 560 1466 769 1466 c
1369 0 769 1466 1369 0 c
1148 0 1369 0 1148 0 c
977 444 1148 0 977 444 c
364 444 977 444 364 444 c
203 0 364 444 203 0 c
-3 0 203 0 -3 0 c
closepath 420 602 m
917 602 420 602 917 602 c
764 1008 917 602 764 1008 c
717.33 1131.33 682.67 1232.67 660 1312 c
641.33 1218 615 1124.67 581 1032 c
420 602 581 1032 420 602 c
closepath } bind def
/s66 {
150 0 m
150 1466 150 0 150 1466 c
700 1466 150 1466 700 1466 c
812 1466 901.83 1451.17 969.5 1421.5 c
1037.17 1391.83 1090.17 1346.17 1128.5 1284.5 c
1166.83 1222.83 1186 1158.33 1186 1091 c
1186 1028.33 1169 969.33 1135 914 c
1101 858.67 1049.67 814 981 780 c
1069.67 754 1137.83 709.67 1185.5 647 c
1233.17 584.33 1257 510.33 1257 425 c
1257 356.33 1242.5 292.5 1213.5 233.5 c
1184.5 174.5 1148.67 129 1106 97 c
1063.33 65 1009.83 40.83 945.5 24.5 c
881.17 8.17 802.33 0 709 0 c
150 0 709 0 150 0 c
closepath 344 850 m
661 850 344 850 661 850 c
747 850 808.67 855.67 846 867 c
895.33 881.67 932.5 906 957.5 940 c
982.5 974 995 1016.67 995 1068 c
995 1116.67 983.33 1159.5 960 1196.5 c
936.67 1233.5 903.33 1258.83 860 1272.5 c
816.67 1286.17 742.33 1293 637 1293 c
344 1293 637 1293 344 1293 c
344 850 344 1293 344 850 c
closepath 344 173 m
709 173 344 173 709 173 c
771.67 173 815.67 175.33 841 180 c
885.67 188 923 201.33 953 220 c
983 238.67 1007.67 265.83 1027 301.5 c
1046.33 337.17 1056 378.33 1056 425 c
1056 479.67 1042 527.17 1014 567.5 c
986 607.83 947.17 636.17 897.5 652.5 c
847.83 668.83 776.33 677 683 677 c
344 677 683 677 344 677 c
344 173 344 677 344 173 c
closepath } bind def
/s77 {
152 0 m
152 1466 152 0 152 1466 c
444 1466 152 1466 444 1466 c
791 428 444 1466 791 428 c
823 331.33 846.33 259 861 211 c
877.67 264.33 903.67 342.67 939 446 c
1290 1466 939 446 1290 1466 c
1551 1466 1290 1466 1551 1466 c
1551 0 1551 1466 1551 0 c
1364 0 1551 0 1364 0 c
1364 1227 1364 0 1364 1227 c
938 0 1364 1227 938 0 c
763 0 938 0 763 0 c
339 1248 763 0 339 1248 c
339 0 339 1248 339 0 c
152 0 339 0 152 0 c
closepath } bind def
/s84 {
531 0 m
531 1293 531 0 531 1293 c
48 1293 531 1293 48 1293 c
48 1466 48 1293 48 1466 c
1210 1466 48 1466 1210 1466 c
1210 1293 1210 1466 1210 1293 c
725 1293 1210 1293 725 1293 c
725 0 725 1293 725 0 c
531 0 725 0 531 0 c
closepath } bind def
/s97 {
828 131 m
761.33 74.33 697.17 34.33 635.5 11 c
573.83 -12.33 507.67 -24 437 -24 c
320.33 -24 230.67 4.5 168 61.5 c
105.33 118.5 74 191.33 74 280 c
74 332 85.83 379.5 109.5 422.5 c
133.17 465.5 164.17 500 202.5 526 c
240.83 552 284 571.67 332 585 c
367.33 594.33 420.67 603.33 492 612 c
637.33 629.33 744.33 650 813 674 c
813.67 698.67 814 714.33 814 721 c
814 794.33 797 846 763 876 c
717 916.67 648.67 937 558 937 c
473.33 937 410.83 922.17 370.5 892.5 c
330.17 862.83 300.33 810.33 281 735 c
105 759 281 735 105 759 c
121 834.33 147.33 895.17 184 941.5 c
220.67 987.83 273.67 1023.5 343 1048.5 c
412.33 1073.5 492.67 1086 584 1086 c
674.67 1086 748.33 1075.33 805 1054 c
861.67 1032.67 903.33 1005.83 930 973.5 c
956.67 941.17 975.33 900.33 986 851 c
992 820.33 995 765 995 685 c
995 445 995 685 995 445 c
995 277.67 998.83 171.83 1006.5 127.5 c
1014.17 83.17 1029.33 40.67 1052 0 c
864 0 1052 0 864 0 c
845.33 37.33 833.33 81 828 131 c
closepath 813 533 m
747.67 506.33 649.67 483.67 519 465 c
445 454.33 392.67 442.33 362 429 c
331.33 415.67 307.67 396.17 291 370.5 c
274.33 344.83 266 316.33 266 285 c
266 237 284.17 197 320.5 165 c
356.83 133 410 117 480 117 c
549.33 117 611 132.17 665 162.5 c
719 192.83 758.67 234.33 784 287 c
803.33 327.67 813 387.67 813 467 c
813 533 813 467 813 533 c
closepath } bind def
/s99 {
828 389 m
1005 366 828 389 1005 366 c
985.67 244 936.17 148.5 856.5 79.5 c
776.83 10.5 679 -24 563 -24 c
417.67 -24 300.83 23.5 212.5 118.5 c
124.17 213.5 80 349.67 80 527 c
80 641.67 99 742 137 828 c
175 914 232.83 978.5 310.5 1021.5 c
388.17 1064.5 472.67 1086 564 1086 c
679.33 1086 773.67 1056.83 847 998.5 c
920.33 940.17 967.33 857.33 988 750 c
813 723 988 750 813 723 c
796.33 794.33 766.83 848 724.5 884 c
682.17 920 631 938 571 938 c
480.33 938 406.67 905.5 350 840.5 c
293.33 775.5 265 672.67 265 532 c
265 389.33 292.33 285.67 347 221 c
401.67 156.33 473 124 561 124 c
631.67 124 690.67 145.67 738 189 c
785.33 232.33 815.33 299 828 389 c
closepath } bind def
/s101 {
862 342 m
1048 319 862 342 1048 319 c
1018.67 210.33 964.33 126 885 66 c
805.67 6 704.33 -24 581 -24 c
425.67 -24 302.5 23.83 211.5 119.5 c
120.5 215.17 75 349.33 75 522 c
75 700.67 121 839.33 213 938 c
305 1036.67 424.33 1086 571 1086 c
713 1086 829 1037.67 919 941 c
1009 844.33 1054 708.33 1054 533 c
1054 522.33 1053.67 506.33 1053 485 c
261 485 1053 485 261 485 c
267.67 368.33 300.67 279 360 217 c
419.33 155 493.33 124 582 124 c
648 124 704.33 141.33 751 176 c
797.67 210.67 834.67 266 862 342 c
closepath 271 633 m
864 633 271 633 864 633 c
856 722.33 833.33 789.33 796 834 c
738.67 903.33 664.33 938 573 938 c
490.33 938 420.83 910.33 364.5 855 c
308.17 799.67 277 725.67 271 633 c
closepath } bind def
/s103 {
102 -88 m
277 -114 102 -88 277 -114 c
284.33 -168 304.67 -207.33 338 -232 c
382.67 -265.33 443.67 -282 521 -282 c
604.33 -282 668.67 -265.33 714 -232 c
759.33 -198.67 790 -152 806 -92 c
815.33 -55.33 819.67 21.67 819 139 c
740.33 46.33 642.33 0 525 0 c
379 0 266 52.67 186 158 c
106 263.33 66 389.67 66 537 c
66 638.33 84.33 731.83 121 817.5 c
157.67 903.17 210.83 969.33 280.5 1016 c
350.17 1062.67 432 1086 526 1086 c
651.33 1086 754.67 1035.33 836 934 c
836 1062 836 934 836 1062 c
1002 1062 836 1062 1002 1062 c
1002 144 1002 1062 1002 144 c
1002 -21.33 985.17 -138.5 951.5 -207.5 c
917.83 -276.5 864.5 -331 791.5 -371 c
718.5 -411 628.67 -431 522 -431 c
395.33 -431 293 -402.5 215 -345.5 c
137 -288.5 99.33 -202.67 102 -88 c
closepath 251 550 m
251 410.67 278.67 309 334 245 c
389.33 181 458.67 149 542 149 c
624.67 149 694 180.83 750 244.5 c
806 308.17 834 408 834 544 c
834 674 805.17 772 747.5 838 c
689.83 904 620.33 937 539 937 c
459 937 391 904.5 335 839.5 c
279 774.5 251 678 251 550 c
closepath } bind def
/s104 {
135 0 m
135 1466 135 0 135 1466 c
315 1466 135 1466 315 1466 c
315 940 315 1466 315 940 c
399 1037.33 505 1086 633 1086 c
711.67 1086 780 1070.5 838 1039.5 c
896 1008.5 937.5 965.67 962.5 911 c
987.5 856.33 1000 777 1000 673 c
1000 0 1000 673 1000 0 c
820 0 1000 0 820 0 c
820 673 820 0 820 673 c
820 763 800.5 828.5 761.5 869.5 c
722.5 910.5 667.33 931 596 931 c
542.67 931 492.5 917.17 445.5 889.5 c
398.5 861.83 365 824.33 345 777 c
325 729.67 315 664.33 315 581 c
315 0 315 581 315 0 c
135 0 315 0 135 0 c
closepath } bind def
/s111 {
68 531 m
68 727.67 122.67 873.33 232 968 c
323.33 1046.67 434.67 1086 566 1086 c
712 1086 831.33 1038.17 924 942.5 c
1016.67 846.83 1063 714.67 1063 546 c
1063 409.33 1042.5 301.83 1001.5 223.5 c
960.5 145.17 900.83 84.33 822.5 41 c
744.17 -2.33 658.67 -24 566 -24 c
417.33 -24 297.17 23.67 205.5 119 c
113.83 214.33 68 351.67 68 531 c
closepath 253 531 m
253 395 282.67 293.17 342 225.5 c
401.33 157.83 476 124 566 124 c
655.33 124 729.67 158 789 226 c
848.33 294 878 397.67 878 537 c
878 668.33 848.17 767.83 788.5 835.5 c
728.83 903.17 654.67 937 566 937 c
476 937 401.33 903.33 342 836 c
282.67 768.67 253 667 253 531 c
closepath } bind def
/s112 {
135 -407 m
135 1062 135 -407 135 1062 c
299 1062 135 1062 299 1062 c
299 924 299 1062 299 924 c
337.67 978 381.33 1018.5 430 1045.5 c
478.67 1072.5 537.67 1086 607 1086 c
697.67 1086 777.67 1062.67 847 1016 c
916.33 969.33 968.67 903.5 1004 818.5 c
1039.33 733.5 1057 640.33 1057 539 c
1057 430.33 1037.5 332.5 998.5 245.5 c
959.5 158.5 902.83 91.83 828.5 45.5 c
754.17 -0.83 676 -24 594 -24 c
534 -24 480.17 -11.33 432.5 14 c
384.83 39.33 345.67 71.33 315 110 c
315 -407 315 110 315 -407 c
135 -407 315 -407 135 -407 c
closepath 298 525 m
298 388.33 325.67 287.33 381 222 c
436.33 156.67 503.33 124 582 124 c
662 124 730.5 157.83 787.5 225.5 c
844.5 293.17 873 398 873 540 c
873 675.33 845.17 776.67 789.5 844 c
733.83 911.33 667.33 945 590 945 c
513.33 945 445.5 909.17 386.5 837.5 c
327.5 765.83 298 661.67 298 525 c
closepath } bind def
/s114 {
133 0 m
133 1062 133 0 133 1062 c
295 1062 133 1062 295 1062 c
295 901 295 1062 295 901 c
336.33 976.33 374.5 1026 409.5 1050 c
444.5 1074 483 1086 525 1086 c
585.67 1086 647.33 1066.67 710 1028 c
648 861 710 1028 648 861 c
604 887 560 900 516 900 c
476.67 900 441.33 888.17 410 864.5 c
378.67 840.83 356.33 808 343 766 c
323 702 313 632 313 556 c
313 0 313 556 313 0 c
133 0 313 0 133 0 c
closepath } bind def
/s115 {
63 317 m
241 345 63 317 241 345 c
251 273.67 278.83 219 324.5 181 c
370.17 143 434 124 516 124 c
598.67 124 660 140.83 700 174.5 c
740 208.17 760 247.67 760 293 c
760 333.67 742.33 365.67 707 389 c
682.33 405 621 425.33 523 450 c
391 483.33 299.5 512.17 248.5 536.5 c
197.5 560.83 158.83 594.5 132.5 637.5 c
106.17 680.5 93 728 93 780 c
93 827.33 103.83 871.17 125.5 911.5 c
147.17 951.83 176.67 985.33 214 1012 c
242 1032.67 280.17 1050.17 328.5 1064.5 c
376.83 1078.83 428.67 1086 484 1086 c
567.33 1086 640.5 1074 703.5 1050 c
766.5 1026 813 993.5 843 952.5 c
873 911.5 893.67 856.67 905 788 c
729 764 905 788 729 764 c
721 818.67 697.83 861.33 659.5 892 c
621.17 922.67 567 938 497 938 c
414.33 938 355.33 924.33 320 897 c
284.67 869.67 267 837.67 267 801 c
267 777.67 274.33 756.67 289 738 c
303.67 718.67 326.67 702.67 358 690 c
376 683.33 429 668 517 644 c
644.33 610 733.17 582.17 783.5 560.5 c
833.83 538.83 873.33 507.33 902 466 c
930.67 424.67 945 373.33 945 312 c
945 252 927.5 195.5 892.5 142.5 c
857.5 89.5 807 48.5 741 19.5 c
675 -9.5 600.33 -24 517 -24 c
379 -24 273.83 4.67 201.5 62 c
129.17 119.33 83 204.33 63 317 c
closepath } bind def
/s116 {
528 161 m
554 2 528 161 554 2 c
503.33 -8.67 458 -14 418 -14 c
352.67 -14 302 -3.67 266 17 c
230 37.67 204.67 64.83 190 98.5 c
175.33 132.17 168 203 168 311 c
168 922 168 311 168 922 c
36 922 168 922 36 922 c
36 1062 36 922 36 1062 c
168 1062 36 1062 168 1062 c
168 1325 168 1062 168 1325 c
347 1433 168 1325 347 1433 c
347 1062 347 1433 347 1062 c
528 1062 347 1062 528 1062 c
528 922 528 1062 528 922 c
347 922 528 922 347 922 c
347 301 347 922 347 301 c
347 249.67 350.17 216.67 356.5 202 c
362.83 187.33 373.17 175.67 387.5 167 c
401.83 158.33 422.33 154 449 154 c
469 154 495.33 156.33 528 161 c
closepath } bind def
/s117 {
831 0 m
831 156 831 0 831 156 c
748.33 36 636 -24 494 -24 c
431.33 -24 372.83 -12 318.5 12 c
264.17 36 223.83 66.17 197.5 102.5 c
171.17 138.83 152.67 183.33 142 236 c
134.67 271.33 131 327.33 131 404 c
131 1062 131 404 131 1062 c
311 1062 131 1062 311 1062 c
311 473 311 1062 311 473 c
311 379 314.67 315.67 322 283 c
333.33 235.67 357.33 198.5 394 171.5 c
430.67 144.5 476 131 530 131 c
584 131 634.67 144.83 682 172.5 c
729.33 200.17 762.83 237.83 782.5 285.5 c
802.17 333.17 812 402.33 812 493 c
812 1062 812 493 812 1062 c
992 1062 812 1062 992 1062 c
992 0 992 1062 992 0 c
831 0 992 0 831 0 c
closepath } bind def
end
/BuildGlyph {
 exch dup /Metrics get 2 index get 0 setcharwidth
/CharProcs get exch 2 copy known not{pop/.notdef}if get exec fill}bind def
/BuildChar {
1 index /Encoding get exch get
1 index /BuildGlyph get exec
} bind def
currentdict end /MC2_Arial exch definefont pop
%%EndFont
%%BeginFont: /MC3_Arial
12 dict begin
/FontInfo 8 dict dup begin
/ItalicAngle 0 def
/UnderlinePosition -217.00 def
/UnderlineThickness 150.00 def
/StrikeoutPosition 530.00 def
/StrikeoutThickness 102.00 def
/isFixedPitch false def
end readonly def
/FontName /MC3_Arial def
/FontType 3 def
/FontMatrix [1 2048 div 0 0 1 2048 div 0 0] def
/FontBBox [-1361 -665 4096 2060] def
/Encoding 256 array def 0 1 255{Encoding exch/.notdef put}for
Encoding 32/s32 put
Encoding 50/s50 put
Encoding 51/s51 put
Encoding 66/s66 put
Encoding 69/s69 put
Encoding 70/s70 put
Encoding 80/s80 put
Encoding 83/s83 put
Encoding 84/s84 put
Encoding 85/s85 put
Encoding 99/s99 put
Encoding 104/s104 put
/BoundingBoxes 13 dict def
BoundingBoxes begin
/s32 [0 -434 569 1854] def
/s50 [0 -434 1139 1854] def
/s51 [0 -434 1139 1854] def
/s66 [0 -434 1366 1854] def
/s69 [0 -434 1366 1854] def
/s70 [0 -434 1251 1854] def
/s80 [0 -434 1366 1854] def
/s83 [0 -434 1366 1854] def
/s84 [0 -434 1251 1854] def
/s85 [0 -434 1479 1854] def
/s99 [0 -434 1024 1854] def
/s104 [0 -434 1139 1854] def
end
/Metrics 13 dict def
 Metrics begin
/s32 569 def
/s50 1139 def
/s51 1139 def
/s66 1366 def
/s69 1366 def
/s70 1251 def
/s80 1366 def
/s83 1366 def
/s84 1251 def
/s85 1479 def
/s99 1024 def
/s104 1139 def
end
/CharProcs 13 dict def
CharProcs begin
/.notdef {} def
/s50 {
1031 173 m
1031 0 1031 173 1031 0 c
62 0 1031 0 62 0 c
60.67 43.33 67.67 85 83 125 c
107.67 191 147.17 256 201.5 320 c
255.83 384 334.33 458 437 542 c
596.33 672.67 704 776.17 760 852.5 c
816 928.83 844 1001 844 1069 c
844 1140.33 818.5 1200.5 767.5 1249.5 c
716.5 1298.5 650 1323 568 1323 c
481.33 1323 412 1297 360 1245 c
308 1193 281.67 1121 281 1029 c
96 1048 281 1029 96 1048 c
108.67 1186 156.33 1291.17 239 1363.5 c
321.67 1435.83 432.67 1472 572 1472 c
712.67 1472 824 1433 906 1355 c
988 1277 1029 1180.33 1029 1065 c
1029 1006.33 1017 948.67 993 892 c
969 835.33 929.17 775.67 873.5 713 c
817.83 650.33 725.33 564.33 596 455 c
488 364.33 418.67 302.83 388 270.5 c
357.33 238.17 332 205.67 312 173 c
1031 173 312 173 1031 173 c
closepath } bind def
/s51 {
86 387 m
266 411 86 387 266 411 c
286.67 309 321.83 235.5 371.5 190.5 c
421.17 145.5 481.67 123 553 123 c
637.67 123 709.17 152.33 767.5 211 c
825.83 269.67 855 342.33 855 429 c
855 511.67 828 579.83 774 633.5 c
720 687.17 651.33 714 568 714 c
534 714 491.67 707.33 441 694 c
461 852 441 694 461 852 c
473 850.67 482.67 850 490 850 c
566.67 850 635.67 870 697 910 c
758.33 950 789 1011.67 789 1095 c
789 1161 766.67 1215.67 722 1259 c
677.33 1302.33 619.67 1324 549 1324 c
479 1324 420.67 1302 374 1258 c
327.33 1214 297.33 1148 284 1060 c
104 1092 284 1060 104 1092 c
126 1212.67 176 1306.17 254 1372.5 c
332 1438.83 429 1472 545 1472 c
625 1472 698.67 1454.83 766 1420.5 c
833.33 1386.17 884.83 1339.33 920.5 1280 c
956.17 1220.67 974 1157.67 974 1091 c
974 1027.67 957 970 923 918 c
889 866 838.67 824.67 772 794 c
858.67 774 926 732.5 974 669.5 c
1022 606.5 1046 527.67 1046 433 c
1046 305 999.33 196.5 906 107.5 c
812.67 18.5 694.67 -26 552 -26 c
423.33 -26 316.5 12.33 231.5 89 c
146.5 165.67 98 265 86 387 c
closepath } bind def
/s66 {
150 0 m
150 1466 150 0 150 1466 c
700 1466 150 1466 700 1466 c
812 1466 901.83 1451.17 969.5 1421.5 c
1037.17 1391.83 1090.17 1346.17 1128.5 1284.5 c
1166.83 1222.83 1186 1158.33 1186 1091 c
1186 1028.33 1169 969.33 1135 914 c
1101 858.67 1049.67 814 981 780 c
1069.67 754 1137.83 709.67 1185.5 647 c
1233.17 584.33 1257 510.33 1257 425 c
1257 356.33 1242.5 292.5 1213.5 233.5 c
1184.5 174.5 1148.67 129 1106 97 c
1063.33 65 1009.83 40.83 945.5 24.5 c
881.17 8.17 802.33 0 709 0 c
150 0 709 0 150 0 c
closepath 344 850 m
661 850 344 850 661 850 c
747 850 808.67 855.67 846 867 c
895.33 881.67 932.5 906 957.5 940 c
982.5 974 995 1016.67 995 1068 c
995 1116.67 983.33 1159.5 960 1196.5 c
936.67 1233.5 903.33 1258.83 860 1272.5 c
816.67 1286.17 742.33 1293 637 1293 c
344 1293 637 1293 344 1293 c
344 850 344 1293 344 850 c
closepath 344 173 m
709 173 344 173 709 173 c
771.67 173 815.67 175.33 841 180 c
885.67 188 923 201.33 953 220 c
983 238.67 1007.67 265.83 1027 301.5 c
1046.33 337.17 1056 378.33 1056 425 c
1056 479.67 1042 527.17 1014 567.5 c
986 607.83 947.17 636.17 897.5 652.5 c
847.83 668.83 776.33 677 683 677 c
344 677 683 677 344 677 c
344 173 344 677 344 173 c
closepath } bind def
/s69 {
162 0 m
162 1466 162 0 162 1466 c
1222 1466 162 1466 1222 1466 c
1222 1293 1222 1466 1222 1293 c
356 1293 1222 1293 356 1293 c
356 844 356 1293 356 844 c
1167 844 356 844 1167 844 c
1167 672 1167 844 1167 672 c
356 672 1167 672 356 672 c
356 173 356 672 356 173 c
1256 173 356 173 1256 173 c
1256 0 1256 173 1256 0 c
162 0 1256 0 162 0 c
closepath } bind def
/s70 {
168 0 m
168 1466 168 0 168 1466 c
1157 1466 168 1466 1157 1466 c
1157 1293 1157 1466 1157 1293 c
362 1293 1157 1293 362 1293 c
362 839 362 1293 362 839 c
1050 839 362 839 1050 839 c
1050 666 1050 839 1050 666 c
362 666 1050 666 362 666 c
362 0 362 666 362 0 c
168 0 362 0 168 0 c
closepath } bind def
/s80 {
158 0 m
158 1466 158 0 158 1466 c
711 1466 158 1466 711 1466 c
808.33 1466 882.67 1461.33 934 1452 c
1006 1440 1066.33 1417.17 1115 1383.5 c
1163.67 1349.83 1202.83 1302.67 1232.5 1242 c
1262.17 1181.33 1277 1114.67 1277 1042 c
1277 917.33 1237.33 811.83 1158 725.5 c
1078.67 639.17 935.33 596 728 596 c
352 596 728 596 352 596 c
352 0 352 596 352 0 c
158 0 352 0 158 0 c
closepath 352 769 m
731 769 352 769 731 769 c
856.33 769 945.33 792.33 998 839 c
1050.67 885.67 1077 951.33 1077 1036 c
1077 1097.33 1061.5 1149.83 1030.5 1193.5 c
999.5 1237.17 958.67 1266 908 1280 c
875.33 1288.67 815 1293 727 1293 c
352 1293 727 1293 352 1293 c
352 769 352 1293 352 769 c
closepath } bind def
/s83 {
92 471 m
275 487 92 471 275 487 c
283.67 413.67 303.83 353.5 335.5 306.5 c
367.17 259.5 416.33 221.5 483 192.5 c
549.67 163.5 624.67 149 708 149 c
782 149 847.33 160 904 182 c
960.67 204 1002.83 234.17 1030.5 272.5 c
1058.17 310.83 1072 352.67 1072 398 c
1072 444 1058.67 484.17 1032 518.5 c
1005.33 552.83 961.33 581.67 900 605 c
860.67 620.33 773.67 644.17 639 676.5 c
504.33 708.83 410 739.33 356 768 c
286 804.67 233.83 850.17 199.5 904.5 c
165.17 958.83 148 1019.67 148 1087 c
148 1161 169 1230.17 211 1294.5 c
253 1358.83 314.33 1407.67 395 1441 c
475.67 1474.33 565.33 1491 664 1491 c
772.67 1491 868.5 1473.5 951.5 1438.5 c
1034.5 1403.5 1098.33 1352 1143 1284 c
1187.67 1216 1211.67 1139 1215 1053 c
1029 1039 1215 1053 1029 1039 c
1019 1131.67 985.17 1201.67 927.5 1249 c
869.83 1296.33 784.67 1320 672 1320 c
554.67 1320 469.17 1298.5 415.5 1255.5 c
361.83 1212.5 335 1160.67 335 1100 c
335 1047.33 354 1004 392 970 c
429.33 936 526.83 901.17 684.5 865.5 c
842.17 829.83 950.33 798.67 1009 772 c
1094.33 732.67 1157.33 682.83 1198 622.5 c
1238.67 562.17 1259 492.67 1259 414 c
1259 336 1236.67 262.5 1192 193.5 c
1147.33 124.5 1083.17 70.83 999.5 32.5 c
915.83 -5.83 821.67 -25 717 -25 c
584.33 -25 473.17 -5.67 383.5 33 c
293.83 71.67 223.5 129.83 172.5 207.5 c
121.5 285.17 94.67 373 92 471 c
closepath } bind def
/s84 {
531 0 m
531 1293 531 0 531 1293 c
48 1293 531 1293 48 1293 c
48 1466 48 1293 48 1466 c
1210 1466 48 1466 1210 1466 c
1210 1293 1210 1466 1210 1293 c
725 1293 1210 1293 725 1293 c
725 0 725 1293 725 0 c
531 0 725 0 531 0 c
closepath } bind def
/s85 {
1120 1466 m
1314 1466 1120 1466 1314 1466 c
1314 619 1314 1466 1314 619 c
1314 471.67 1297.33 354.67 1264 268 c
1230.67 181.33 1170.5 110.83 1083.5 56.5 c
996.5 2.17 882.33 -25 741 -25 c
603.67 -25 491.33 -1.33 404 46 c
316.67 93.33 254.33 161.83 217 251.5 c
179.67 341.17 161 463.67 161 619 c
161 1466 161 619 161 1466 c
355 1466 161 1466 355 1466 c
355 620 355 1466 355 620 c
355 492.67 366.83 398.83 390.5 338.5 c
414.17 278.17 454.83 231.67 512.5 199 c
570.17 166.33 640.67 150 724 150 c
866.67 150 968.33 182.33 1029 247 c
1089.67 311.67 1120 436 1120 620 c
1120 1466 1120 620 1120 1466 c
closepath } bind def
/s99 {
828 389 m
1005 366 828 389 1005 366 c
985.67 244 936.17 148.5 856.5 79.5 c
776.83 10.5 679 -24 563 -24 c
417.67 -24 300.83 23.5 212.5 118.5 c
124.17 213.5 80 349.67 80 527 c
80 641.67 99 742 137 828 c
175 914 232.83 978.5 310.5 1021.5 c
388.17 1064.5 472.67 1086 564 1086 c
679.33 1086 773.67 1056.83 847 998.5 c
920.33 940.17 967.33 857.33 988 750 c
813 723 988 750 813 723 c
796.33 794.33 766.83 848 724.5 884 c
682.17 920 631 938 571 938 c
480.33 938 406.67 905.5 350 840.5 c
293.33 775.5 265 672.67 265 532 c
265 389.33 292.33 285.67 347 221 c
401.67 156.33 473 124 561 124 c
631.67 124 690.67 145.67 738 189 c
785.33 232.33 815.33 299 828 389 c
closepath } bind def
/s104 {
135 0 m
135 1466 135 0 135 1466 c
315 1466 135 1466 315 1466 c
315 940 315 1466 315 940 c
399 1037.33 505 1086 633 1086 c
711.67 1086 780 1070.5 838 1039.5 c
896 1008.5 937.5 965.67 962.5 911 c
987.5 856.33 1000 777 1000 673 c
1000 0 1000 673 1000 0 c
820 0 1000 0 820 0 c
820 673 820 0 820 673 c
820 763 800.5 828.5 761.5 869.5 c
722.5 910.5 667.33 931 596 931 c
542.67 931 492.5 917.17 445.5 889.5 c
398.5 861.83 365 824.33 345 777 c
325 729.67 315 664.33 315 581 c
315 0 315 581 315 0 c
135 0 315 0 135 0 c
closepath } bind def
end
/BuildGlyph {
 exch dup /Metrics get 2 index get 0 setcharwidth
/CharProcs get exch 2 copy known not{pop/.notdef}if get exec fill}bind def
/BuildChar {
1 index /Encoding get exch get
1 index /BuildGlyph get exec
} bind def
currentdict end /MC3_Arial exch definefont pop
%%EndFont
/clipproc{clippath{[{/m cvx}{/l cvx}{/c cvx}{/cp cvx}pathforall}stopped
{cleartomark[pathbbox exch 3 i sub exch 2 i sub/rectpath cvx}if]np}bd
/iclmtx mtx cmtx def/iclpath clipproc xd/clinit{pathproc initclip np iclpath cl np exec}bd
/clmove{pathproc 3 1 roll clippath pathproc 2 i neg 2 i neg tr initclip np exec cl tr np exec}bd
/clrect[gs np iclpath{pathbbox}stopped{0 0 1058.4 360 }if gr]def
/cloper{mtx cmtx iclmtx smtx exch exec smtx}bd
/cland{{exch cvx exec}cloper}bd
/clcopy{{exch clinit cvx exec}cloper}bd
/cldiff{{exch pathbbox 4 -1 roll clrect 0 get 2 copy gt{exch}if pop 4 1 roll
 3 -1 roll clrect 1 get 2 copy gt{exch}if pop 3 1 roll
 2 -1 roll clrect 2 get 2 copy lt{exch}if pop 2 1 roll
 1 -1 roll clrect 3 get 2 copy lt{exch}if pop 1 1 roll
 exch 3 i sub exch 2 i sub rectpath cvx exec}cloper}bd
/icl{{clinit}cloper}bd
0.240119 0.240003 sc

/initmtx mtx cmtx def
[0.999508 -0 0 -1 0 1499.98] concat
gs
gs
pathproc 790 174 3486 1078 np rectpath
/eocl cland
np exec
848 627 m
941 627 l
941 1251 l
848 1251 l
cp
gs
eofi
gr
9 sw
1 sj
1 scap
st
848 627 m
941 627 l
st
941 627 m
941 1251 l
st
848 1251 m
848 627 l
st
1429 616 m
1522 616 l
1522 1251 l
1429 1251 l
cp
gs
eofi
gr
st
1429 616 m
1522 616 l
st
1522 616 m
1522 1251 l
st
1429 1251 m
1429 616 l
st
2010 620 m
2103 620 l
2103 1251 l
2010 1251 l
cp
gs
eofi
gr
st
2010 620 m
2103 620 l
st
2103 620 m
2103 1251 l
st
2010 1251 m
2010 620 l
st
2591 618 m
2683 618 l
2683 1251 l
2591 1251 l
cp
gs
eofi
gr
st
2591 618 m
2683 618 l
st
2683 618 m
2683 1251 l
st
2591 1251 m
2591 618 l
st
3171 612 m
3264 612 l
3264 1251 l
3171 1251 l
cp
gs
eofi
gr
st
3171 612 m
3264 612 l
st
3264 612 m
3264 1251 l
st
3171 1251 m
3171 612 l
st
3752 618 m
3845 618 l
3845 1251 l
3752 1251 l
cp
gs
eofi
gr
st
3752 618 m
3845 618 l
st
3845 618 m
3845 1251 l
st
3752 1251 m
3752 618 l
st
gr
gs
pathproc 790 174 3486 1078 np rectpath
/eocl cland
np exec
941 292 m
1034 292 l
1034 1251 l
941 1251 l
cp
gs
1 0 0 rgb
eofi
gr
9 sw
1 0 0 rgb
1 sj
1 scap
st
941 292 m
1034 292 l
0 0 0 rgb
st
1034 292 m
1034 1251 l
st
941 1251 m
941 292 l
st
1522 204 m
1615 204 l
1615 1251 l
1522 1251 l
cp
gs
1 0 0 rgb
eofi
gr
1 0 0 rgb
st
1522 204 m
1615 204 l
0 0 0 rgb
st
1615 204 m
1615 1251 l
st
1522 1251 m
1522 204 l
st
2103 223 m
2196 223 l
2196 1251 l
2103 1251 l
cp
gs
1 0 0 rgb
eofi
gr
1 0 0 rgb
st
2103 223 m
2196 223 l
0 0 0 rgb
st
2196 223 m
2196 1251 l
st
2103 1251 m
2103 223 l
st
2684 238 m
2776 238 l
2776 1251 l
2684 1251 l
cp
gs
1 0 0 rgb
eofi
gr
1 0 0 rgb
st
2684 238 m
2776 238 l
0 0 0 rgb
st
2776 238 m
2776 1251 l
st
2684 1251 m
2684 238 l
st
3264 204 m
3357 204 l
3357 1251 l
3264 1251 l
cp
gs
1 0 0 rgb
eofi
gr
1 0 0 rgb
st
3264 204 m
3357 204 l
0 0 0 rgb
st
3357 204 m
3357 1251 l
st
3264 1251 m
3264 204 l
st
3845 219 m
3938 219 l
3938 1251 l
3845 1251 l
cp
gs
1 0 0 rgb
eofi
gr
1 0 0 rgb
st
3845 219 m
3938 219 l
0 0 0 rgb
st
3938 219 m
3938 1251 l
st
3845 1251 m
3845 219 l
st
gr
gs
pathproc 790 174 3486 1078 np rectpath
/eocl cland
np exec
1034 268 m
1127 268 l
1127 1251 l
1034 1251 l
cp
gs
0 0 1 rgb
eofi
gr
9 sw
0 0 1 rgb
1 sj
1 scap
st
1034 268 m
1127 268 l
0 0 0 rgb
st
1127 268 m
1127 1251 l
st
1034 1251 m
1034 268 l
st
1615 185 m
1708 185 l
1708 1251 l
1615 1251 l
cp
gs
0 0 1 rgb
eofi
gr
0 0 1 rgb
st
1615 185 m
1708 185 l
0 0 0 rgb
st
1708 185 m
1708 1251 l
st
1615 1251 m
1615 185 l
st
2196 200 m
2289 200 l
2289 1251 l
2196 1251 l
cp
gs
0 0 1 rgb
eofi
gr
0 0 1 rgb
st
2196 200 m
2289 200 l
0 0 0 rgb
st
2289 200 m
2289 1251 l
st
2196 1251 m
2196 200 l
st
2776 215 m
2869 215 l
2869 1251 l
2776 1251 l
cp
gs
0 0 1 rgb
eofi
gr
0 0 1 rgb
st
2776 215 m
2869 215 l
0 0 0 rgb
st
2869 215 m
2869 1251 l
st
2776 1251 m
2776 215 l
st
3357 185 m
3450 185 l
3450 1251 l
3357 1251 l
cp
gs
0 0 1 rgb
eofi
gr
0 0 1 rgb
st
3357 185 m
3450 185 l
0 0 0 rgb
st
3450 185 m
3450 1251 l
st
3357 1251 m
3357 185 l
st
3938 197 m
4031 197 l
4031 1251 l
3938 1251 l
cp
gs
0 0 1 rgb
eofi
gr
0 0 1 rgb
st
3938 197 m
4031 197 l
0 0 0 rgb
st
4031 197 m
4031 1251 l
st
3938 1251 m
3938 197 l
st
gr
gs
pathproc 790 174 3486 1078 np rectpath
/eocl cland
np exec
1127 292 m
1220 292 l
1220 1251 l
1127 1251 l
cp
gs
0 0.502 0.502 rgb
eofi
gr
9 sw
0 0.502 0.502 rgb
1 sj
1 scap
st
1127 292 m
1220 292 l
0 0 0 rgb
st
1220 292 m
1220 1251 l
st
1127 1251 m
1127 292 l
st
1708 204 m
1801 204 l
1801 1251 l
1708 1251 l
cp
gs
0 0.502 0.502 rgb
eofi
gr
0 0.502 0.502 rgb
st
1708 204 m
1801 204 l
0 0 0 rgb
st
1801 204 m
1801 1251 l
st
1708 1251 m
1708 204 l
st
2289 223 m
2381 223 l
2381 1251 l
2289 1251 l
cp
gs
0 0.502 0.502 rgb
eofi
gr
0 0.502 0.502 rgb
st
2289 223 m
2381 223 l
0 0 0 rgb
st
2381 223 m
2381 1251 l
st
2289 1251 m
2289 223 l
st
2869 238 m
2962 238 l
2962 1251 l
2869 1251 l
cp
gs
0 0.502 0.502 rgb
eofi
gr
0 0.502 0.502 rgb
st
2869 238 m
2962 238 l
0 0 0 rgb
st
2962 238 m
2962 1251 l
st
2869 1251 m
2869 238 l
st
3450 204 m
3543 204 l
3543 1251 l
3450 1251 l
cp
gs
0 0.502 0.502 rgb
eofi
gr
0 0.502 0.502 rgb
st
3450 204 m
3543 204 l
0 0 0 rgb
st
3543 204 m
3543 1251 l
st
3450 1251 m
3450 204 l
st
4031 219 m
4124 219 l
4124 1251 l
4031 1251 l
cp
gs
0 0.502 0.502 rgb
eofi
gr
0 0.502 0.502 rgb
st
4031 219 m
4124 219 l
0 0 0 rgb
st
4124 219 m
4124 1251 l
st
4031 1251 m
4031 219 l
st
gr
gs
pathproc 790 174 3486 1078 np rectpath
/eocl cland
np exec
1220 268 m
1313 268 l
1313 1251 l
1220 1251 l
cp
gs
1 0 1 rgb
eofi
gr
9 sw
1 0 1 rgb
1 sj
1 scap
st
1220 268 m
1313 268 l
0 0 0 rgb
st
1313 268 m
1313 1251 l
st
1220 1251 m
1220 268 l
st
1801 185 m
1894 185 l
1894 1251 l
1801 1251 l
cp
gs
1 0 1 rgb
eofi
gr
1 0 1 rgb
st
1801 185 m
1894 185 l
0 0 0 rgb
st
1894 185 m
1894 1251 l
st
1801 1251 m
1801 185 l
st
2382 200 m
2474 200 l
2474 1251 l
2382 1251 l
cp
gs
1 0 1 rgb
eofi
gr
1 0 1 rgb
st
2382 200 m
2474 200 l
0 0 0 rgb
st
2474 200 m
2474 1251 l
st
2382 1251 m
2382 200 l
st
2962 215 m
3055 215 l
3055 1251 l
2962 1251 l
cp
gs
1 0 1 rgb
eofi
gr
1 0 1 rgb
st
2962 215 m
3055 215 l
0 0 0 rgb
st
3055 215 m
3055 1251 l
st
2962 1251 m
2962 215 l
st
3543 185 m
3636 185 l
3636 1251 l
3543 1251 l
cp
gs
1 0 1 rgb
eofi
gr
1 0 1 rgb
st
3543 185 m
3636 185 l
0 0 0 rgb
st
3636 185 m
3636 1251 l
st
3543 1251 m
3543 185 l
st
4124 197 m
4217 197 l
4217 1251 l
4124 1251 l
cp
gs
1 0 1 rgb
eofi
gr
1 0 1 rgb
st
4124 197 m
4217 197 l
0 0 0 rgb
st
4217 197 m
4217 1251 l
st
4124 1251 m
4124 197 l
st
gr
gs
1 -1 sc
/MC1_Arial 154 self 919 -1371 m
(mw1)[127 109 85 ] xs
1 -1 sc
gr
gs
1 -1 sc
/MC1_Arial 154 self 1500 -1371 m
(mw2)[127 109 85 ] xs
1 -1 sc
gr
gs
1 -1 sc
/MC1_Arial 154 self 2081 -1371 m
(mw3)[127 109 85 ] xs
1 -1 sc
gr
gs
1 -1 sc
/MC1_Arial 154 self 2662 -1371 m
(mw4)[127 109 85 ] xs
1 -1 sc
gr
gs
1 -1 sc
/MC1_Arial 154 self 3243 -1371 m
(mw5)[127 109 85 ] xs
1 -1 sc
gr
gs
1 -1 sc
/MC1_Arial 154 self 3824 -1371 m
(mw6)[127 109 85 ] xs
1 -1 sc
gr
gs
1 -1 sc
/MC1_Arial 134 self 715 -1290 m
(1)[75 ] xs
1 -1 sc
gr
gs
1 -1 sc
/MC1_Arial 134 self 640 -1035 m
(16)[75 75 ] xs
1 -1 sc
gr
gs
1 -1 sc
/MC1_Arial 134 self 565 -779 m
(256)[75 75 75 ] xs
1 -1 sc
gr
gs
1 -1 sc
/MC1_Arial 134 self 648 -524 m
(4k)[75 67 ] xs
1 -1 sc
gr
gs
1 -1 sc
/MC1_Arial 134 self 573 -269 m
(66k)[75 75 67 ] xs
1 -1 sc
gr
790 1251 m
790 1251 l
7 sw
1 sj
1 scap
st
1080 1251 m
1080 1251 l
st
1371 1251 m
1371 1251 l
st
1661 1251 m
1661 1251 l
st
1952 1251 m
1952 1251 l
st
2242 1251 m
2242 1251 l
st
2533 1251 m
2533 1251 l
st
2823 1251 m
2823 1251 l
st
3113 1251 m
3113 1251 l
st
3404 1251 m
3404 1251 l
st
3694 1251 m
3694 1251 l
st
3985 1251 m
3985 1251 l
st
4275 1251 m
4275 1251 l
st
790 1251 m
4275 1251 l
st
790 1251 m
790 1251 l
st
790 1241 m
790 1241 l
st
790 1233 m
790 1233 l
st
790 1225 m
790 1225 l
st
790 1217 m
790 1217 l
st
790 1210 m
790 1210 l
st
790 1204 m
790 1204 l
st
790 1198 m
790 1198 l
st
790 1192 m
790 1192 l
st
790 1187 m
790 1187 l
st
790 1177 m
790 1177 l
st
790 1169 m
790 1169 l
st
790 1161 m
790 1161 l
st
790 1153 m
790 1153 l
st
790 1146 m
790 1146 l
st
790 1140 m
790 1140 l
st
790 1134 m
790 1134 l
st
790 1129 m
790 1129 l
st
790 1123 m
790 1123 l
st
790 1114 m
790 1114 l
st
790 1105 m
790 1105 l
st
790 1097 m
790 1097 l
st
790 1089 m
790 1089 l
st
790 1083 m
790 1083 l
st
790 1076 m
790 1076 l
st
790 1070 m
790 1070 l
st
790 1065 m
790 1065 l
st
790 1060 m
790 1060 l
st
790 1050 m
790 1050 l
st
790 1041 m
790 1041 l
st
790 1033 m
790 1033 l
st
790 1026 m
790 1026 l
st
790 1019 m
790 1019 l
st
790 1012 m
790 1012 l
st
790 1007 m
790 1007 l
st
790 1001 m
790 1001 l
st
790 996 m
790 996 l
st
790 986 m
790 986 l
st
790 977 m
790 977 l
st
790 969 m
790 969 l
st
790 962 m
790 962 l
st
790 955 m
790 955 l
st
790 949 m
790 949 l
st
790 943 m
790 943 l
st
790 937 m
790 937 l
st
790 932 m
790 932 l
st
790 922 m
790 922 l
st
790 913 m
790 913 l
st
790 905 m
790 905 l
st
790 898 m
790 898 l
st
790 891 m
790 891 l
st
790 885 m
790 885 l
st
790 879 m
790 879 l
st
790 873 m
790 873 l
st
790 868 m
790 868 l
st
790 858 m
790 858 l
st
790 850 m
790 850 l
st
790 842 m
790 842 l
st
790 834 m
790 834 l
st
790 827 m
790 827 l
st
790 821 m
790 821 l
st
790 815 m
790 815 l
st
790 809 m
790 809 l
st
790 804 m
790 804 l
st
790 794 m
790 794 l
st
790 786 m
790 786 l
st
790 778 m
790 778 l
st
790 770 m
790 770 l
st
790 763 m
790 763 l
st
790 757 m
790 757 l
st
790 751 m
790 751 l
st
790 746 m
790 746 l
st
790 740 m
790 740 l
st
790 731 m
790 731 l
st
790 722 m
790 722 l
st
790 714 m
790 714 l
st
790 706 m
790 706 l
st
790 700 m
790 700 l
st
790 693 m
790 693 l
st
790 687 m
790 687 l
st
790 682 m
790 682 l
st
790 677 m
790 677 l
st
790 667 m
790 667 l
st
790 658 m
790 658 l
st
790 650 m
790 650 l
st
790 643 m
790 643 l
st
790 636 m
790 636 l
st
790 629 m
790 629 l
st
790 624 m
790 624 l
st
790 618 m
790 618 l
st
790 613 m
790 613 l
st
790 603 m
790 603 l
st
790 594 m
790 594 l
st
790 586 m
790 586 l
st
790 579 m
790 579 l
st
790 572 m
790 572 l
st
790 566 m
790 566 l
st
790 560 m
790 560 l
st
790 554 m
790 554 l
st
790 549 m
790 549 l
st
790 539 m
790 539 l
st
790 530 m
790 530 l
st
790 522 m
790 522 l
st
790 515 m
790 515 l
st
790 508 m
790 508 l
st
790 502 m
790 502 l
st
790 496 m
790 496 l
st
790 490 m
790 490 l
st
790 485 m
790 485 l
st
790 475 m
790 475 l
st
790 467 m
790 467 l
st
790 459 m
790 459 l
st
790 451 m
790 451 l
st
790 444 m
790 444 l
st
790 438 m
790 438 l
st
790 432 m
790 432 l
st
790 426 m
790 426 l
st
790 421 m
790 421 l
st
790 411 m
790 411 l
st
790 403 m
790 403 l
st
790 395 m
790 395 l
st
790 387 m
790 387 l
st
790 381 m
790 381 l
st
790 374 m
790 374 l
st
790 368 m
790 368 l
st
790 363 m
790 363 l
st
790 357 m
790 357 l
st
790 348 m
790 348 l
st
790 339 m
790 339 l
st
790 331 m
790 331 l
st
790 324 m
790 324 l
st
790 317 m
790 317 l
st
790 310 m
790 310 l
st
790 304 m
790 304 l
st
790 299 m
790 299 l
st
790 294 m
790 294 l
st
790 284 m
790 284 l
st
790 275 m
790 275 l
st
790 267 m
790 267 l
st
790 260 m
790 260 l
st
790 253 m
790 253 l
st
790 246 m
790 246 l
st
790 241 m
790 241 l
st
790 235 m
790 235 l
st
790 230 m
790 230 l
st
790 220 m
790 220 l
st
790 211 m
790 211 l
st
790 203 m
790 203 l
st
790 196 m
790 196 l
st
790 189 m
790 189 l
st
790 183 m
790 183 l
st
790 177 m
790 177 l
st
790 1251 m
790 174 l
st
gs
gs
1 -1 sc
307 -1116 tr
90 ro
/MC2_Arial 154 self 0 0 m
(Aggregate)[102 85 85 51 85 85 85 43 85 ] xs
1 -1 sc
gr
gs
1 -1 sc
501 -1483 tr
90 ro
/MC2_Arial 154 self 0 0 m
(Throughput \(MB/sec\))[94 85 51 85 85 85 85 85 85 43 43 51 128 102 43 77 85 77 51 ] xs
1 -1 sc
gr
gr
958 5 m
3274 5 l
3274 154 l
958 154 l
cp
gs
1 1 1 rgb
eofi
gr
3 sw
st
gs
gs
gs
989 15 m
1257 15 l
1257 146 l
989 146 l
cp
gs
eofi
gr
9 sw
st
gr
gr
1 -1 sc
/MC3_Arial 122 self 1260 -122 m
( )[34 ] xs
1 -1 sc
1 -1 sc
1294 -122 m
(ch32)[61 68 68 68 ] xs
1 -1 sc
1 -1 sc
1559 -122 m
( )[34 ] xs
1 -1 sc
gs
gs
1596 15 m
1864 15 l
1864 146 l
1596 146 l
cp
gs
1 0 0 rgb
eofi
gr
9 sw
st
gr
gr
1 -1 sc
1867 -122 m
( )[34 ] xs
1 -1 sc
1 -1 sc
1901 -122 m
(UT)[88 76 ] xs
1 -1 sc
1 -1 sc
2065 -122 m
( )[34 ] xs
1 -1 sc
gs
gs
2102 15 m
2370 15 l
2370 146 l
2102 146 l
cp
gs
0 0 1 rgb
eofi
gr
9 sw
st
gr
gr
1 -1 sc
2373 -122 m
( )[34 ] xs
1 -1 sc
1 -1 sc
2407 -122 m
(FSB)[75 81 81 ] xs
1 -1 sc
1 -1 sc
2644 -122 m
( )[34 ] xs
1 -1 sc
gs
gs
2681 15 m
2949 15 l
2949 146 l
2681 146 l
cp
gs
0 0.502 0.502 rgb
eofi
gr
9 sw
st
gr
gr
1 -1 sc
2952 -122 m
( )[34 ] xs
1 -1 sc
1 -1 sc
2986 -122 m
(EPB)[81 81 81 ] xs
1 -1 sc
gr
790 174 m
790 174 l
7 sw
st
1139 174 m
1139 174 l
st
1487 174 m
1487 174 l
st
1836 174 m
1836 174 l
st
2184 174 m
2184 174 l
st
2533 174 m
2533 174 l
st
2881 174 m
2881 174 l
st
3230 174 m
3230 174 l
st
3578 174 m
3578 174 l
st
3927 174 m
3927 174 l
st
4275 174 m
4275 174 l
st
790 174 m
4275 174 l
st
4275 1251 m
4275 1251 l
st
4275 1143 m
4275 1143 l
st
4275 1036 m
4275 1036 l
st
4275 928 m
4275 928 l
st
4275 820 m
4275 820 l
st
4275 713 m
4275 713 l
st
4275 605 m
4275 605 l
st
4275 497 m
4275 497 l
st
4275 389 m
4275 389 l
st
4275 282 m
4275 282 l
st
4275 174 m
4275 174 l
st
4275 1251 m
4275 174 l
st
gr
Save0 restore end
showpage
%%EOF
