%!PS-Adobe-3.0 EPSF-3.0
%%BoundingBox: 0 0 771 360
%%LanguageLevel: 2
%%Creator: OriginLab Corporation
%%Title: (C:\Users\MJ\GooleDrive\CAMEL-MEMBER\Wonil\Simulator\ASPLOS'15\draft-2-mj-resize-fig\eval-throughput.eps)
%%CreationDate: Thu Aug 07 16:21:32 2014
%%EndComments

/OriginLab::PSL1 128 dict dup begin def
/Save0 save def
%%BeginResource: procset OriginLab::PSL1
/wd{1 index where{pop pop pop}{bind def}ifelse}bind def
/setcmykcolor{1 sub 4 1 roll 3{3 index add neg dup 0 lt{pop 0}if 3 1 roll}repeat setrgbcolor pop}wd
/selectfont{dup type/arraytype eq{exch findfont exch makefont setfont}{exch findfont exch scalefont setfont}ifelse}wd
/xshow{1 index length 0 le{}{currentpoint exch 3 index length 1 sub 0 exch 1 exch{dup 5 index exch 1 getinterval show 3 index exch get add 2 copy exch moveto}for pop pop}ifelse pop pop}wd
/glyphshow{matrix currentmatrix exch currentfont dup/FontMatrix get concat currentpoint translate
 dup/Metrics get 2 index get 0 4 2 roll gsave/CharProcs get exch 2 copy known not{pop/.notdef}if
 get exec fill grestore moveto setmatrix}wd
/grayimage/image load def/rgbtogray{cvx exec dup length 3 idiv 1 sub 0 exch 1 exch{dup 3 mul dup 3 index exch get 255 div .3 mul exch
 1 add dup 4 index exch get 255 div .59 mul exch 1 add 4 index exch get 255 div .11 mul add add
 255 mul dup 255 gt{255}if round cvi 2 index 3 1 roll put}for dup length 3 idiv 0 exch getinterval}bind def
/colorimage{0 setgray pop pop cvlit/rgbtogray cvx 2 packedarray cvx grayimage}wd
/bd{bind def}bind def/ld{load def}bd/ed{exch def}bd/xd{cvx def}bd
/np/newpath ld/a/arc ld/m/moveto ld/l/lineto ld/c/curveto ld/rm/rmoveto ld/rl/rlineto ld/rc/rcurveto ld/cp/closepath ld/cpt/currentpoint ld
/tr/translate ld/sc/scale ld/ro/rotate ld/t/transform ld/it/itransform ld/dt/dtransform ld/idt/idtransform ld
/mtx/matrix ld/cmtx/currentmatrix ld/dmtx/defaultmatrix ld/smtx/setmatrix ld/catmtx/concatmatrix ld
/sw/setlinewidth ld/scap/setlinecap ld/sj/setlinejoin ld/sm/setmiterlimit ld/sd/setdash ld/rgb/setrgbcolor ld/crgb/currentrgbcolor ld/cmyk/setcmykcolor ld/gs/gsave ld/gr/grestore ld
/st/stroke ld/fi/fill ld/eofi/eofill ld/cl/clip ld/eocl/eoclip ld
/df/definefont ld/ff/findfont ld/sf/setfont ld/scf/scalefont ld/self/selectfont ld/cf/currentfont ld
/s/show ld/xs/xshow ld/gls/glyphshow ld/xgls{cpt 3 1 roll add exch 3 -1 roll gls m}bd
/cd/currentdict ld/i/index ld
/DrawBox{4 2 roll m 1 index 0 rl 0 exch rl neg 0 rl cp}bd
/plus.re { 6 { 3 index } repeat moveto 0 exch rlineto 0 rlineto pop pop neg 0 exch rlineto pop lineto closepath } def
/DrawBcc{4 2 roll m 2 copy 0 lt exch 0 lt xor{dup 0 exch rl exch 0 rl neg 0 exch rl}{exch dup 0 rl exch 0 exch rl neg 0 rl}ifelse cp}bd
/rectline{dup type/arraytype eq{dup length 0 exch 4 exch 4 sub{0 1 3{3 copy add get 4 1 roll pop}for pop 5 1 roll DrawBox}for pop}{DrawBox}ifelse}bd
/rectpath{dup type/arraytype eq{dup length 0 exch 4 exch 4 sub{0 1 3{3 copy add get 4 1 roll pop}for pop 5 1 roll DrawBcc}for pop}{DrawBcc}ifelse}bd
/pathproc{[{/m cvx}{/l cvx}{/c cvx}{/cp cvx}pathforall]cvx}bd
/L1img/image ld/L1idx[{0}
 {dup 7 and 3 1 roll -3 bitshift get exch 7 sub 1 mul bitshift  1 and}bind 1 index dup
 {dup 1 and 3 1 roll -1 bitshift get exch 1 sub 4 mul bitshift 15 and}bind 1 index dup dup
 {get}bind]def
/image{dup type/dicttype eq {dup/ImgCS get 0 get/Indexed eq}{false}ifelse
 {begin Width Height 8 ImageMatrix {rgb_string rgb_lookup
 cd/DataSource get dup type/filetype eq
 {mystring readstring pop}{exec}ifelse
 dup length 0 ne
 {L1idx BitsPerComponent get 0 1 Width 1 sub
 {3 copy exch exec exch 3 mul exch
 3 mul dup 5 index exch get exch 1 add dup 6 index exch get exch 1 add 6 index exch get
 7 index exch 4 index 2 add exch put 6 index exch 3 index 1 add exch put 5 index exch 2 index exch put pop
 }for pop pop pop }{pop pop pop ()}ifelse }false 3 colorimage end} {dup type/dicttype eq
 {{dup mark exch L1img pop pop}stopped{cleartomark begin Width Height BitsPerComponent ImageMatrix
 {cd/DataSource get dup type/filetype eq {mystring readstring pop}{exec}ifelse
 }false 3 colorimage end} if}{L1img}ifelse}ifelse
 }bd
/L1imgmask/imagemask ld/imagemask{dup type/dicttype eq
 {{dup mark exch L1imgmask pop pop}stopped {cleartomark begin Width Height polarityflag ImageMatrix
 {cd/DataSource get dup type/filetype eq {mystring readstring pop}{exec}ifelse
 }L1imgmask end}if}{L1imgmask}ifelse
 }bd
% Gradient function
/GradientStep 1 150 div def
/GradientStartRGB { /R1 exch def /G1 exch def /B1 exch def } def
/GradientEndRGB { /R2 exch def /G2 exch def /B2 exch def
/GradientSteps GradientLength GradientStep div def
/GradientRStep R2 R1 sub GradientSteps div def
/GradientGStep G2 G1 sub GradientSteps div def
/GradientBStep B2 B1 sub GradientSteps div def
} def
/GradientStepRGB { /R1 R1 GradientRStep add def
/G1 G1 GradientGStep add def
/B1 B1 GradientBStep add def
R1 G1 B1 setrgbcolor
} def
%%EndResource
/rectclip{np rectpath clip np}wd
/rectfill{gs np rectpath fi gr}wd
/rectstroke{gs np dup type/arraytype eq{dup length 6 eq}{false}ifelse{1 index type/arraytype eq{exch}{5 1 roll}ifelse rectline concat st}{rectline st}ifelse gr}wd
%%BeginResource: procset OriginLab::Image
/OriginLab::Image 32 dict dup begin
/BinProc{[currentfile mystring /readstring cvx /pop cvx] cvx bind}bd
/HexProc{[currentfile mystring /readhexstring cvx /pop cvx] cvx bind}bd
/Ascii85Proc{currentfile /ASCII85Decode filter}bd
/LZWA85{currentfile /ASCII85Decode filter /LZWDecode filter}bd
/ImgProcArray[/BinProc /HexProc /Ascii85Proc /LZWA85]def
/ImgDict{/ImgDict 16 dict def ImgDict dup begin /ImageType 1 def /MultipleDataSource false def end}bd
/L2Dec{{[1 0]}{[0 1]}ifelse}bd
/BegImg{ /Img_sv save def
 /ImgDir ed ImgProcArray exch get /ImgProc exch ld
 dup /polarityflag ed L2Dec /polarity ed /smoothflag ed
 tr /dx 2 index def /dy 1 index abs def sc
 string /mystring ed /bpc ed /ih ed /iw ed
 }bd
/EndImg {Img_sv restore}bd
/DoXImg{ /rgb_lookup ed /hival ed ImgDict dup begin
 [/Indexed /DeviceRGB hival rgb_lookup] /L1img where{pop/ImgCS ed}{setcolorspace}ifelse
 /rgb_string iw 3 mul string def
 /Width iw def
 /Height ih def
 /Decode [0 1 bpc{2 mul}repeat 1 sub] def
 /ImageMatrix
  ImgDir 0 eq{[iw 0 0 ih 0 0]}if
  ImgDir 1 eq{[iw neg 0 0 ih iw 0]}if
  ImgDir 2 eq{[iw 0 0 ih neg 0 ih]}if
  ImgDir 3 eq{[iw neg 0 0 ih neg iw ih]}if
  def
 /DataSource ImgProc def
 /BitsPerComponent bpc def
 /Interpolate smoothflag def
 end image}bd
/DoImg{ ImgDict dup begin
 [/DeviceRGB] /L1img where{pop/ImgCS ed}{setcolorspace}ifelse
 /rgb_string iw 3 mul string def
 /Width iw def
 /Height ih def
 /Decode [0 1 0 1 0 1] def
 /ImageMatrix
  ImgDir 0 eq{[iw 0 0 ih 0 0]}if
  ImgDir 1 eq{[iw neg 0 0 ih iw 0]}if
  ImgDir 2 eq{[iw 0 0 ih neg 0 ih]}if
  ImgDir 3 eq{[iw neg 0 0 ih neg iw ih]}if
  def
 /DataSource ImgProc def
 /BitsPerComponent 8 def
 /Interpolate smoothflag def
 end image}bd
end def
%%EndResource
%%BeginFont: /MC1_Arial
12 dict begin
/FontInfo 8 dict dup begin
/ItalicAngle 0 def
/UnderlinePosition -217.00 def
/UnderlineThickness 150.00 def
/StrikeoutPosition 530.00 def
/StrikeoutThickness 102.00 def
/isFixedPitch false def
end readonly def
/FontName /MC1_Arial def
/FontType 3 def
/FontMatrix [1 2048 div 0 0 1 2048 div 0 0] def
/FontBBox [-1361 -665 4096 2060] def
/Encoding 256 array def 0 1 255{Encoding exch/.notdef put}for
Encoding 32/s32 put
Encoding 49/s49 put
Encoding 50/s50 put
Encoding 52/s52 put
Encoding 53/s53 put
Encoding 54/s54 put
Encoding 98/s98 put
Encoding 99/s99 put
Encoding 100/s100 put
Encoding 101/s101 put
Encoding 102/s102 put
Encoding 103/s103 put
Encoding 104/s104 put
Encoding 105/s105 put
Encoding 107/s107 put
Encoding 108/s108 put
Encoding 109/s109 put
Encoding 110/s110 put
Encoding 112/s112 put
Encoding 113/s113 put
Encoding 114/s114 put
Encoding 115/s115 put
Encoding 119/s119 put
Encoding 120/s120 put
Encoding 121/s121 put
/BoundingBoxes 26 dict def
BoundingBoxes begin
/s32 [0 -434 569 1854] def
/s49 [0 -434 1139 1854] def
/s50 [0 -434 1139 1854] def
/s52 [0 -434 1139 1854] def
/s53 [0 -434 1139 1854] def
/s54 [0 -434 1139 1854] def
/s98 [0 -434 1139 1854] def
/s99 [0 -434 1024 1854] def
/s100 [0 -434 1139 1854] def
/s101 [0 -434 1139 1854] def
/s102 [0 -434 569 1854] def
/s103 [0 -434 1139 1854] def
/s104 [0 -434 1139 1854] def
/s105 [0 -434 455 1854] def
/s107 [0 -434 1024 1854] def
/s108 [0 -434 455 1854] def
/s109 [0 -434 1706 1854] def
/s110 [0 -434 1139 1854] def
/s112 [0 -434 1139 1854] def
/s113 [0 -434 1139 1854] def
/s114 [0 -434 682 1854] def
/s115 [0 -434 1024 1854] def
/s119 [0 -434 1479 1854] def
/s120 [0 -434 1024 1854] def
/s121 [0 -434 1024 1854] def
end
/Metrics 26 dict def
 Metrics begin
/s32 569 def
/s49 1139 def
/s50 1139 def
/s52 1139 def
/s53 1139 def
/s54 1139 def
/s98 1139 def
/s99 1024 def
/s100 1139 def
/s101 1139 def
/s102 569 def
/s103 1139 def
/s104 1139 def
/s105 455 def
/s107 1024 def
/s108 455 def
/s109 1706 def
/s110 1139 def
/s112 1139 def
/s113 1139 def
/s114 682 def
/s115 1024 def
/s119 1479 def
/s120 1024 def
/s121 1024 def
end
/CharProcs 26 dict def
CharProcs begin
/.notdef {} def
/s49 {
763 0 m
583 0 763 0 583 0 c
583 1147 583 0 583 1147 c
539.67 1105.67 482.83 1064.33 412.5 1023 c
342.17 981.67 279 950.67 223 930 c
223 1104 223 930 223 1104 c
323.67 1151.33 411.67 1208.67 487 1276 c
562.33 1343.33 615.67 1408.67 647 1472 c
763 1472 647 1472 763 1472 c
763 0 763 1472 763 0 c
closepath } bind def
/s50 {
1031 173 m
1031 0 1031 173 1031 0 c
62 0 1031 0 62 0 c
60.67 43.33 67.67 85 83 125 c
107.67 191 147.17 256 201.5 320 c
255.83 384 334.33 458 437 542 c
596.33 672.67 704 776.17 760 852.5 c
816 928.83 844 1001 844 1069 c
844 1140.33 818.5 1200.5 767.5 1249.5 c
716.5 1298.5 650 1323 568 1323 c
481.33 1323 412 1297 360 1245 c
308 1193 281.67 1121 281 1029 c
96 1048 281 1029 96 1048 c
108.67 1186 156.33 1291.17 239 1363.5 c
321.67 1435.83 432.67 1472 572 1472 c
712.67 1472 824 1433 906 1355 c
988 1277 1029 1180.33 1029 1065 c
1029 1006.33 1017 948.67 993 892 c
969 835.33 929.17 775.67 873.5 713 c
817.83 650.33 725.33 564.33 596 455 c
488 364.33 418.67 302.83 388 270.5 c
357.33 238.17 332 205.67 312 173 c
1031 173 312 173 1031 173 c
closepath } bind def
/s52 {
662 0 m
662 351 662 0 662 351 c
26 351 662 351 26 351 c
26 516 26 351 26 516 c
695 1466 26 516 695 1466 c
842 1466 695 1466 842 1466 c
842 516 842 1466 842 516 c
1040 516 842 516 1040 516 c
1040 351 1040 516 1040 351 c
842 351 1040 351 842 351 c
842 0 842 351 842 0 c
662 0 842 0 662 0 c
closepath 662 516 m
662 1177 662 516 662 1177 c
203 516 662 1177 203 516 c
662 516 203 516 662 516 c
closepath } bind def
/s53 {
85 384 m
274 400 85 384 274 400 c
288 308 320.5 238.83 371.5 192.5 c
422.5 146.17 484 123 556 123 c
642.67 123 716 155.67 776 221 c
836 286.33 866 373 866 481 c
866 583.67 837.17 664.67 779.5 724 c
721.83 783.33 646.33 813 553 813 c
495 813 442.67 799.83 396 773.5 c
349.33 747.17 312.67 713 286 671 c
117 693 286 671 117 693 c
259 1446 117 693 259 1446 c
988 1446 259 1446 988 1446 c
988 1274 988 1446 988 1274 c
403 1274 988 1274 403 1274 c
324 880 403 1274 324 880 c
412 941.33 504.33 972 601 972 c
729 972 837 927.67 925 839 c
1013 750.33 1057 636.33 1057 497 c
1057 364.33 1018.33 249.67 941 153 c
847 34.33 718.67 -25 556 -25 c
422.67 -25 313.83 12.33 229.5 87 c
145.17 161.67 97 260.67 85 384 c
closepath } bind def
/s54 {
1019 1107 m
840 1093 1019 1107 840 1093 c
824 1163.67 801.33 1215 772 1247 c
723.33 1298.33 663.33 1324 592 1324 c
534.67 1324 484.33 1308 441 1276 c
384.33 1234.67 339.67 1174.33 307 1095 c
274.33 1015.67 257.33 902.67 256 756 c
299.33 822 352.33 871 415 903 c
477.67 935 543.33 951 612 951 c
732 951 834.17 906.83 918.5 818.5 c
1002.83 730.17 1045 616 1045 476 c
1045 384 1025.17 298.5 985.5 219.5 c
945.83 140.5 891.33 80 822 38 c
752.67 -4 674 -25 586 -25 c
436 -25 313.67 30.17 219 140.5 c
124.33 250.83 77 432.67 77 686 c
77 969.33 129.33 1175.33 234 1304 c
325.33 1416 448.33 1472 603 1472 c
718.33 1472 812.83 1439.67 886.5 1375 c
960.17 1310.33 1004.33 1221 1019 1107 c
closepath 284 475 m
284 413 297.17 353.67 323.5 297 c
349.83 240.33 386.67 197.17 434 167.5 c
481.33 137.83 531 123 583 123 c
659 123 724.33 153.67 779 215 c
833.67 276.33 861 359.67 861 465 c
861 566.33 834 646.17 780 704.5 c
726 762.83 658 792 576 792 c
494.67 792 425.67 762.83 369 704.5 c
312.33 646.17 284 569.67 284 475 c
closepath } bind def
/s98 {
301 0 m
134 0 301 0 134 0 c
134 1466 134 0 134 1466 c
314 1466 134 1466 314 1466 c
314 943 314 1466 314 943 c
390 1038.33 487 1086 605 1086 c
670.33 1086 732.17 1072.83 790.5 1046.5 c
848.83 1020.17 896.83 983.17 934.5 935.5 c
972.17 887.83 1001.67 830.33 1023 763 c
1044.33 695.67 1055 623.67 1055 547 c
1055 365 1010 224.33 920 125 c
830 25.67 722 -24 596 -24 c
470.67 -24 372.33 28.33 301 133 c
301 0 301 133 301 0 c
closepath 299 539 m
299 411.67 316.33 319.67 351 263 c
407.67 170.33 484.33 124 581 124 c
659.67 124 727.67 158.17 785 226.5 c
842.33 294.83 871 396.67 871 532 c
871 670.67 843.5 773 788.5 839 c
733.5 905 667 938 589 938 c
510.33 938 442.33 903.83 385 835.5 c
327.67 767.17 299 668.33 299 539 c
closepath } bind def
/s99 {
828 389 m
1005 366 828 389 1005 366 c
985.67 244 936.17 148.5 856.5 79.5 c
776.83 10.5 679 -24 563 -24 c
417.67 -24 300.83 23.5 212.5 118.5 c
124.17 213.5 80 349.67 80 527 c
80 641.67 99 742 137 828 c
175 914 232.83 978.5 310.5 1021.5 c
388.17 1064.5 472.67 1086 564 1086 c
679.33 1086 773.67 1056.83 847 998.5 c
920.33 940.17 967.33 857.33 988 750 c
813 723 988 750 813 723 c
796.33 794.33 766.83 848 724.5 884 c
682.17 920 631 938 571 938 c
480.33 938 406.67 905.5 350 840.5 c
293.33 775.5 265 672.67 265 532 c
265 389.33 292.33 285.67 347 221 c
401.67 156.33 473 124 561 124 c
631.67 124 690.67 145.67 738 189 c
785.33 232.33 815.33 299 828 389 c
closepath } bind def
/s100 {
824 0 m
824 134 824 0 824 134 c
756.67 28.67 657.67 -24 527 -24 c
442.33 -24 364.5 -0.67 293.5 46 c
222.5 92.67 167.5 157.83 128.5 241.5 c
89.5 325.17 70 421.33 70 530 c
70 636 87.67 732.17 123 818.5 c
158.33 904.83 211.33 971 282 1017 c
352.67 1063 431.67 1086 519 1086 c
583 1086 640 1072.5 690 1045.5 c
740 1018.5 780.67 983.33 812 940 c
812 1466 812 940 812 1466 c
991 1466 812 1466 991 1466 c
991 0 991 1466 991 0 c
824 0 991 0 824 0 c
closepath 255 530 m
255 394 283.67 292.33 341 225 c
398.33 157.67 466 124 544 124 c
622.67 124 689.5 156.17 744.5 220.5 c
799.5 284.83 827 383 827 515 c
827 660.33 799 767 743 835 c
687 903 618 937 536 937 c
456 937 389.17 904.33 335.5 839 c
281.83 773.67 255 670.67 255 530 c
closepath } bind def
/s101 {
862 342 m
1048 319 862 342 1048 319 c
1018.67 210.33 964.33 126 885 66 c
805.67 6 704.33 -24 581 -24 c
425.67 -24 302.5 23.83 211.5 119.5 c
120.5 215.17 75 349.33 75 522 c
75 700.67 121 839.33 213 938 c
305 1036.67 424.33 1086 571 1086 c
713 1086 829 1037.67 919 941 c
1009 844.33 1054 708.33 1054 533 c
1054 522.33 1053.67 506.33 1053 485 c
261 485 1053 485 261 485 c
267.67 368.33 300.67 279 360 217 c
419.33 155 493.33 124 582 124 c
648 124 704.33 141.33 751 176 c
797.67 210.67 834.67 266 862 342 c
closepath 271 633 m
864 633 271 633 864 633 c
856 722.33 833.33 789.33 796 834 c
738.67 903.33 664.33 938 573 938 c
490.33 938 420.83 910.33 364.5 855 c
308.17 799.67 277 725.67 271 633 c
closepath } bind def
/s102 {
178 0 m
178 922 178 0 178 922 c
19 922 178 922 19 922 c
19 1062 19 922 19 1062 c
178 1062 19 1062 178 1062 c
178 1175 178 1062 178 1175 c
178 1246.33 184.33 1299.33 197 1334 c
214.33 1380.67 244.83 1418.5 288.5 1447.5 c
332.17 1476.5 393.33 1491 472 1491 c
522.67 1491 578.67 1485 640 1473 c
613 1316 640 1473 613 1316 c
575.67 1322.67 540.33 1326 507 1326 c
452.33 1326 413.67 1314.33 391 1291 c
368.33 1267.67 357 1224 357 1160 c
357 1062 357 1160 357 1062 c
564 1062 357 1062 564 1062 c
564 922 564 1062 564 922 c
357 922 564 922 357 922 c
357 0 357 922 357 0 c
178 0 357 0 178 0 c
closepath } bind def
/s103 {
102 -88 m
277 -114 102 -88 277 -114 c
284.33 -168 304.67 -207.33 338 -232 c
382.67 -265.33 443.67 -282 521 -282 c
604.33 -282 668.67 -265.33 714 -232 c
759.33 -198.67 790 -152 806 -92 c
815.33 -55.33 819.67 21.67 819 139 c
740.33 46.33 642.33 0 525 0 c
379 0 266 52.67 186 158 c
106 263.33 66 389.67 66 537 c
66 638.33 84.33 731.83 121 817.5 c
157.67 903.17 210.83 969.33 280.5 1016 c
350.17 1062.67 432 1086 526 1086 c
651.33 1086 754.67 1035.33 836 934 c
836 1062 836 934 836 1062 c
1002 1062 836 1062 1002 1062 c
1002 144 1002 1062 1002 144 c
1002 -21.33 985.17 -138.5 951.5 -207.5 c
917.83 -276.5 864.5 -331 791.5 -371 c
718.5 -411 628.67 -431 522 -431 c
395.33 -431 293 -402.5 215 -345.5 c
137 -288.5 99.33 -202.67 102 -88 c
closepath 251 550 m
251 410.67 278.67 309 334 245 c
389.33 181 458.67 149 542 149 c
624.67 149 694 180.83 750 244.5 c
806 308.17 834 408 834 544 c
834 674 805.17 772 747.5 838 c
689.83 904 620.33 937 539 937 c
459 937 391 904.5 335 839.5 c
279 774.5 251 678 251 550 c
closepath } bind def
/s104 {
135 0 m
135 1466 135 0 135 1466 c
315 1466 135 1466 315 1466 c
315 940 315 1466 315 940 c
399 1037.33 505 1086 633 1086 c
711.67 1086 780 1070.5 838 1039.5 c
896 1008.5 937.5 965.67 962.5 911 c
987.5 856.33 1000 777 1000 673 c
1000 0 1000 673 1000 0 c
820 0 1000 0 820 0 c
820 673 820 0 820 673 c
820 763 800.5 828.5 761.5 869.5 c
722.5 910.5 667.33 931 596 931 c
542.67 931 492.5 917.17 445.5 889.5 c
398.5 861.83 365 824.33 345 777 c
325 729.67 315 664.33 315 581 c
315 0 315 581 315 0 c
135 0 315 0 135 0 c
closepath } bind def
/s105 {
136 1259 m
136 1466 136 1259 136 1466 c
316 1466 136 1466 316 1466 c
316 1259 316 1466 316 1259 c
136 1259 316 1259 136 1259 c
closepath 136 0 m
136 1062 136 0 136 1062 c
316 1062 136 1062 316 1062 c
316 0 316 1062 316 0 c
136 0 316 0 136 0 c
closepath } bind def
/s107 {
136 0 m
136 1466 136 0 136 1466 c
316 1466 136 1466 316 1466 c
316 630 316 1466 316 630 c
742 1062 316 630 742 1062 c
975 1062 742 1062 975 1062 c
569 668 975 1062 569 668 c
1016 0 569 668 1016 0 c
794 0 1016 0 794 0 c
443 543 794 0 443 543 c
316 421 443 543 316 421 c
316 0 316 421 316 0 c
136 0 316 0 136 0 c
closepath } bind def
/s108 {
131 0 m
131 1466 131 0 131 1466 c
311 1466 131 1466 311 1466 c
311 0 311 1466 311 0 c
131 0 311 0 131 0 c
closepath } bind def
/s109 {
135 0 m
135 1062 135 0 135 1062 c
296 1062 135 1062 296 1062 c
296 913 296 1062 296 913 c
329.33 965 373.67 1006.83 429 1038.5 c
484.33 1070.17 547.33 1086 618 1086 c
696.67 1086 761.17 1069.67 811.5 1037 c
861.83 1004.33 897.33 958.67 918 900 c
1002 1024 1111.33 1086 1246 1086 c
1351.33 1086 1432.33 1056.83 1489 998.5 c
1545.67 940.17 1574 850.33 1574 729 c
1574 0 1574 729 1574 0 c
1395 0 1574 0 1395 0 c
1395 669 1395 0 1395 669 c
1395 741 1389.17 792.83 1377.5 824.5 c
1365.83 856.17 1344.67 881.67 1314 901 c
1283.33 920.33 1247.33 930 1206 930 c
1131.33 930 1069.33 905.17 1020 855.5 c
970.67 805.83 946 726.33 946 617 c
946 0 946 617 946 0 c
766 0 946 0 766 0 c
766 690 766 0 766 690 c
766 770 751.33 830 722 870 c
692.67 910 644.67 930 578 930 c
527.33 930 480.5 916.67 437.5 890 c
394.5 863.33 363.33 824.33 344 773 c
324.67 721.67 315 647.67 315 551 c
315 0 315 551 315 0 c
135 0 315 0 135 0 c
closepath } bind def
/s110 {
135 0 m
135 1062 135 0 135 1062 c
297 1062 135 1062 297 1062 c
297 911 297 1062 297 911 c
375 1027.67 487.67 1086 635 1086 c
699 1086 757.83 1074.5 811.5 1051.5 c
865.17 1028.5 905.33 998.33 932 961 c
958.67 923.67 977.33 879.33 988 828 c
994.67 794.67 998 736.33 998 653 c
998 0 998 653 998 0 c
818 0 998 0 818 0 c
818 646 818 0 818 646 c
818 719.33 811 774.17 797 810.5 c
783 846.83 758.17 875.83 722.5 897.5 c
686.83 919.17 645 930 597 930 c
520.33 930 454.17 905.67 398.5 857 c
342.83 808.33 315 716 315 580 c
315 0 315 580 315 0 c
135 0 315 0 135 0 c
closepath } bind def
/s112 {
135 -407 m
135 1062 135 -407 135 1062 c
299 1062 135 1062 299 1062 c
299 924 299 1062 299 924 c
337.67 978 381.33 1018.5 430 1045.5 c
478.67 1072.5 537.67 1086 607 1086 c
697.67 1086 777.67 1062.67 847 1016 c
916.33 969.33 968.67 903.5 1004 818.5 c
1039.33 733.5 1057 640.33 1057 539 c
1057 430.33 1037.5 332.5 998.5 245.5 c
959.5 158.5 902.83 91.83 828.5 45.5 c
754.17 -0.83 676 -24 594 -24 c
534 -24 480.17 -11.33 432.5 14 c
384.83 39.33 345.67 71.33 315 110 c
315 -407 315 110 315 -407 c
135 -407 315 -407 135 -407 c
closepath 298 525 m
298 388.33 325.67 287.33 381 222 c
436.33 156.67 503.33 124 582 124 c
662 124 730.5 157.83 787.5 225.5 c
844.5 293.17 873 398 873 540 c
873 675.33 845.17 776.67 789.5 844 c
733.83 911.33 667.33 945 590 945 c
513.33 945 445.5 909.17 386.5 837.5 c
327.5 765.83 298 661.67 298 525 c
closepath } bind def
/s113 {
812 -407 m
812 113 812 -407 812 113 c
784 73.67 744.83 41 694.5 15 c
644.17 -11 590.67 -24 534 -24 c
408 -24 299.5 26.33 208.5 127 c
117.5 227.67 72 365.67 72 541 c
72 647.67 90.5 743.33 127.5 828 c
164.5 912.67 218.17 976.83 288.5 1020.5 c
358.83 1064.17 436 1086 520 1086 c
651.33 1086 754.67 1030.67 830 920 c
830 1062 830 920 830 1062 c
992 1062 830 1062 992 1062 c
992 -407 992 1062 992 -407 c
812 -407 992 -407 812 -407 c
closepath 257 534 m
257 397.33 285.67 294.83 343 226.5 c
400.33 158.17 469 124 549 124 c
625.67 124 691.67 156.5 747 221.5 c
802.33 286.5 830 385.33 830 518 c
830 659.33 800.83 765.67 742.5 837 c
684.17 908.33 615.67 944 537 944 c
459 944 392.83 910.83 338.5 844.5 c
284.17 778.17 257 674.67 257 534 c
closepath } bind def
/s114 {
133 0 m
133 1062 133 0 133 1062 c
295 1062 133 1062 295 1062 c
295 901 295 1062 295 901 c
336.33 976.33 374.5 1026 409.5 1050 c
444.5 1074 483 1086 525 1086 c
585.67 1086 647.33 1066.67 710 1028 c
648 861 710 1028 648 861 c
604 887 560 900 516 900 c
476.67 900 441.33 888.17 410 864.5 c
378.67 840.83 356.33 808 343 766 c
323 702 313 632 313 556 c
313 0 313 556 313 0 c
133 0 313 0 133 0 c
closepath } bind def
/s115 {
63 317 m
241 345 63 317 241 345 c
251 273.67 278.83 219 324.5 181 c
370.17 143 434 124 516 124 c
598.67 124 660 140.83 700 174.5 c
740 208.17 760 247.67 760 293 c
760 333.67 742.33 365.67 707 389 c
682.33 405 621 425.33 523 450 c
391 483.33 299.5 512.17 248.5 536.5 c
197.5 560.83 158.83 594.5 132.5 637.5 c
106.17 680.5 93 728 93 780 c
93 827.33 103.83 871.17 125.5 911.5 c
147.17 951.83 176.67 985.33 214 1012 c
242 1032.67 280.17 1050.17 328.5 1064.5 c
376.83 1078.83 428.67 1086 484 1086 c
567.33 1086 640.5 1074 703.5 1050 c
766.5 1026 813 993.5 843 952.5 c
873 911.5 893.67 856.67 905 788 c
729 764 905 788 729 764 c
721 818.67 697.83 861.33 659.5 892 c
621.17 922.67 567 938 497 938 c
414.33 938 355.33 924.33 320 897 c
284.67 869.67 267 837.67 267 801 c
267 777.67 274.33 756.67 289 738 c
303.67 718.67 326.67 702.67 358 690 c
376 683.33 429 668 517 644 c
644.33 610 733.17 582.17 783.5 560.5 c
833.83 538.83 873.33 507.33 902 466 c
930.67 424.67 945 373.33 945 312 c
945 252 927.5 195.5 892.5 142.5 c
857.5 89.5 807 48.5 741 19.5 c
675 -9.5 600.33 -24 517 -24 c
379 -24 273.83 4.67 201.5 62 c
129.17 119.33 83 204.33 63 317 c
closepath } bind def
/s119 {
331 0 m
6 1062 331 0 6 1062 c
192 1062 6 1062 192 1062 c
361 449 192 1062 361 449 c
424 221 361 449 424 221 c
426.67 232.33 445 305.33 479 440 c
648 1062 479 440 648 1062 c
833 1062 648 1062 833 1062 c
992 446 833 1062 992 446 c
1045 243 992 446 1045 243 c
1106 448 1045 243 1106 448 c
1288 1062 1106 448 1288 1062 c
1463 1062 1288 1062 1463 1062 c
1131 0 1463 1062 1131 0 c
944 0 1131 0 944 0 c
775 636 944 0 775 636 c
734 817 775 636 734 817 c
519 0 734 817 519 0 c
331 0 519 0 331 0 c
closepath } bind def
/s120 {
15 0 m
403 552 15 0 403 552 c
44 1062 403 552 44 1062 c
269 1062 44 1062 269 1062 c
432 813 269 1062 432 813 c
462.67 765.67 487.33 726 506 694 c
535.33 738 562.33 777 587 811 c
766 1062 587 811 766 1062 c
981 1062 766 1062 981 1062 c
614 562 981 1062 614 562 c
1009 0 614 562 1009 0 c
788 0 1009 0 788 0 c
570 330 788 0 570 330 c
512 419 570 330 512 419 c
233 0 512 419 233 0 c
15 0 233 0 15 0 c
closepath } bind def
/s121 {
127 -409 m
107 -240 127 -409 107 -240 c
146.33 -250.67 180.67 -256 210 -256 c
250 -256 282 -249.33 306 -236 c
330 -222.67 349.67 -204 365 -180 c
376.33 -162 394.67 -117.33 420 -46 c
423.33 -36 428.67 -21.33 436 -2 c
33 1062 436 -2 33 1062 c
227 1062 33 1062 227 1062 c
448 447 227 1062 448 447 c
476.67 369 502.33 287 525 201 c
545.67 283.67 570.33 364.33 599 443 c
826 1062 599 443 826 1062 c
1006 1062 826 1062 1006 1062 c
602 -18 1006 1062 602 -18 c
558.67 -134.67 525 -215 501 -259 c
469 -318.33 432.33 -361.83 391 -389.5 c
349.67 -417.17 300.33 -431 243 -431 c
208.33 -431 169.67 -423.67 127 -409 c
closepath } bind def
end
/BuildGlyph {
 exch dup /Metrics get 2 index get 0 setcharwidth
/CharProcs get exch 2 copy known not{pop/.notdef}if get exec fill}bind def
/BuildChar {
1 index /Encoding get exch get
1 index /BuildGlyph get exec
} bind def
currentdict end /MC1_Arial exch definefont pop
%%EndFont
%%BeginFont: /MC2_Arial
12 dict begin
/FontInfo 8 dict dup begin
/ItalicAngle 0 def
/UnderlinePosition -217.00 def
/UnderlineThickness 150.00 def
/StrikeoutPosition 530.00 def
/StrikeoutThickness 102.00 def
/isFixedPitch false def
end readonly def
/FontName /MC2_Arial def
/FontType 3 def
/FontMatrix [1 2048 div 0 0 1 2048 div 0 0] def
/FontBBox [-1361 -665 4096 2060] def
/Encoding 256 array def 0 1 255{Encoding exch/.notdef put}for
Encoding 32/s32 put
Encoding 40/s40 put
Encoding 41/s41 put
Encoding 47/s47 put
Encoding 66/s66 put
Encoding 77/s77 put
Encoding 84/s84 put
Encoding 99/s99 put
Encoding 101/s101 put
Encoding 103/s103 put
Encoding 104/s104 put
Encoding 111/s111 put
Encoding 112/s112 put
Encoding 114/s114 put
Encoding 115/s115 put
Encoding 116/s116 put
Encoding 117/s117 put
/BoundingBoxes 18 dict def
BoundingBoxes begin
/s32 [0 -434 569 1854] def
/s40 [0 -434 682 1854] def
/s41 [0 -434 682 1854] def
/s47 [0 -434 569 1854] def
/s66 [0 -434 1366 1854] def
/s77 [0 -434 1706 1854] def
/s84 [0 -434 1251 1854] def
/s99 [0 -434 1024 1854] def
/s101 [0 -434 1139 1854] def
/s103 [0 -434 1139 1854] def
/s104 [0 -434 1139 1854] def
/s111 [0 -434 1139 1854] def
/s112 [0 -434 1139 1854] def
/s114 [0 -434 682 1854] def
/s115 [0 -434 1024 1854] def
/s116 [0 -434 569 1854] def
/s117 [0 -434 1139 1854] def
end
/Metrics 18 dict def
 Metrics begin
/s32 569 def
/s40 682 def
/s41 682 def
/s47 569 def
/s66 1366 def
/s77 1706 def
/s84 1251 def
/s99 1024 def
/s101 1139 def
/s103 1139 def
/s104 1139 def
/s111 1139 def
/s112 1139 def
/s114 682 def
/s115 1024 def
/s116 569 def
/s117 1139 def
end
/CharProcs 18 dict def
CharProcs begin
/.notdef {} def
/s40 {
479 -431 m
379.67 -305.67 295.67 -159 227 9 c
158.33 177 124 351 124 531 c
124 689.67 149.67 841.67 201 987 c
261 1155.67 353.67 1323.67 479 1491 c
608 1491 479 1491 608 1491 c
527.33 1352.33 474 1253.33 448 1194 c
407.33 1102 375.33 1006 352 906 c
323.33 781.33 309 656 309 530 c
309 209.33 408.67 -111 608 -431 c
479 -431 608 -431 479 -431 c
closepath } bind def
/s41 {
253 -431 m
124 -431 253 -431 124 -431 c
323.33 -111 423 209.33 423 530 c
423 655.33 408.67 779.67 380 903 c
357.33 1003 325.67 1099 285 1191 c
259 1251 205.33 1351 124 1491 c
253 1491 124 1491 253 1491 c
378.33 1323.67 471 1155.67 531 987 c
582.33 841.67 608 689.67 608 531 c
608 351 573.5 177 504.5 9 c
435.5 -159 351.67 -305.67 253 -431 c
closepath } bind def
/s47 {
0 -25 m
425 1491 0 -25 425 1491 c
569 1491 425 1491 569 1491 c
145 -25 569 1491 145 -25 c
0 -25 145 -25 0 -25 c
closepath } bind def
/s66 {
150 0 m
150 1466 150 0 150 1466 c
700 1466 150 1466 700 1466 c
812 1466 901.83 1451.17 969.5 1421.5 c
1037.17 1391.83 1090.17 1346.17 1128.5 1284.5 c
1166.83 1222.83 1186 1158.33 1186 1091 c
1186 1028.33 1169 969.33 1135 914 c
1101 858.67 1049.67 814 981 780 c
1069.67 754 1137.83 709.67 1185.5 647 c
1233.17 584.33 1257 510.33 1257 425 c
1257 356.33 1242.5 292.5 1213.5 233.5 c
1184.5 174.5 1148.67 129 1106 97 c
1063.33 65 1009.83 40.83 945.5 24.5 c
881.17 8.17 802.33 0 709 0 c
150 0 709 0 150 0 c
closepath 344 850 m
661 850 344 850 661 850 c
747 850 808.67 855.67 846 867 c
895.33 881.67 932.5 906 957.5 940 c
982.5 974 995 1016.67 995 1068 c
995 1116.67 983.33 1159.5 960 1196.5 c
936.67 1233.5 903.33 1258.83 860 1272.5 c
816.67 1286.17 742.33 1293 637 1293 c
344 1293 637 1293 344 1293 c
344 850 344 1293 344 850 c
closepath 344 173 m
709 173 344 173 709 173 c
771.67 173 815.67 175.33 841 180 c
885.67 188 923 201.33 953 220 c
983 238.67 1007.67 265.83 1027 301.5 c
1046.33 337.17 1056 378.33 1056 425 c
1056 479.67 1042 527.17 1014 567.5 c
986 607.83 947.17 636.17 897.5 652.5 c
847.83 668.83 776.33 677 683 677 c
344 677 683 677 344 677 c
344 173 344 677 344 173 c
closepath } bind def
/s77 {
152 0 m
152 1466 152 0 152 1466 c
444 1466 152 1466 444 1466 c
791 428 444 1466 791 428 c
823 331.33 846.33 259 861 211 c
877.67 264.33 903.67 342.67 939 446 c
1290 1466 939 446 1290 1466 c
1551 1466 1290 1466 1551 1466 c
1551 0 1551 1466 1551 0 c
1364 0 1551 0 1364 0 c
1364 1227 1364 0 1364 1227 c
938 0 1364 1227 938 0 c
763 0 938 0 763 0 c
339 1248 763 0 339 1248 c
339 0 339 1248 339 0 c
152 0 339 0 152 0 c
closepath } bind def
/s84 {
531 0 m
531 1293 531 0 531 1293 c
48 1293 531 1293 48 1293 c
48 1466 48 1293 48 1466 c
1210 1466 48 1466 1210 1466 c
1210 1293 1210 1466 1210 1293 c
725 1293 1210 1293 725 1293 c
725 0 725 1293 725 0 c
531 0 725 0 531 0 c
closepath } bind def
/s99 {
828 389 m
1005 366 828 389 1005 366 c
985.67 244 936.17 148.5 856.5 79.5 c
776.83 10.5 679 -24 563 -24 c
417.67 -24 300.83 23.5 212.5 118.5 c
124.17 213.5 80 349.67 80 527 c
80 641.67 99 742 137 828 c
175 914 232.83 978.5 310.5 1021.5 c
388.17 1064.5 472.67 1086 564 1086 c
679.33 1086 773.67 1056.83 847 998.5 c
920.33 940.17 967.33 857.33 988 750 c
813 723 988 750 813 723 c
796.33 794.33 766.83 848 724.5 884 c
682.17 920 631 938 571 938 c
480.33 938 406.67 905.5 350 840.5 c
293.33 775.5 265 672.67 265 532 c
265 389.33 292.33 285.67 347 221 c
401.67 156.33 473 124 561 124 c
631.67 124 690.67 145.67 738 189 c
785.33 232.33 815.33 299 828 389 c
closepath } bind def
/s101 {
862 342 m
1048 319 862 342 1048 319 c
1018.67 210.33 964.33 126 885 66 c
805.67 6 704.33 -24 581 -24 c
425.67 -24 302.5 23.83 211.5 119.5 c
120.5 215.17 75 349.33 75 522 c
75 700.67 121 839.33 213 938 c
305 1036.67 424.33 1086 571 1086 c
713 1086 829 1037.67 919 941 c
1009 844.33 1054 708.33 1054 533 c
1054 522.33 1053.67 506.33 1053 485 c
261 485 1053 485 261 485 c
267.67 368.33 300.67 279 360 217 c
419.33 155 493.33 124 582 124 c
648 124 704.33 141.33 751 176 c
797.67 210.67 834.67 266 862 342 c
closepath 271 633 m
864 633 271 633 864 633 c
856 722.33 833.33 789.33 796 834 c
738.67 903.33 664.33 938 573 938 c
490.33 938 420.83 910.33 364.5 855 c
308.17 799.67 277 725.67 271 633 c
closepath } bind def
/s103 {
102 -88 m
277 -114 102 -88 277 -114 c
284.33 -168 304.67 -207.33 338 -232 c
382.67 -265.33 443.67 -282 521 -282 c
604.33 -282 668.67 -265.33 714 -232 c
759.33 -198.67 790 -152 806 -92 c
815.33 -55.33 819.67 21.67 819 139 c
740.33 46.33 642.33 0 525 0 c
379 0 266 52.67 186 158 c
106 263.33 66 389.67 66 537 c
66 638.33 84.33 731.83 121 817.5 c
157.67 903.17 210.83 969.33 280.5 1016 c
350.17 1062.67 432 1086 526 1086 c
651.33 1086 754.67 1035.33 836 934 c
836 1062 836 934 836 1062 c
1002 1062 836 1062 1002 1062 c
1002 144 1002 1062 1002 144 c
1002 -21.33 985.17 -138.5 951.5 -207.5 c
917.83 -276.5 864.5 -331 791.5 -371 c
718.5 -411 628.67 -431 522 -431 c
395.33 -431 293 -402.5 215 -345.5 c
137 -288.5 99.33 -202.67 102 -88 c
closepath 251 550 m
251 410.67 278.67 309 334 245 c
389.33 181 458.67 149 542 149 c
624.67 149 694 180.83 750 244.5 c
806 308.17 834 408 834 544 c
834 674 805.17 772 747.5 838 c
689.83 904 620.33 937 539 937 c
459 937 391 904.5 335 839.5 c
279 774.5 251 678 251 550 c
closepath } bind def
/s104 {
135 0 m
135 1466 135 0 135 1466 c
315 1466 135 1466 315 1466 c
315 940 315 1466 315 940 c
399 1037.33 505 1086 633 1086 c
711.67 1086 780 1070.5 838 1039.5 c
896 1008.5 937.5 965.67 962.5 911 c
987.5 856.33 1000 777 1000 673 c
1000 0 1000 673 1000 0 c
820 0 1000 0 820 0 c
820 673 820 0 820 673 c
820 763 800.5 828.5 761.5 869.5 c
722.5 910.5 667.33 931 596 931 c
542.67 931 492.5 917.17 445.5 889.5 c
398.5 861.83 365 824.33 345 777 c
325 729.67 315 664.33 315 581 c
315 0 315 581 315 0 c
135 0 315 0 135 0 c
closepath } bind def
/s111 {
68 531 m
68 727.67 122.67 873.33 232 968 c
323.33 1046.67 434.67 1086 566 1086 c
712 1086 831.33 1038.17 924 942.5 c
1016.67 846.83 1063 714.67 1063 546 c
1063 409.33 1042.5 301.83 1001.5 223.5 c
960.5 145.17 900.83 84.33 822.5 41 c
744.17 -2.33 658.67 -24 566 -24 c
417.33 -24 297.17 23.67 205.5 119 c
113.83 214.33 68 351.67 68 531 c
closepath 253 531 m
253 395 282.67 293.17 342 225.5 c
401.33 157.83 476 124 566 124 c
655.33 124 729.67 158 789 226 c
848.33 294 878 397.67 878 537 c
878 668.33 848.17 767.83 788.5 835.5 c
728.83 903.17 654.67 937 566 937 c
476 937 401.33 903.33 342 836 c
282.67 768.67 253 667 253 531 c
closepath } bind def
/s112 {
135 -407 m
135 1062 135 -407 135 1062 c
299 1062 135 1062 299 1062 c
299 924 299 1062 299 924 c
337.67 978 381.33 1018.5 430 1045.5 c
478.67 1072.5 537.67 1086 607 1086 c
697.67 1086 777.67 1062.67 847 1016 c
916.33 969.33 968.67 903.5 1004 818.5 c
1039.33 733.5 1057 640.33 1057 539 c
1057 430.33 1037.5 332.5 998.5 245.5 c
959.5 158.5 902.83 91.83 828.5 45.5 c
754.17 -0.83 676 -24 594 -24 c
534 -24 480.17 -11.33 432.5 14 c
384.83 39.33 345.67 71.33 315 110 c
315 -407 315 110 315 -407 c
135 -407 315 -407 135 -407 c
closepath 298 525 m
298 388.33 325.67 287.33 381 222 c
436.33 156.67 503.33 124 582 124 c
662 124 730.5 157.83 787.5 225.5 c
844.5 293.17 873 398 873 540 c
873 675.33 845.17 776.67 789.5 844 c
733.83 911.33 667.33 945 590 945 c
513.33 945 445.5 909.17 386.5 837.5 c
327.5 765.83 298 661.67 298 525 c
closepath } bind def
/s114 {
133 0 m
133 1062 133 0 133 1062 c
295 1062 133 1062 295 1062 c
295 901 295 1062 295 901 c
336.33 976.33 374.5 1026 409.5 1050 c
444.5 1074 483 1086 525 1086 c
585.67 1086 647.33 1066.67 710 1028 c
648 861 710 1028 648 861 c
604 887 560 900 516 900 c
476.67 900 441.33 888.17 410 864.5 c
378.67 840.83 356.33 808 343 766 c
323 702 313 632 313 556 c
313 0 313 556 313 0 c
133 0 313 0 133 0 c
closepath } bind def
/s115 {
63 317 m
241 345 63 317 241 345 c
251 273.67 278.83 219 324.5 181 c
370.17 143 434 124 516 124 c
598.67 124 660 140.83 700 174.5 c
740 208.17 760 247.67 760 293 c
760 333.67 742.33 365.67 707 389 c
682.33 405 621 425.33 523 450 c
391 483.33 299.5 512.17 248.5 536.5 c
197.5 560.83 158.83 594.5 132.5 637.5 c
106.17 680.5 93 728 93 780 c
93 827.33 103.83 871.17 125.5 911.5 c
147.17 951.83 176.67 985.33 214 1012 c
242 1032.67 280.17 1050.17 328.5 1064.5 c
376.83 1078.83 428.67 1086 484 1086 c
567.33 1086 640.5 1074 703.5 1050 c
766.5 1026 813 993.5 843 952.5 c
873 911.5 893.67 856.67 905 788 c
729 764 905 788 729 764 c
721 818.67 697.83 861.33 659.5 892 c
621.17 922.67 567 938 497 938 c
414.33 938 355.33 924.33 320 897 c
284.67 869.67 267 837.67 267 801 c
267 777.67 274.33 756.67 289 738 c
303.67 718.67 326.67 702.67 358 690 c
376 683.33 429 668 517 644 c
644.33 610 733.17 582.17 783.5 560.5 c
833.83 538.83 873.33 507.33 902 466 c
930.67 424.67 945 373.33 945 312 c
945 252 927.5 195.5 892.5 142.5 c
857.5 89.5 807 48.5 741 19.5 c
675 -9.5 600.33 -24 517 -24 c
379 -24 273.83 4.67 201.5 62 c
129.17 119.33 83 204.33 63 317 c
closepath } bind def
/s116 {
528 161 m
554 2 528 161 554 2 c
503.33 -8.67 458 -14 418 -14 c
352.67 -14 302 -3.67 266 17 c
230 37.67 204.67 64.83 190 98.5 c
175.33 132.17 168 203 168 311 c
168 922 168 311 168 922 c
36 922 168 922 36 922 c
36 1062 36 922 36 1062 c
168 1062 36 1062 168 1062 c
168 1325 168 1062 168 1325 c
347 1433 168 1325 347 1433 c
347 1062 347 1433 347 1062 c
528 1062 347 1062 528 1062 c
528 922 528 1062 528 922 c
347 922 528 922 347 922 c
347 301 347 922 347 301 c
347 249.67 350.17 216.67 356.5 202 c
362.83 187.33 373.17 175.67 387.5 167 c
401.83 158.33 422.33 154 449 154 c
469 154 495.33 156.33 528 161 c
closepath } bind def
/s117 {
831 0 m
831 156 831 0 831 156 c
748.33 36 636 -24 494 -24 c
431.33 -24 372.83 -12 318.5 12 c
264.17 36 223.83 66.17 197.5 102.5 c
171.17 138.83 152.67 183.33 142 236 c
134.67 271.33 131 327.33 131 404 c
131 1062 131 404 131 1062 c
311 1062 131 1062 311 1062 c
311 473 311 1062 311 473 c
311 379 314.67 315.67 322 283 c
333.33 235.67 357.33 198.5 394 171.5 c
430.67 144.5 476 131 530 131 c
584 131 634.67 144.83 682 172.5 c
729.33 200.17 762.83 237.83 782.5 285.5 c
802.17 333.17 812 402.33 812 493 c
812 1062 812 493 812 1062 c
992 1062 812 1062 992 1062 c
992 0 992 1062 992 0 c
831 0 992 0 831 0 c
closepath } bind def
end
/BuildGlyph {
 exch dup /Metrics get 2 index get 0 setcharwidth
/CharProcs get exch 2 copy known not{pop/.notdef}if get exec fill}bind def
/BuildChar {
1 index /Encoding get exch get
1 index /BuildGlyph get exec
} bind def
currentdict end /MC2_Arial exch definefont pop
%%EndFont
%%BeginFont: /MC3_Arial
12 dict begin
/FontInfo 8 dict dup begin
/ItalicAngle 0 def
/UnderlinePosition -217.00 def
/UnderlineThickness 150.00 def
/StrikeoutPosition 530.00 def
/StrikeoutThickness 102.00 def
/isFixedPitch false def
end readonly def
/FontName /MC3_Arial def
/FontType 3 def
/FontMatrix [1 2048 div 0 0 1 2048 div 0 0] def
/FontBBox [-1361 -665 4096 2060] def
/Encoding 256 array def 0 1 255{Encoding exch/.notdef put}for
Encoding 32/s32 put
Encoding 49/s49 put
Encoding 50/s50 put
Encoding 51/s51 put
Encoding 52/s52 put
Encoding 54/s54 put
Encoding 56/s56 put
Encoding 66/s66 put
Encoding 69/s69 put
Encoding 70/s70 put
Encoding 80/s80 put
Encoding 83/s83 put
Encoding 84/s84 put
Encoding 85/s85 put
Encoding 99/s99 put
Encoding 104/s104 put
/BoundingBoxes 17 dict def
BoundingBoxes begin
/s32 [0 -434 569 1854] def
/s49 [0 -434 1139 1854] def
/s50 [0 -434 1139 1854] def
/s51 [0 -434 1139 1854] def
/s52 [0 -434 1139 1854] def
/s54 [0 -434 1139 1854] def
/s56 [0 -434 1139 1854] def
/s66 [0 -434 1366 1854] def
/s69 [0 -434 1366 1854] def
/s70 [0 -434 1251 1854] def
/s80 [0 -434 1366 1854] def
/s83 [0 -434 1366 1854] def
/s84 [0 -434 1251 1854] def
/s85 [0 -434 1479 1854] def
/s99 [0 -434 1024 1854] def
/s104 [0 -434 1139 1854] def
end
/Metrics 17 dict def
 Metrics begin
/s32 569 def
/s49 1139 def
/s50 1139 def
/s51 1139 def
/s52 1139 def
/s54 1139 def
/s56 1139 def
/s66 1366 def
/s69 1366 def
/s70 1251 def
/s80 1366 def
/s83 1366 def
/s84 1251 def
/s85 1479 def
/s99 1024 def
/s104 1139 def
end
/CharProcs 17 dict def
CharProcs begin
/.notdef {} def
/s49 {
763 0 m
583 0 763 0 583 0 c
583 1147 583 0 583 1147 c
539.67 1105.67 482.83 1064.33 412.5 1023 c
342.17 981.67 279 950.67 223 930 c
223 1104 223 930 223 1104 c
323.67 1151.33 411.67 1208.67 487 1276 c
562.33 1343.33 615.67 1408.67 647 1472 c
763 1472 647 1472 763 1472 c
763 0 763 1472 763 0 c
closepath } bind def
/s50 {
1031 173 m
1031 0 1031 173 1031 0 c
62 0 1031 0 62 0 c
60.67 43.33 67.67 85 83 125 c
107.67 191 147.17 256 201.5 320 c
255.83 384 334.33 458 437 542 c
596.33 672.67 704 776.17 760 852.5 c
816 928.83 844 1001 844 1069 c
844 1140.33 818.5 1200.5 767.5 1249.5 c
716.5 1298.5 650 1323 568 1323 c
481.33 1323 412 1297 360 1245 c
308 1193 281.67 1121 281 1029 c
96 1048 281 1029 96 1048 c
108.67 1186 156.33 1291.17 239 1363.5 c
321.67 1435.83 432.67 1472 572 1472 c
712.67 1472 824 1433 906 1355 c
988 1277 1029 1180.33 1029 1065 c
1029 1006.33 1017 948.67 993 892 c
969 835.33 929.17 775.67 873.5 713 c
817.83 650.33 725.33 564.33 596 455 c
488 364.33 418.67 302.83 388 270.5 c
357.33 238.17 332 205.67 312 173 c
1031 173 312 173 1031 173 c
closepath } bind def
/s51 {
86 387 m
266 411 86 387 266 411 c
286.67 309 321.83 235.5 371.5 190.5 c
421.17 145.5 481.67 123 553 123 c
637.67 123 709.17 152.33 767.5 211 c
825.83 269.67 855 342.33 855 429 c
855 511.67 828 579.83 774 633.5 c
720 687.17 651.33 714 568 714 c
534 714 491.67 707.33 441 694 c
461 852 441 694 461 852 c
473 850.67 482.67 850 490 850 c
566.67 850 635.67 870 697 910 c
758.33 950 789 1011.67 789 1095 c
789 1161 766.67 1215.67 722 1259 c
677.33 1302.33 619.67 1324 549 1324 c
479 1324 420.67 1302 374 1258 c
327.33 1214 297.33 1148 284 1060 c
104 1092 284 1060 104 1092 c
126 1212.67 176 1306.17 254 1372.5 c
332 1438.83 429 1472 545 1472 c
625 1472 698.67 1454.83 766 1420.5 c
833.33 1386.17 884.83 1339.33 920.5 1280 c
956.17 1220.67 974 1157.67 974 1091 c
974 1027.67 957 970 923 918 c
889 866 838.67 824.67 772 794 c
858.67 774 926 732.5 974 669.5 c
1022 606.5 1046 527.67 1046 433 c
1046 305 999.33 196.5 906 107.5 c
812.67 18.5 694.67 -26 552 -26 c
423.33 -26 316.5 12.33 231.5 89 c
146.5 165.67 98 265 86 387 c
closepath } bind def
/s52 {
662 0 m
662 351 662 0 662 351 c
26 351 662 351 26 351 c
26 516 26 351 26 516 c
695 1466 26 516 695 1466 c
842 1466 695 1466 842 1466 c
842 516 842 1466 842 516 c
1040 516 842 516 1040 516 c
1040 351 1040 516 1040 351 c
842 351 1040 351 842 351 c
842 0 842 351 842 0 c
662 0 842 0 662 0 c
closepath 662 516 m
662 1177 662 516 662 1177 c
203 516 662 1177 203 516 c
662 516 203 516 662 516 c
closepath } bind def
/s54 {
1019 1107 m
840 1093 1019 1107 840 1093 c
824 1163.67 801.33 1215 772 1247 c
723.33 1298.33 663.33 1324 592 1324 c
534.67 1324 484.33 1308 441 1276 c
384.33 1234.67 339.67 1174.33 307 1095 c
274.33 1015.67 257.33 902.67 256 756 c
299.33 822 352.33 871 415 903 c
477.67 935 543.33 951 612 951 c
732 951 834.17 906.83 918.5 818.5 c
1002.83 730.17 1045 616 1045 476 c
1045 384 1025.17 298.5 985.5 219.5 c
945.83 140.5 891.33 80 822 38 c
752.67 -4 674 -25 586 -25 c
436 -25 313.67 30.17 219 140.5 c
124.33 250.83 77 432.67 77 686 c
77 969.33 129.33 1175.33 234 1304 c
325.33 1416 448.33 1472 603 1472 c
718.33 1472 812.83 1439.67 886.5 1375 c
960.17 1310.33 1004.33 1221 1019 1107 c
closepath 284 475 m
284 413 297.17 353.67 323.5 297 c
349.83 240.33 386.67 197.17 434 167.5 c
481.33 137.83 531 123 583 123 c
659 123 724.33 153.67 779 215 c
833.67 276.33 861 359.67 861 465 c
861 566.33 834 646.17 780 704.5 c
726 762.83 658 792 576 792 c
494.67 792 425.67 762.83 369 704.5 c
312.33 646.17 284 569.67 284 475 c
closepath } bind def
/s56 {
362 795 m
287.33 822.33 232 861.33 196 912 c
160 962.67 142 1023.33 142 1094 c
142 1200.67 180.33 1290.33 257 1363 c
333.67 1435.67 435.67 1472 563 1472 c
691 1472 794 1434.83 872 1360.5 c
950 1286.17 989 1195.67 989 1089 c
989 1021 971.17 961.83 935.5 911.5 c
899.83 861.17 845.67 822.33 773 795 c
863 765.67 931.5 718.33 978.5 653 c
1025.5 587.67 1049 509.67 1049 419 c
1049 293.67 1004.67 188.33 916 103 c
827.33 17.67 710.67 -25 566 -25 c
421.33 -25 304.67 17.83 216 103.5 c
127.33 189.17 83 296 83 424 c
83 519.33 107.17 599.17 155.5 663.5 c
203.83 727.83 272.67 771.67 362 795 c
closepath 326 1100 m
326 1030.67 348.33 974 393 930 c
437.67 886 495.67 864 567 864 c
636.33 864 693.17 885.83 737.5 929.5 c
781.83 973.17 804 1026.67 804 1090 c
804 1156 781.17 1211.5 735.5 1256.5 c
689.83 1301.5 633 1324 565 1324 c
496.33 1324 439.33 1302 394 1258 c
348.67 1214 326 1161.33 326 1100 c
closepath 268 423 m
268 371.67 280.17 322 304.5 274 c
328.83 226 365 188.83 413 162.5 c
461 136.17 512.67 123 568 123 c
654 123 725 150.67 781 206 c
837 261.33 865 331.67 865 417 c
865 503.67 836.17 575.33 778.5 632 c
720.83 688.67 648.67 717 562 717 c
477.33 717 407.17 689 351.5 633 c
295.83 577 268 507 268 423 c
closepath } bind def
/s66 {
150 0 m
150 1466 150 0 150 1466 c
700 1466 150 1466 700 1466 c
812 1466 901.83 1451.17 969.5 1421.5 c
1037.17 1391.83 1090.17 1346.17 1128.5 1284.5 c
1166.83 1222.83 1186 1158.33 1186 1091 c
1186 1028.33 1169 969.33 1135 914 c
1101 858.67 1049.67 814 981 780 c
1069.67 754 1137.83 709.67 1185.5 647 c
1233.17 584.33 1257 510.33 1257 425 c
1257 356.33 1242.5 292.5 1213.5 233.5 c
1184.5 174.5 1148.67 129 1106 97 c
1063.33 65 1009.83 40.83 945.5 24.5 c
881.17 8.17 802.33 0 709 0 c
150 0 709 0 150 0 c
closepath 344 850 m
661 850 344 850 661 850 c
747 850 808.67 855.67 846 867 c
895.33 881.67 932.5 906 957.5 940 c
982.5 974 995 1016.67 995 1068 c
995 1116.67 983.33 1159.5 960 1196.5 c
936.67 1233.5 903.33 1258.83 860 1272.5 c
816.67 1286.17 742.33 1293 637 1293 c
344 1293 637 1293 344 1293 c
344 850 344 1293 344 850 c
closepath 344 173 m
709 173 344 173 709 173 c
771.67 173 815.67 175.33 841 180 c
885.67 188 923 201.33 953 220 c
983 238.67 1007.67 265.83 1027 301.5 c
1046.33 337.17 1056 378.33 1056 425 c
1056 479.67 1042 527.17 1014 567.5 c
986 607.83 947.17 636.17 897.5 652.5 c
847.83 668.83 776.33 677 683 677 c
344 677 683 677 344 677 c
344 173 344 677 344 173 c
closepath } bind def
/s69 {
162 0 m
162 1466 162 0 162 1466 c
1222 1466 162 1466 1222 1466 c
1222 1293 1222 1466 1222 1293 c
356 1293 1222 1293 356 1293 c
356 844 356 1293 356 844 c
1167 844 356 844 1167 844 c
1167 672 1167 844 1167 672 c
356 672 1167 672 356 672 c
356 173 356 672 356 173 c
1256 173 356 173 1256 173 c
1256 0 1256 173 1256 0 c
162 0 1256 0 162 0 c
closepath } bind def
/s70 {
168 0 m
168 1466 168 0 168 1466 c
1157 1466 168 1466 1157 1466 c
1157 1293 1157 1466 1157 1293 c
362 1293 1157 1293 362 1293 c
362 839 362 1293 362 839 c
1050 839 362 839 1050 839 c
1050 666 1050 839 1050 666 c
362 666 1050 666 362 666 c
362 0 362 666 362 0 c
168 0 362 0 168 0 c
closepath } bind def
/s80 {
158 0 m
158 1466 158 0 158 1466 c
711 1466 158 1466 711 1466 c
808.33 1466 882.67 1461.33 934 1452 c
1006 1440 1066.33 1417.17 1115 1383.5 c
1163.67 1349.83 1202.83 1302.67 1232.5 1242 c
1262.17 1181.33 1277 1114.67 1277 1042 c
1277 917.33 1237.33 811.83 1158 725.5 c
1078.67 639.17 935.33 596 728 596 c
352 596 728 596 352 596 c
352 0 352 596 352 0 c
158 0 352 0 158 0 c
closepath 352 769 m
731 769 352 769 731 769 c
856.33 769 945.33 792.33 998 839 c
1050.67 885.67 1077 951.33 1077 1036 c
1077 1097.33 1061.5 1149.83 1030.5 1193.5 c
999.5 1237.17 958.67 1266 908 1280 c
875.33 1288.67 815 1293 727 1293 c
352 1293 727 1293 352 1293 c
352 769 352 1293 352 769 c
closepath } bind def
/s83 {
92 471 m
275 487 92 471 275 487 c
283.67 413.67 303.83 353.5 335.5 306.5 c
367.17 259.5 416.33 221.5 483 192.5 c
549.67 163.5 624.67 149 708 149 c
782 149 847.33 160 904 182 c
960.67 204 1002.83 234.17 1030.5 272.5 c
1058.17 310.83 1072 352.67 1072 398 c
1072 444 1058.67 484.17 1032 518.5 c
1005.33 552.83 961.33 581.67 900 605 c
860.67 620.33 773.67 644.17 639 676.5 c
504.33 708.83 410 739.33 356 768 c
286 804.67 233.83 850.17 199.5 904.5 c
165.17 958.83 148 1019.67 148 1087 c
148 1161 169 1230.17 211 1294.5 c
253 1358.83 314.33 1407.67 395 1441 c
475.67 1474.33 565.33 1491 664 1491 c
772.67 1491 868.5 1473.5 951.5 1438.5 c
1034.5 1403.5 1098.33 1352 1143 1284 c
1187.67 1216 1211.67 1139 1215 1053 c
1029 1039 1215 1053 1029 1039 c
1019 1131.67 985.17 1201.67 927.5 1249 c
869.83 1296.33 784.67 1320 672 1320 c
554.67 1320 469.17 1298.5 415.5 1255.5 c
361.83 1212.5 335 1160.67 335 1100 c
335 1047.33 354 1004 392 970 c
429.33 936 526.83 901.17 684.5 865.5 c
842.17 829.83 950.33 798.67 1009 772 c
1094.33 732.67 1157.33 682.83 1198 622.5 c
1238.67 562.17 1259 492.67 1259 414 c
1259 336 1236.67 262.5 1192 193.5 c
1147.33 124.5 1083.17 70.83 999.5 32.5 c
915.83 -5.83 821.67 -25 717 -25 c
584.33 -25 473.17 -5.67 383.5 33 c
293.83 71.67 223.5 129.83 172.5 207.5 c
121.5 285.17 94.67 373 92 471 c
closepath } bind def
/s84 {
531 0 m
531 1293 531 0 531 1293 c
48 1293 531 1293 48 1293 c
48 1466 48 1293 48 1466 c
1210 1466 48 1466 1210 1466 c
1210 1293 1210 1466 1210 1293 c
725 1293 1210 1293 725 1293 c
725 0 725 1293 725 0 c
531 0 725 0 531 0 c
closepath } bind def
/s85 {
1120 1466 m
1314 1466 1120 1466 1314 1466 c
1314 619 1314 1466 1314 619 c
1314 471.67 1297.33 354.67 1264 268 c
1230.67 181.33 1170.5 110.83 1083.5 56.5 c
996.5 2.17 882.33 -25 741 -25 c
603.67 -25 491.33 -1.33 404 46 c
316.67 93.33 254.33 161.83 217 251.5 c
179.67 341.17 161 463.67 161 619 c
161 1466 161 619 161 1466 c
355 1466 161 1466 355 1466 c
355 620 355 1466 355 620 c
355 492.67 366.83 398.83 390.5 338.5 c
414.17 278.17 454.83 231.67 512.5 199 c
570.17 166.33 640.67 150 724 150 c
866.67 150 968.33 182.33 1029 247 c
1089.67 311.67 1120 436 1120 620 c
1120 1466 1120 620 1120 1466 c
closepath } bind def
/s99 {
828 389 m
1005 366 828 389 1005 366 c
985.67 244 936.17 148.5 856.5 79.5 c
776.83 10.5 679 -24 563 -24 c
417.67 -24 300.83 23.5 212.5 118.5 c
124.17 213.5 80 349.67 80 527 c
80 641.67 99 742 137 828 c
175 914 232.83 978.5 310.5 1021.5 c
388.17 1064.5 472.67 1086 564 1086 c
679.33 1086 773.67 1056.83 847 998.5 c
920.33 940.17 967.33 857.33 988 750 c
813 723 988 750 813 723 c
796.33 794.33 766.83 848 724.5 884 c
682.17 920 631 938 571 938 c
480.33 938 406.67 905.5 350 840.5 c
293.33 775.5 265 672.67 265 532 c
265 389.33 292.33 285.67 347 221 c
401.67 156.33 473 124 561 124 c
631.67 124 690.67 145.67 738 189 c
785.33 232.33 815.33 299 828 389 c
closepath } bind def
/s104 {
135 0 m
135 1466 135 0 135 1466 c
315 1466 135 1466 315 1466 c
315 940 315 1466 315 940 c
399 1037.33 505 1086 633 1086 c
711.67 1086 780 1070.5 838 1039.5 c
896 1008.5 937.5 965.67 962.5 911 c
987.5 856.33 1000 777 1000 673 c
1000 0 1000 673 1000 0 c
820 0 1000 0 820 0 c
820 673 820 0 820 673 c
820 763 800.5 828.5 761.5 869.5 c
722.5 910.5 667.33 931 596 931 c
542.67 931 492.5 917.17 445.5 889.5 c
398.5 861.83 365 824.33 345 777 c
325 729.67 315 664.33 315 581 c
315 0 315 581 315 0 c
135 0 315 0 135 0 c
closepath } bind def
end
/BuildGlyph {
 exch dup /Metrics get 2 index get 0 setcharwidth
/CharProcs get exch 2 copy known not{pop/.notdef}if get exec fill}bind def
/BuildChar {
1 index /Encoding get exch get
1 index /BuildGlyph get exec
} bind def
currentdict end /MC3_Arial exch definefont pop
%%EndFont
/clipproc{clippath{[{/m cvx}{/l cvx}{/c cvx}{/cp cvx}pathforall}stopped
{cleartomark[pathbbox exch 3 i sub exch 2 i sub/rectpath cvx}if]np}bd
/iclmtx mtx cmtx def/iclpath clipproc xd/clinit{pathproc initclip np iclpath cl np exec}bd
/clmove{pathproc 3 1 roll clippath pathproc 2 i neg 2 i neg tr initclip np exec cl tr np exec}bd
/clrect[gs np iclpath{pathbbox}stopped{0 0 770.37 360 }if gr]def
/cloper{mtx cmtx iclmtx smtx exch exec smtx}bd
/cland{{exch cvx exec}cloper}bd
/clcopy{{exch clinit cvx exec}cloper}bd
/cldiff{{exch pathbbox 4 -1 roll clrect 0 get 2 copy gt{exch}if pop 4 1 roll
 3 -1 roll clrect 1 get 2 copy gt{exch}if pop 3 1 roll
 2 -1 roll clrect 2 get 2 copy lt{exch}if pop 2 1 roll
 1 -1 roll clrect 3 get 2 copy lt{exch}if pop 1 1 roll
 exch 3 i sub exch 2 i sub rectpath cvx exec}cloper}bd
/icl{{clinit}cloper}bd
0.240111 0.240003 sc

/initmtx mtx cmtx def
[0.999508 -0 0 -1 0 1499.98] concat
gs
gs
pathproc 501 227 2662 920 np rectpath
/eocl cland
np exec
516 1146 m
554 1146 l
8 sw
1 sj
1 scap
st
811 1146 m
849 1146 l
st
1107 1146 m
1145 1146 l
st
1403 1146 m
1441 1146 l
st
1698 1146 m
1736 1146 l
st
1994 1138 m
2032 1138 l
2032 1146 l
1994 1146 l
cp
gs
eofi
gr
st
1994 1138 m
2032 1138 l
st
2032 1138 m
2032 1146 l
st
1994 1146 m
1994 1138 l
st
2290 1146 m
2328 1146 l
st
2585 1146 m
2623 1146 l
st
2881 1135 m
2919 1135 l
2919 1146 l
2881 1146 l
cp
gs
eofi
gr
st
2881 1135 m
2919 1135 l
st
2919 1135 m
2919 1146 l
st
2881 1146 m
2881 1135 l
st
gr
gs
pathproc 501 227 2662 920 np rectpath
/eocl cland
np exec
554 1069 m
592 1069 l
592 1146 l
554 1146 l
cp
gs
1 0 0 rgb
eofi
gr
8 sw
1 0 0 rgb
1 sj
1 scap
st
554 1069 m
592 1069 l
0 0 0 rgb
st
592 1069 m
592 1146 l
st
554 1146 m
554 1069 l
st
849 1102 m
887 1102 l
887 1146 l
849 1146 l
cp
gs
1 0 0 rgb
eofi
gr
1 0 0 rgb
st
849 1102 m
887 1102 l
0 0 0 rgb
st
887 1102 m
887 1146 l
st
849 1146 m
849 1102 l
st
1145 1121 m
1183 1121 l
1183 1146 l
1145 1146 l
cp
gs
1 0 0 rgb
eofi
gr
1 0 0 rgb
st
1145 1121 m
1183 1121 l
0 0 0 rgb
st
1183 1121 m
1183 1146 l
st
1145 1146 m
1145 1121 l
st
1441 1146 m
1479 1146 l
st
1736 1040 m
1774 1040 l
1774 1146 l
1736 1146 l
cp
gs
1 0 0 rgb
eofi
gr
1 0 0 rgb
st
1736 1040 m
1774 1040 l
0 0 0 rgb
st
1774 1040 m
1774 1146 l
st
1736 1146 m
1736 1040 l
st
2032 1076 m
2070 1076 l
2070 1146 l
2032 1146 l
cp
gs
1 0 0 rgb
eofi
gr
1 0 0 rgb
st
2032 1076 m
2070 1076 l
0 0 0 rgb
st
2070 1076 m
2070 1146 l
st
2032 1146 m
2032 1076 l
st
2328 1086 m
2366 1086 l
2366 1146 l
2328 1146 l
cp
gs
1 0 0 rgb
eofi
gr
1 0 0 rgb
st
2328 1086 m
2366 1086 l
0 0 0 rgb
st
2366 1086 m
2366 1146 l
st
2328 1146 m
2328 1086 l
st
2623 1139 m
2661 1139 l
2661 1146 l
2623 1146 l
cp
gs
1 0 0 rgb
eofi
gr
1 0 0 rgb
st
2623 1139 m
2661 1139 l
0 0 0 rgb
st
2661 1139 m
2661 1146 l
st
2623 1146 m
2623 1139 l
st
2919 1058 m
2957 1058 l
2957 1146 l
2919 1146 l
cp
gs
1 0 0 rgb
eofi
gr
1 0 0 rgb
st
2919 1058 m
2957 1058 l
0 0 0 rgb
st
2957 1058 m
2957 1146 l
st
2919 1146 m
2919 1058 l
st
gr
gs
pathproc 501 227 2662 920 np rectpath
/eocl cland
np exec
592 947 m
630 947 l
630 1146 l
592 1146 l
cp
gs
0 0 1 rgb
eofi
gr
8 sw
0 0 1 rgb
1 sj
1 scap
st
592 947 m
630 947 l
0 0 0 rgb
st
630 947 m
630 1146 l
st
592 1146 m
592 947 l
st
887 985 m
925 985 l
925 1146 l
887 1146 l
cp
gs
0 0 1 rgb
eofi
gr
0 0 1 rgb
st
887 985 m
925 985 l
0 0 0 rgb
st
925 985 m
925 1146 l
st
887 1146 m
887 985 l
st
1183 1029 m
1221 1029 l
1221 1146 l
1183 1146 l
cp
gs
0 0 1 rgb
eofi
gr
0 0 1 rgb
st
1183 1029 m
1221 1029 l
0 0 0 rgb
st
1221 1029 m
1221 1146 l
st
1183 1146 m
1183 1029 l
st
1479 1054 m
1517 1054 l
1517 1146 l
1479 1146 l
cp
gs
0 0 1 rgb
eofi
gr
0 0 1 rgb
st
1479 1054 m
1517 1054 l
0 0 0 rgb
st
1517 1054 m
1517 1146 l
st
1479 1146 m
1479 1054 l
st
1774 910 m
1812 910 l
1812 1146 l
1774 1146 l
cp
gs
0 0 1 rgb
eofi
gr
0 0 1 rgb
st
1774 910 m
1812 910 l
0 0 0 rgb
st
1812 910 m
1812 1146 l
st
1774 1146 m
1774 910 l
st
2070 1015 m
2108 1015 l
2108 1146 l
2070 1146 l
cp
gs
0 0 1 rgb
eofi
gr
0 0 1 rgb
st
2070 1015 m
2108 1015 l
0 0 0 rgb
st
2108 1015 m
2108 1146 l
st
2070 1146 m
2070 1015 l
st
2366 977 m
2404 977 l
2404 1146 l
2366 1146 l
cp
gs
0 0 1 rgb
eofi
gr
0 0 1 rgb
st
2366 977 m
2404 977 l
0 0 0 rgb
st
2404 977 m
2404 1146 l
st
2366 1146 m
2366 977 l
st
2661 1002 m
2699 1002 l
2699 1146 l
2661 1146 l
cp
gs
0 0 1 rgb
eofi
gr
0 0 1 rgb
st
2661 1002 m
2699 1002 l
0 0 0 rgb
st
2699 1002 m
2699 1146 l
st
2661 1146 m
2661 1002 l
st
2957 967 m
2995 967 l
2995 1146 l
2957 1146 l
cp
gs
0 0 1 rgb
eofi
gr
0 0 1 rgb
st
2957 967 m
2995 967 l
0 0 0 rgb
st
2995 967 m
2995 1146 l
st
2957 1146 m
2957 967 l
st
gr
gs
pathproc 501 227 2662 920 np rectpath
/eocl cland
np exec
630 835 m
668 835 l
668 1146 l
630 1146 l
cp
gs
0 0.502 0.502 rgb
eofi
gr
8 sw
0 0.502 0.502 rgb
1 sj
1 scap
st
630 835 m
668 835 l
0 0 0 rgb
st
668 835 m
668 1146 l
st
630 1146 m
630 835 l
st
925 878 m
964 878 l
964 1146 l
925 1146 l
cp
gs
0 0.502 0.502 rgb
eofi
gr
0 0.502 0.502 rgb
st
925 878 m
964 878 l
0 0 0 rgb
st
964 878 m
964 1146 l
st
925 1146 m
925 878 l
st
1221 910 m
1259 910 l
1259 1146 l
1221 1146 l
cp
gs
0 0.502 0.502 rgb
eofi
gr
0 0.502 0.502 rgb
st
1221 910 m
1259 910 l
0 0 0 rgb
st
1259 910 m
1259 1146 l
st
1221 1146 m
1221 910 l
st
1517 945 m
1555 945 l
1555 1146 l
1517 1146 l
cp
gs
0 0.502 0.502 rgb
eofi
gr
0 0.502 0.502 rgb
st
1517 945 m
1555 945 l
0 0 0 rgb
st
1555 945 m
1555 1146 l
st
1517 1146 m
1517 945 l
st
1812 813 m
1851 813 l
1851 1146 l
1812 1146 l
cp
gs
0 0.502 0.502 rgb
eofi
gr
0 0.502 0.502 rgb
st
1812 813 m
1851 813 l
0 0 0 rgb
st
1851 813 m
1851 1146 l
st
1812 1146 m
1812 813 l
st
2108 954 m
2146 954 l
2146 1146 l
2108 1146 l
cp
gs
0 0.502 0.502 rgb
eofi
gr
0 0.502 0.502 rgb
st
2108 954 m
2146 954 l
0 0 0 rgb
st
2146 954 m
2146 1146 l
st
2108 1146 m
2108 954 l
st
2404 877 m
2442 877 l
2442 1146 l
2404 1146 l
cp
gs
0 0.502 0.502 rgb
eofi
gr
0 0.502 0.502 rgb
st
2404 877 m
2442 877 l
0 0 0 rgb
st
2442 877 m
2442 1146 l
st
2404 1146 m
2404 877 l
st
2699 889 m
2738 889 l
2738 1146 l
2699 1146 l
cp
gs
0 0.502 0.502 rgb
eofi
gr
0 0.502 0.502 rgb
st
2699 889 m
2738 889 l
0 0 0 rgb
st
2738 889 m
2738 1146 l
st
2699 1146 m
2699 889 l
st
2995 854 m
3033 854 l
3033 1146 l
2995 1146 l
cp
gs
0 0.502 0.502 rgb
eofi
gr
0 0.502 0.502 rgb
st
2995 854 m
3033 854 l
0 0 0 rgb
st
3033 854 m
3033 1146 l
st
2995 1146 m
2995 854 l
st
gr
gs
pathproc 501 227 2662 920 np rectpath
/eocl cland
np exec
668 466 m
706 466 l
706 1146 l
668 1146 l
cp
gs
1 0 1 rgb
eofi
gr
8 sw
1 0 1 rgb
1 sj
1 scap
st
668 466 m
706 466 l
0 0 0 rgb
st
706 466 m
706 1146 l
st
668 1146 m
668 466 l
st
964 675 m
1002 675 l
1002 1146 l
964 1146 l
cp
gs
1 0 1 rgb
eofi
gr
1 0 1 rgb
st
964 675 m
1002 675 l
0 0 0 rgb
st
1002 675 m
1002 1146 l
st
964 1146 m
964 675 l
st
1259 725 m
1297 725 l
1297 1146 l
1259 1146 l
cp
gs
1 0 1 rgb
eofi
gr
1 0 1 rgb
st
1259 725 m
1297 725 l
0 0 0 rgb
st
1297 725 m
1297 1146 l
st
1259 1146 m
1259 725 l
st
1555 704 m
1593 704 l
1593 1146 l
1555 1146 l
cp
gs
1 0 1 rgb
eofi
gr
1 0 1 rgb
st
1555 704 m
1593 704 l
0 0 0 rgb
st
1593 704 m
1593 1146 l
st
1555 1146 m
1555 704 l
st
1851 320 m
1889 320 l
1889 1146 l
1851 1146 l
cp
gs
1 0 1 rgb
eofi
gr
1 0 1 rgb
st
1851 320 m
1889 320 l
0 0 0 rgb
st
1889 320 m
1889 1146 l
st
1851 1146 m
1851 320 l
st
2146 961 m
2184 961 l
2184 1146 l
2146 1146 l
cp
gs
1 0 1 rgb
eofi
gr
1 0 1 rgb
st
2146 961 m
2184 961 l
0 0 0 rgb
st
2184 961 m
2184 1146 l
st
2146 1146 m
2146 961 l
st
2442 249 m
2480 249 l
2480 1146 l
2442 1146 l
cp
gs
1 0 1 rgb
eofi
gr
1 0 1 rgb
st
2442 249 m
2480 249 l
0 0 0 rgb
st
2480 249 m
2480 1146 l
st
2442 1146 m
2442 249 l
st
2738 248 m
2776 248 l
2776 1146 l
2738 1146 l
cp
gs
1 0 1 rgb
eofi
gr
1 0 1 rgb
st
2738 248 m
2776 248 l
0 0 0 rgb
st
2776 248 m
2776 1146 l
st
2738 1146 m
2738 248 l
st
3033 244 m
3071 244 l
3071 1146 l
3033 1146 l
cp
gs
1 0 1 rgb
eofi
gr
1 0 1 rgb
st
3033 244 m
3071 244 l
0 0 0 rgb
st
3071 244 m
3071 1146 l
st
3033 1146 m
3033 244 l
st
gr
gs
pathproc 501 227 2662 920 np rectpath
/eocl cland
np exec
706 466 m
744 466 l
744 1146 l
706 1146 l
cp
gs
0.502 0.502 0 rgb
eofi
gr
8 sw
0.502 0.502 0 rgb
1 sj
1 scap
st
706 466 m
744 466 l
0 0 0 rgb
st
744 466 m
744 1146 l
st
706 1146 m
706 466 l
st
1002 675 m
1040 675 l
1040 1146 l
1002 1146 l
cp
gs
0.502 0.502 0 rgb
eofi
gr
0.502 0.502 0 rgb
st
1002 675 m
1040 675 l
0 0 0 rgb
st
1040 675 m
1040 1146 l
st
1002 1146 m
1002 675 l
st
1297 725 m
1335 725 l
1335 1146 l
1297 1146 l
cp
gs
0.502 0.502 0 rgb
eofi
gr
0.502 0.502 0 rgb
st
1297 725 m
1335 725 l
0 0 0 rgb
st
1335 725 m
1335 1146 l
st
1297 1146 m
1297 725 l
st
1593 704 m
1631 704 l
1631 1146 l
1593 1146 l
cp
gs
0.502 0.502 0 rgb
eofi
gr
0.502 0.502 0 rgb
st
1593 704 m
1631 704 l
0 0 0 rgb
st
1631 704 m
1631 1146 l
st
1593 1146 m
1593 704 l
st
1889 320 m
1927 320 l
1927 1146 l
1889 1146 l
cp
gs
0.502 0.502 0 rgb
eofi
gr
0.502 0.502 0 rgb
st
1889 320 m
1927 320 l
0 0 0 rgb
st
1927 320 m
1927 1146 l
st
1889 1146 m
1889 320 l
st
2184 961 m
2222 961 l
2222 1146 l
2184 1146 l
cp
gs
0.502 0.502 0 rgb
eofi
gr
0.502 0.502 0 rgb
st
2184 961 m
2222 961 l
0 0 0 rgb
st
2222 961 m
2222 1146 l
st
2184 1146 m
2184 961 l
st
2480 249 m
2518 249 l
2518 1146 l
2480 1146 l
cp
gs
0.502 0.502 0 rgb
eofi
gr
0.502 0.502 0 rgb
st
2480 249 m
2518 249 l
0 0 0 rgb
st
2518 249 m
2518 1146 l
st
2480 1146 m
2480 249 l
st
2776 247 m
2814 247 l
2814 1146 l
2776 1146 l
cp
gs
0.502 0.502 0 rgb
eofi
gr
0.502 0.502 0 rgb
st
2776 247 m
2814 247 l
0 0 0 rgb
st
2814 247 m
2814 1146 l
st
2776 1146 m
2776 247 l
st
3071 242 m
3109 242 l
3109 1146 l
3071 1146 l
cp
gs
0.502 0.502 0 rgb
eofi
gr
0.502 0.502 0 rgb
st
3071 242 m
3109 242 l
0 0 0 rgb
st
3109 242 m
3109 1146 l
st
3071 1146 m
3071 242 l
st
gr
gs
pathproc 501 227 2662 920 np rectpath
/eocl cland
np exec
744 348 m
782 348 l
782 1146 l
744 1146 l
cp
gs
0 0 0.502 rgb
eofi
gr
8 sw
0 0 0.502 rgb
1 sj
1 scap
st
744 348 m
782 348 l
0 0 0 rgb
st
782 348 m
782 1146 l
st
744 1146 m
744 348 l
st
1040 594 m
1078 594 l
1078 1146 l
1040 1146 l
cp
gs
0 0 0.502 rgb
eofi
gr
0 0 0.502 rgb
st
1040 594 m
1078 594 l
0 0 0 rgb
st
1078 594 m
1078 1146 l
st
1040 1146 m
1040 594 l
st
1335 481 m
1373 481 l
1373 1146 l
1335 1146 l
cp
gs
0 0 0.502 rgb
eofi
gr
0 0 0.502 rgb
st
1335 481 m
1373 481 l
0 0 0 rgb
st
1373 481 m
1373 1146 l
st
1335 1146 m
1335 481 l
st
1631 632 m
1669 632 l
1669 1146 l
1631 1146 l
cp
gs
0 0 0.502 rgb
eofi
gr
0 0 0.502 rgb
st
1631 632 m
1669 632 l
0 0 0 rgb
st
1669 632 m
1669 1146 l
st
1631 1146 m
1631 632 l
st
1927 294 m
1965 294 l
1965 1146 l
1927 1146 l
cp
gs
0 0 0.502 rgb
eofi
gr
0 0 0.502 rgb
st
1927 294 m
1965 294 l
0 0 0 rgb
st
1965 294 m
1965 1146 l
st
1927 1146 m
1927 294 l
st
2222 615 m
2260 615 l
2260 1146 l
2222 1146 l
cp
gs
0 0 0.502 rgb
eofi
gr
0 0 0.502 rgb
st
2222 615 m
2260 615 l
0 0 0 rgb
st
2260 615 m
2260 1146 l
st
2222 1146 m
2222 615 l
st
2518 249 m
2556 249 l
2556 1146 l
2518 1146 l
cp
gs
0 0 0.502 rgb
eofi
gr
0 0 0.502 rgb
st
2518 249 m
2556 249 l
0 0 0 rgb
st
2556 249 m
2556 1146 l
st
2518 1146 m
2518 249 l
st
2814 248 m
2852 248 l
2852 1146 l
2814 1146 l
cp
gs
0 0 0.502 rgb
eofi
gr
0 0 0.502 rgb
st
2814 248 m
2852 248 l
0 0 0 rgb
st
2852 248 m
2852 1146 l
st
2814 1146 m
2814 248 l
st
3109 242 m
3147 242 l
3147 1146 l
3109 1146 l
cp
gs
0 0 0.502 rgb
eofi
gr
0 0 0.502 rgb
st
3109 242 m
3147 242 l
0 0 0 rgb
st
3147 242 m
3147 1146 l
st
3109 1146 m
3109 242 l
st
gr
gs
gs
1 -1 sc
636 -1332 tr
45 ro
/MC1_Arial 137 self 0 0 m
(cfs)[69 38 69 ] xs
1 -1 sc
gr
gr
gs
gs
1 -1 sc
955 -1310 tr
45 ro
/MC1_Arial 137 self 0 0 m
(fin)[38 30 76 ] xs
1 -1 sc
gr
gr
gs
gs
1 -1 sc
1217 -1342 tr
45 ro
/MC1_Arial 137 self 0 0 m
(hm)[76 114 ] xs
1 -1 sc
gr
gr
gs
gs
1 -1 sc
1464 -1391 tr
45 ro
/MC1_Arial 137 self 0 0 m
(mds)[114 76 69 ] xs
1 -1 sc
gr
gr
gs
gs
1 -1 sc
1685 -1467 tr
45 ro
/MC1_Arial 137 self 0 0 m
(msnfs)[114 69 76 38 69 ] xs
1 -1 sc
gr
gr
gs
gs
1 -1 sc
2058 -1388 tr
45 ro
/MC1_Arial 137 self 0 0 m
(prxy)[76 46 68 65 ] xs
1 -1 sc
gr
gr
gs
gs
1 -1 sc
2358 -1384 tr
45 ro
/MC1_Arial 137 self 0 0 m
(web)[97 76 76 ] xs
1 -1 sc
gr
gr
gs
gs
1 -1 sc
2531 -1508 tr
45 ro
/MC1_Arial 137 self 0 0 m
(websql)[97 76 76 69 76 30 ] xs
1 -1 sc
gr
gr
gs
gs
1 -1 sc
2889 -1444 tr
45 ro
/MC1_Arial 137 self 0 0 m
(eigen)[76 30 76 76 76 ] xs
1 -1 sc
gr
gr
gs
1 -1 sc
/MC1_Arial 137 self 217 -1090 m
(256)[76 76 76 ] xs
1 -1 sc
gr
gs
1 -1 sc
/MC1_Arial 137 self 300 -906 m
(1k)[76 69 ] xs
1 -1 sc
gr
gs
1 -1 sc
/MC1_Arial 137 self 300 -723 m
(4k)[76 69 ] xs
1 -1 sc
gr
gs
1 -1 sc
/MC1_Arial 137 self 224 -539 m
(16k)[76 76 69 ] xs
1 -1 sc
gr
gs
1 -1 sc
/MC1_Arial 137 self 224 -356 m
(66k)[76 76 69 ] xs
1 -1 sc
gr
501 1146 m
501 1146 l
6 sw
1 sj
1 scap
st
649 1146 m
649 1146 l
st
797 1146 m
797 1146 l
st
945 1146 m
945 1146 l
st
1092 1146 m
1092 1146 l
st
1240 1146 m
1240 1146 l
st
1388 1146 m
1388 1146 l
st
1536 1146 m
1536 1146 l
st
1684 1146 m
1684 1146 l
st
1832 1146 m
1832 1146 l
st
1979 1146 m
1979 1146 l
st
2127 1146 m
2127 1146 l
st
2275 1146 m
2275 1146 l
st
2423 1146 m
2423 1146 l
st
2571 1146 m
2571 1146 l
st
2719 1146 m
2719 1146 l
st
2866 1146 m
2866 1146 l
st
3014 1146 m
3014 1146 l
st
3162 1146 m
3162 1146 l
st
501 1146 m
3162 1146 l
st
501 1142 m
501 1142 l
st
501 1128 m
501 1128 l
st
501 1115 m
501 1115 l
st
501 1104 m
501 1104 l
st
501 1093 m
501 1093 l
st
501 1083 m
501 1083 l
st
501 1074 m
501 1074 l
st
501 1065 m
501 1065 l
st
501 1057 m
501 1057 l
st
501 1050 m
501 1050 l
st
501 1036 m
501 1036 l
st
501 1023 m
501 1023 l
st
501 1012 m
501 1012 l
st
501 1001 m
501 1001 l
st
501 991 m
501 991 l
st
501 982 m
501 982 l
st
501 974 m
501 974 l
st
501 966 m
501 966 l
st
501 958 m
501 958 l
st
501 944 m
501 944 l
st
501 932 m
501 932 l
st
501 920 m
501 920 l
st
501 909 m
501 909 l
st
501 900 m
501 900 l
st
501 890 m
501 890 l
st
501 882 m
501 882 l
st
501 874 m
501 874 l
st
501 866 m
501 866 l
st
501 852 m
501 852 l
st
501 840 m
501 840 l
st
501 828 m
501 828 l
st
501 818 m
501 818 l
st
501 808 m
501 808 l
st
501 799 m
501 799 l
st
501 790 m
501 790 l
st
501 782 m
501 782 l
st
501 775 m
501 775 l
st
501 761 m
501 761 l
st
501 748 m
501 748 l
st
501 736 m
501 736 l
st
501 726 m
501 726 l
st
501 716 m
501 716 l
st
501 707 m
501 707 l
st
501 698 m
501 698 l
st
501 690 m
501 690 l
st
501 683 m
501 683 l
st
501 669 m
501 669 l
st
501 656 m
501 656 l
st
501 645 m
501 645 l
st
501 634 m
501 634 l
st
501 624 m
501 624 l
st
501 615 m
501 615 l
st
501 607 m
501 607 l
st
501 599 m
501 599 l
st
501 591 m
501 591 l
st
501 577 m
501 577 l
st
501 564 m
501 564 l
st
501 553 m
501 553 l
st
501 542 m
501 542 l
st
501 532 m
501 532 l
st
501 523 m
501 523 l
st
501 515 m
501 515 l
st
501 507 m
501 507 l
st
501 499 m
501 499 l
st
501 485 m
501 485 l
st
501 473 m
501 473 l
st
501 461 m
501 461 l
st
501 451 m
501 451 l
st
501 441 m
501 441 l
st
501 432 m
501 432 l
st
501 423 m
501 423 l
st
501 415 m
501 415 l
st
501 407 m
501 407 l
st
501 393 m
501 393 l
st
501 381 m
501 381 l
st
501 369 m
501 369 l
st
501 359 m
501 359 l
st
501 349 m
501 349 l
st
501 340 m
501 340 l
st
501 331 m
501 331 l
st
501 323 m
501 323 l
st
501 316 m
501 316 l
st
501 302 m
501 302 l
st
501 289 m
501 289 l
st
501 278 m
501 278 l
st
501 267 m
501 267 l
st
501 257 m
501 257 l
st
501 248 m
501 248 l
st
501 239 m
501 239 l
st
501 231 m
501 231 l
st
501 1146 m
501 227 l
st
gs
gs
1 -1 sc
171 -1524 tr
90 ro
/MC2_Arial 156 self 0 0 m
(Throughput \(MB/sec\))[95 87 52 87 87 87 87 87 87 43 43 52 130 104 43 78 87 78 52 ] xs
1 -1 sc
gr
gr
gs
gs
gs
675 -3 m
963 -3 l
963 138 l
675 138 l
cp
gs
eofi
gr
8 sw
st
gr
gr
1 -1 sc
/MC3_Arial 131 self 966 -112 m
( )[36 ] xs
1 -1 sc
1 -1 sc
1002 -112 m
(ch4)[66 73 73 ] xs
1 -1 sc
1 -1 sc
1214 -112 m
( )[36 ] xs
1 -1 sc
gs
gs
1253 -3 m
1541 -3 l
1541 138 l
1253 138 l
cp
gs
1 0 0 rgb
eofi
gr
8 sw
st
gr
gr
1 -1 sc
1544 -112 m
( )[36 ] xs
1 -1 sc
1 -1 sc
1580 -112 m
(ch8)[66 73 73 ] xs
1 -1 sc
1 -1 sc
1792 -112 m
( )[36 ] xs
1 -1 sc
gs
gs
1831 -3 m
2119 -3 l
2119 138 l
1831 138 l
cp
gs
0 0 1 rgb
eofi
gr
8 sw
st
gr
gr
1 -1 sc
2122 -112 m
( )[36 ] xs
1 -1 sc
1 -1 sc
2158 -112 m
(ch16)[66 73 73 73 ] xs
1 -1 sc
1 -1 sc
2443 -112 m
( )[36 ] xs
1 -1 sc
gs
gs
2482 -3 m
2770 -3 l
2770 138 l
2482 138 l
cp
gs
0 0.502 0.502 rgb
eofi
gr
8 sw
st
gr
gr
1 -1 sc
2773 -112 m
( )[36 ] xs
1 -1 sc
1 -1 sc
2809 -112 m
(ch32)[66 73 73 73 ] xs
1 -1 sc
1 -1 sc
3094 -112 m
( )[36 ] xs
1 -1 sc
gs
gs
675 159 m
963 159 l
963 300 l
675 300 l
cp
gs
1 0 1 rgb
eofi
gr
8 sw
st
gr
gr
1 -1 sc
966 -274 m
( )[36 ] xs
1 -1 sc
1 -1 sc
1002 -274 m
(UT)[95 80 ] xs
1 -1 sc
1 -1 sc
1177 -274 m
( )[36 ] xs
1 -1 sc
gs
gs
1216 159 m
1504 159 l
1504 300 l
1216 300 l
cp
gs
0.502 0.502 0 rgb
eofi
gr
8 sw
st
gr
gr
1 -1 sc
1507 -274 m
( )[36 ] xs
1 -1 sc
1 -1 sc
1543 -274 m
(FSB)[80 87 87 ] xs
1 -1 sc
1 -1 sc
1797 -274 m
( )[36 ] xs
1 -1 sc
gs
gs
1836 159 m
2124 159 l
2124 300 l
1836 300 l
cp
gs
0 0 0.502 rgb
eofi
gr
8 sw
st
gr
gr
1 -1 sc
2127 -274 m
( )[36 ] xs
1 -1 sc
1 -1 sc
2163 -274 m
(EPB)[87 87 87 ] xs
1 -1 sc
gr
gr
Save0 restore end
showpage
%%EOF
