\relax 
\providecommand\hyper@newdestlabel[2]{}
\providecommand\HyperFirstAtBeginDocument{\AtBeginDocument}
\HyperFirstAtBeginDocument{\ifx\hyper@anchor\@undefined
\global\let\oldcontentsline\contentsline
\gdef\contentsline#1#2#3#4{\oldcontentsline{#1}{#2}{#3}}
\global\let\oldnewlabel\newlabel
\gdef\newlabel#1#2{\newlabelxx{#1}#2}
\gdef\newlabelxx#1#2#3#4#5#6{\oldnewlabel{#1}{{#2}{#3}}}
\AtEndDocument{\ifx\hyper@anchor\@undefined
\let\contentsline\oldcontentsline
\let\newlabel\oldnewlabel
\fi}
\fi}
\global\let\hyper@last\relax 
\gdef\HyperFirstAtBeginDocument#1{#1}
\providecommand\HyField@AuxAddToFields[1]{}
\providecommand\HyField@AuxAddToCoFields[2]{}
\citation{ref-intro-complex-arch}
\citation{ref-intro-pcie-trend1}
\citation{ref-intro-pcie-trend2}
\citation{ref-intro-pcie-trend3}
\citation{ref-intro-pcie-trend4}
\citation{ref-intro-pcie-trend5}
\citation{ref-pciessd-ocz}
\citation{ref-pciessd-micron}
\citation{ref-pciessd-intel}
\citation{ref-pciessd-fusionio}
\citation{ref-pciessd-samsung}
\citation{ref-pciessd-owc}
\citation{ref-if-pcie2}
\citation{ref-if-pcie4}
\citation{ref-onfi-1}
\citation{ref-onfi-2}
\citation{ref-ch-1}
\@writefile{toc}{\contentsline {section}{\numberline {1}Introduction}{1}{section.1}}
\newlabel{sec:intro}{{1}{1}{Introduction}{section.1}{}}
\@writefile{lof}{\contentsline {figure}{\numberline {1}{\ignorespaces The expected bus utilization of commercial PCIe-based SSD products.\relax }}{1}{figure.caption.2}}
\providecommand*\caption@xref[2]{\@setref\relax\@undefined{#1}}
\newlabel{fig:if-util}{{1}{1}{The expected bus utilization of commercial PCIe-based SSD products.\relax }{figure.caption.2}{}}
\newlabel{fig:ch-lat}{{2a}{1}{Subfigure 2a}{subfigure.2.1}{}}
\newlabel{sub@fig:ch-lat}{{(a)}{a}{Subfigure 2a\relax }{subfigure.2.1}{}}
\newlabel{fig:ch-thr}{{2b}{1}{Subfigure 2b}{subfigure.2.2}{}}
\newlabel{sub@fig:ch-thr}{{(b)}{b}{Subfigure 2b\relax }{subfigure.2.2}{}}
\@writefile{lof}{\contentsline {figure}{\numberline {2}{\ignorespaces The performance of traditional channel-based SSD with varying number of channels and flash chips under sequential reads(SR) and random reads(RR).\relax }}{1}{figure.caption.3}}
\newlabel{fig:ch-perf}{{2}{1}{The performance of traditional channel-based SSD with varying number of channels and flash chips under sequential reads(SR) and random reads(RR).\relax }{figure.caption.3}{}}
\@writefile{lof}{\contentsline {subfigure}{\numberline{(a)}{\ignorespaces {Latency (ms)}}}{1}{subfigure.2.1}}
\@writefile{lof}{\contentsline {subfigure}{\numberline{(b)}{\ignorespaces {Throughput (MB/s)}}}{1}{subfigure.2.2}}
\@writefile{toc}{\contentsline {section}{\numberline {2}Background and Motivation}{2}{section.2}}
\newlabel{sec:bg-mot}{{2}{2}{Background and Motivation}{section.2}{}}
\@writefile{toc}{\contentsline {subsection}{\numberline {2.1}Conventional-channel Architecture}{2}{subsection.2.1}}
\newlabel{sec:bg-mot1}{{2.1}{2}{Conventional-channel Architecture}{subsection.2.1}{}}
\citation{ref-onfi-2}
\citation{ref-if-pcie4}
\citation{ref-if-pcie-rc}
\citation{ref-if-pcie3}
\citation{ref-if-pcie3}
\citation{ref-if-pcie3}
\@writefile{lof}{\contentsline {figure}{\numberline {3}{\ignorespaces The traditional channel-based SSD architecture where flash chips are attached to channels.\relax }}{3}{figure.caption.4}}
\newlabel{fig:ch-arch}{{3}{3}{The traditional channel-based SSD architecture where flash chips are attached to channels.\relax }{figure.caption.4}{}}
\@writefile{toc}{\contentsline {subsection}{\numberline {2.2}PCI Express (PCIe)}{3}{subsection.2.2}}
\newlabel{sec:bg-mot2}{{2.2}{3}{PCI Express (PCIe)}{subsection.2.2}{}}
\@writefile{lof}{\contentsline {figure}{\numberline {4}{\ignorespaces The four PCIe components: root complex, endpoint, switch, and link, and an example connection.\relax }}{3}{figure.caption.5}}
\newlabel{fig:pcie-com}{{4}{3}{The four PCIe components: root complex, endpoint, switch, and link, and an example connection.\relax }{figure.caption.5}{}}
\@writefile{toc}{\contentsline {section}{\numberline {3}UT-SSD Architecture}{3}{section.3}}
\newlabel{sec:model}{{3}{3}{UT-SSD Architecture}{section.3}{}}
\@writefile{toc}{\contentsline {subsection}{\numberline {3.1}A New SSD Architecture based on PCIe}{3}{subsection.3.1}}
\citation{ref-slot-oracle}
\citation{ref-slot-asrock}
\citation{ref-if-pcie3}
\newlabel{fig:arch-comp-ch}{{5a}{4}{Subfigure 5a}{subfigure.5.1}{}}
\newlabel{sub@fig:arch-comp-ch}{{(a)}{a}{Subfigure 5a\relax }{subfigure.5.1}{}}
\newlabel{fig:arch-comp-ut}{{5b}{4}{Subfigure 5b}{subfigure.5.2}{}}
\newlabel{sub@fig:arch-comp-ut}{{(b)}{b}{Subfigure 5b\relax }{subfigure.5.2}{}}
\@writefile{lof}{\contentsline {figure}{\numberline {5}{\ignorespaces Comparisons of channel-based and UT-SSD architecture, and the data movements inside them. UT-SSD employs cost-effective low-performance PCIe for "the links directly attached to flash chips" by considering the low bandwidth of flash. Note that the version-2 of PCIe link with a single lane can deliver around 500 MB/s, which sufficiently supports the ideal throughput of an ONFi-based flash chip.\relax }}{4}{figure.caption.6}}
\newlabel{fig:arch-comp}{{5}{4}{Comparisons of channel-based and UT-SSD architecture, and the data movements inside them. UT-SSD employs cost-effective low-performance PCIe for "the links directly attached to flash chips" by considering the low bandwidth of flash. Note that the version-2 of PCIe link with a single lane can deliver around 500 MB/s, which sufficiently supports the ideal throughput of an ONFi-based flash chip.\relax }{figure.caption.6}{}}
\@writefile{lof}{\contentsline {subfigure}{\numberline{(a)}{\ignorespaces {Multi-channel SSD}}}{4}{subfigure.5.1}}
\@writefile{lof}{\contentsline {subfigure}{\numberline{(b)}{\ignorespaces {UT-SSD}}}{4}{subfigure.5.2}}
\@writefile{toc}{\contentsline {subsection}{\numberline {3.2}UT-SSD Design Model}{4}{subsection.3.2}}
\newlabel{utssd-eq}{{1}{4}{UT-SSD Design Model}{equation.3.1}{}}
\@writefile{toc}{\contentsline {subsection}{\numberline {3.3}Root Complex (RC) Design}{4}{subsection.3.3}}
\citation{ref-if-pcie-rc}
\citation{ref-if-pcie3}
\citation{switch-1}
\newlabel{fig:ssd-arch}{{6a}{5}{Subfigure 6a}{subfigure.6.1}{}}
\newlabel{sub@fig:ssd-arch}{{(a)}{a}{Subfigure 6a\relax }{subfigure.6.1}{}}
\newlabel{fig:ep-design}{{6b}{5}{Subfigure 6b}{subfigure.6.2}{}}
\newlabel{sub@fig:ep-design}{{(b)}{b}{Subfigure 6b\relax }{subfigure.6.2}{}}
\@writefile{lof}{\contentsline {figure}{\numberline {6}{\ignorespaces The baseline UT-SSD architecture where 4096 flash chips are connected, and the EP architecture to which a flash chip is attached. One or more 32 chip-based subtree can be designed in a single PCB.\relax }}{5}{figure.caption.7}}
\@writefile{lof}{\contentsline {subfigure}{\numberline{(a)}{\ignorespaces {Baseline UT-SSD}}}{5}{subfigure.6.1}}
\@writefile{lof}{\contentsline {subfigure}{\numberline{(b)}{\ignorespaces {EP design}}}{5}{subfigure.6.2}}
\newlabel{rc-eq}{{2}{5}{Root Complex (RC) Design}{equation.3.2}{}}
\@writefile{toc}{\contentsline {subsection}{\numberline {3.4}Switch Tree Design}{5}{subsection.3.4}}
\newlabel{sec:model-swtree}{{3.4}{5}{Switch Tree Design}{subsection.3.4}{}}
\@writefile{lof}{\contentsline {figure}{\numberline {7}{\ignorespaces Throughput of a SW under different DP counts and the number of lanes.\relax }}{5}{figure.caption.8}}
\newlabel{fig:port-cond}{{7}{5}{Throughput of a SW under different DP counts and the number of lanes.\relax }{figure.caption.8}{}}
\newlabel{sw-eq}{{3}{5}{Switch Tree Design}{equation.3.3}{}}
\newlabel{sw-cond-eq}{{4}{5}{Switch Tree Design}{equation.3.4}{}}
\citation{ref-if-pcie3}
\newlabel{swtree-eq}{{5}{6}{Switch Tree Design}{equation.3.5}{}}
\newlabel{swtree-cond-eq}{{6}{6}{Switch Tree Design}{equation.3.6}{}}
\@writefile{lot}{\contentsline {table}{\numberline {1}{\ignorespaces Hardware overhead (internal resources) of high-capacity SSDs with different configurations.\relax }}{6}{table.caption.9}}
\newlabel{tab:cost}{{1}{6}{Hardware overhead (internal resources) of high-capacity SSDs with different configurations.\relax }{table.caption.9}{}}
\@writefile{toc}{\contentsline {subsection}{\numberline {3.5}Endpoint Design}{6}{subsection.3.5}}
\newlabel{ep-eq}{{7}{6}{Endpoint Design}{equation.3.7}{}}
\@writefile{toc}{\contentsline {subsection}{\numberline {3.6}Software Support}{6}{subsection.3.6}}
\newlabel{sec:model-sw-support}{{3.6}{6}{Software Support}{subsection.3.6}{}}
\citation{ref-par-3}
\@writefile{toc}{\contentsline {subsection}{\numberline {3.7}Hardware Overhead}{7}{subsection.3.7}}
\newlabel{sec:cost}{{3.7}{7}{Hardware Overhead}{subsection.3.7}{}}
\newlabel{fig:fsb-arch-base}{{8a}{7}{Subfigure 8a}{subfigure.8.1}{}}
\newlabel{sub@fig:fsb-arch-base}{{(a)}{a}{Subfigure 8a\relax }{subfigure.8.1}{}}
\newlabel{fig:fsb-arch-apply}{{8b}{7}{Subfigure 8b}{subfigure.8.2}{}}
\newlabel{sub@fig:fsb-arch-apply}{{(b)}{b}{Subfigure 8b\relax }{subfigure.8.2}{}}
\@writefile{lof}{\contentsline {figure}{\numberline {8}{\ignorespaces The enhanced architecture with FSB utilizes neighbors' bandwidth by placing PCIe links across first layer switches.\relax }}{7}{figure.caption.10}}
\newlabel{fig:fsb-arch}{{8}{7}{The enhanced architecture with FSB utilizes neighbors' bandwidth by placing PCIe links across first layer switches.\relax }{figure.caption.10}{}}
\@writefile{lof}{\contentsline {subfigure}{\numberline{(a)}{\ignorespaces {Baseline }}}{7}{subfigure.8.1}}
\@writefile{lof}{\contentsline {subfigure}{\numberline{(b)}{\ignorespaces {FSB}}}{7}{subfigure.8.2}}
\@writefile{toc}{\contentsline {section}{\numberline {4}Architectural Enhancements}{7}{section.4}}
\newlabel{sec:ehnace}{{4}{7}{Architectural Enhancements}{section.4}{}}
\@writefile{toc}{\contentsline {subsection}{\numberline {4.1}First-layer Switch Bridging (FSB)}{7}{subsection.4.1}}
\citation{ref-related-1}
\citation{ref-space-2}
\citation{ref-flash-spec-micron}
\newlabel{fig:epb-arch-base}{{9a}{8}{Subfigure 9a}{subfigure.9.1}{}}
\newlabel{sub@fig:epb-arch-base}{{(a)}{a}{Subfigure 9a\relax }{subfigure.9.1}{}}
\newlabel{fig:epb-arch-apply}{{9b}{8}{Subfigure 9b}{subfigure.9.2}{}}
\newlabel{sub@fig:epb-arch-apply}{{(b)}{b}{Subfigure 9b\relax }{subfigure.9.2}{}}
\@writefile{lof}{\contentsline {figure}{\numberline {9}{\ignorespaces The enhanced architecture with EPB utilizes idle flash chips by placing PCIe links between neighboring EPs.\relax }}{8}{figure.caption.11}}
\newlabel{fig:epb-arch}{{9}{8}{The enhanced architecture with EPB utilizes idle flash chips by placing PCIe links between neighboring EPs.\relax }{figure.caption.11}{}}
\@writefile{lof}{\contentsline {subfigure}{\numberline{(a)}{\ignorespaces {Baseline }}}{8}{subfigure.9.1}}
\@writefile{lof}{\contentsline {subfigure}{\numberline{(b)}{\ignorespaces {EPB}}}{8}{subfigure.9.2}}
\@writefile{toc}{\contentsline {subsection}{\numberline {4.2}EndPoint Bridging (EPB)}{8}{subsection.4.2}}
\citation{ref-onfi-1}
\citation{ref-trace1}
\citation{ref-trace2}
\citation{ref-workload-ooc}
\@writefile{lot}{\contentsline {table}{\numberline {2}{\ignorespaces Characteristics of our workloads.\relax }}{9}{table.caption.12}}
\newlabel{tab:workload-cha}{{2}{9}{Characteristics of our workloads.\relax }{table.caption.12}{}}
\@writefile{toc}{\contentsline {section}{\numberline {5}Evaluation}{9}{section.5}}
\newlabel{sec:eval}{{5}{9}{Evaluation}{section.5}{}}
\@writefile{toc}{\contentsline {subsection}{\numberline {5.1}Experimental Setup}{9}{subsection.5.1}}
\@writefile{lof}{\contentsline {figure}{\numberline {10}{\ignorespaces Throughput of UT-SSD under sequential and random reads, and writes, with varying sizes.\relax }}{9}{figure.caption.13}}
\newlabel{fig:eval-micro}{{10}{9}{Throughput of UT-SSD under sequential and random reads, and writes, with varying sizes.\relax }{figure.caption.13}{}}
\newlabel{fig:eval-throughput}{{11a}{9}{Subfigure 11a}{subfigure.11.1}{}}
\newlabel{sub@fig:eval-throughput}{{(a)}{a}{Subfigure 11a\relax }{subfigure.11.1}{}}
\newlabel{fig:eval-iops}{{11b}{9}{Subfigure 11b}{subfigure.11.2}{}}
\newlabel{sub@fig:eval-iops}{{(b)}{b}{Subfigure 11b\relax }{subfigure.11.2}{}}
\@writefile{lof}{\contentsline {figure}{\numberline {11}{\ignorespaces Throughput and IOPS of the channel-based architectures and UT-SSD architectures. \emph  {UT} represents our baseline UT-SSD architecture without FSB/EPB.\relax }}{9}{figure.caption.14}}
\newlabel{fig:throughput-iops}{{11}{9}{Throughput and IOPS of the channel-based architectures and UT-SSD architectures. \emph {UT} represents our baseline UT-SSD architecture without FSB/EPB.\relax }{figure.caption.14}{}}
\@writefile{lof}{\contentsline {subfigure}{\numberline{(a)}{\ignorespaces {Throughput}}}{9}{subfigure.11.1}}
\@writefile{lof}{\contentsline {subfigure}{\numberline{(b)}{\ignorespaces {IOPS}}}{9}{subfigure.11.2}}
\@writefile{toc}{\contentsline {subsection}{\numberline {5.2}The Potential of UT-SSD}{9}{subsection.5.2}}
\newlabel{fig:eval-lat}{{12a}{10}{Subfigure 12a}{subfigure.12.1}{}}
\newlabel{sub@fig:eval-lat}{{(a)}{a}{Subfigure 12a\relax }{subfigure.12.1}{}}
\newlabel{fig:eval-stall}{{12b}{10}{Subfigure 12b}{subfigure.12.2}{}}
\newlabel{sub@fig:eval-stall}{{(b)}{b}{Subfigure 12b\relax }{subfigure.12.2}{}}
\@writefile{lof}{\contentsline {figure}{\numberline {12}{\ignorespaces Average latency and queue stall time of the channel-based architectures and UT-SSD architectures.\relax }}{10}{figure.caption.15}}
\newlabel{fig:lat-stall}{{12}{10}{Average latency and queue stall time of the channel-based architectures and UT-SSD architectures.\relax }{figure.caption.15}{}}
\@writefile{lof}{\contentsline {subfigure}{\numberline{(a)}{\ignorespaces {Average latency}}}{10}{subfigure.12.1}}
\@writefile{lof}{\contentsline {subfigure}{\numberline{(b)}{\ignorespaces {Average queue stall time}}}{10}{subfigure.12.2}}
\@writefile{lof}{\contentsline {figure}{\numberline {13}{\ignorespaces UT-SSD throughput under multi-workloads.\relax }}{10}{figure.caption.16}}
\newlabel{fig:eval-multi}{{13}{10}{UT-SSD throughput under multi-workloads.\relax }{figure.caption.16}{}}
\@writefile{toc}{\contentsline {subsection}{\numberline {5.3}Performance Comparison}{10}{subsection.5.3}}
\newlabel{sec:eva-perf-comp}{{5.3}{10}{Performance Comparison}{subsection.5.3}{}}
\newlabel{fig:eval-fsb-mw1}{{14a}{10}{Subfigure 14a}{subfigure.14.1}{}}
\newlabel{sub@fig:eval-fsb-mw1}{{(a)}{a}{Subfigure 14a\relax }{subfigure.14.1}{}}
\newlabel{fig:eval-fsb-mw4}{{14b}{10}{Subfigure 14b}{subfigure.14.2}{}}
\newlabel{sub@fig:eval-fsb-mw4}{{(b)}{b}{Subfigure 14b\relax }{subfigure.14.2}{}}
\@writefile{lof}{\contentsline {figure}{\numberline {14}{\ignorespaces Changes in link utilization before and after FSB applied. Each link specifies "before (after) \%" and each bridge shows its data movement (KB/s).\relax }}{10}{figure.caption.17}}
\newlabel{fig:link-util}{{14}{10}{Changes in link utilization before and after FSB applied. Each link specifies "before (after) \%" and each bridge shows its data movement (KB/s).\relax }{figure.caption.17}{}}
\@writefile{lof}{\contentsline {subfigure}{\numberline{(a)}{\ignorespaces {\emph {mw1}}}}{10}{subfigure.14.1}}
\@writefile{lof}{\contentsline {subfigure}{\numberline{(b)}{\ignorespaces {\emph {mw4}}}}{10}{subfigure.14.2}}
\@writefile{toc}{\contentsline {subsection}{\numberline {5.4}Multi-workloads on UT-SSD}{10}{subsection.5.4}}
\@writefile{toc}{\contentsline {subsection}{\numberline {5.5}Link Utilization}{10}{subsection.5.5}}
\citation{ref-array-violin}
\citation{ref-array-kaminario}
\citation{ref-array-skyera}
\citation{ref-array-solidfire}
\citation{ref-array-purestorage}
\citation{ref-array-ibm}
\citation{ref-array-nimbus}
\citation{ref-related-pcie-1}
\citation{ref-related-minerva}
\citation{ref-related-onyx}
\citation{ref-related-moneta}
\bibstyle{ieeetr}
\bibdata{isca-ref}
\newlabel{fig:eval-flashutil-cfs-base}{{15a}{11}{Subfigure 15a}{subfigure.15.1}{}}
\newlabel{sub@fig:eval-flashutil-cfs-base}{{(a)}{a}{Subfigure 15a\relax }{subfigure.15.1}{}}
\newlabel{fig:eval-flashutil-cfs-epb}{{15b}{11}{Subfigure 15b}{subfigure.15.2}{}}
\newlabel{sub@fig:eval-flashutil-cfs-epb}{{(b)}{b}{Subfigure 15b\relax }{subfigure.15.2}{}}
\newlabel{fig:eval-flashutil-hm-base}{{15c}{11}{Subfigure 15c}{subfigure.15.3}{}}
\newlabel{sub@fig:eval-flashutil-hm-base}{{(c)}{c}{Subfigure 15c\relax }{subfigure.15.3}{}}
\newlabel{fig:eval-flash-hm-epb}{{15d}{11}{Subfigure 15d}{subfigure.15.4}{}}
\newlabel{sub@fig:eval-flash-hm-epb}{{(d)}{d}{Subfigure 15d\relax }{subfigure.15.4}{}}
\@writefile{lof}{\contentsline {figure}{\numberline {15}{\ignorespaces Changes in flash utilization before/after EPB applied; cyan(-20\%), purple(21-40\%), green(41-60\%), red(61-80\%), and blue(81\%-).\relax }}{11}{figure.caption.18}}
\newlabel{fig:flash-util}{{15}{11}{Changes in flash utilization before/after EPB applied; cyan(-20\%), purple(21-40\%), green(41-60\%), red(61-80\%), and blue(81\%-).\relax }{figure.caption.18}{}}
\@writefile{lof}{\contentsline {subfigure}{\numberline{(a)}{\ignorespaces {\emph {cfs-base}}}}{11}{subfigure.15.1}}
\@writefile{lof}{\contentsline {subfigure}{\numberline{(b)}{\ignorespaces {\emph {cfs-EPB}}}}{11}{subfigure.15.2}}
\@writefile{lof}{\contentsline {subfigure}{\numberline{(c)}{\ignorespaces {\emph {hm-base}}}}{11}{subfigure.15.3}}
\@writefile{lof}{\contentsline {subfigure}{\numberline{(d)}{\ignorespaces {\emph {hm-EPB}}}}{11}{subfigure.15.4}}
\@writefile{lof}{\contentsline {figure}{\numberline {16}{\ignorespaces The trace of forwarded write requests in terms of the number of EP hops.\relax }}{11}{figure.caption.19}}
\newlabel{fig:eval-epb-hop}{{16}{11}{The trace of forwarded write requests in terms of the number of EP hops.\relax }{figure.caption.19}{}}
\@writefile{toc}{\contentsline {subsection}{\numberline {5.6}Flash Utilization}{11}{subsection.5.6}}
\@writefile{lof}{\contentsline {figure}{\numberline {17}{\ignorespaces \emph  {Cfs} throughput achieved by SSDs with varying the number of flash chips.\relax }}{11}{figure.caption.20}}
\newlabel{fig:cfs-sense}{{17}{11}{\emph {Cfs} throughput achieved by SSDs with varying the number of flash chips.\relax }{figure.caption.20}{}}
\@writefile{toc}{\contentsline {subsection}{\numberline {5.7}SSD Size Sensitivity}{11}{subsection.5.7}}
\newlabel{sec:sensitivity}{{5.7}{11}{SSD Size Sensitivity}{subsection.5.7}{}}
\@writefile{toc}{\contentsline {section}{\numberline {6}Related Work}{11}{section.6}}
\newlabel{sec:relate}{{6}{11}{Related Work}{section.6}{}}
\@writefile{toc}{\contentsline {section}{\numberline {7}Conclusions}{11}{section.7}}
\newlabel{sec:conclusion}{{7}{11}{Conclusions}{section.7}{}}
\bibcite{ref-intro-complex-arch}{1}
\bibcite{ref-intro-pcie-trend1}{2}
\bibcite{ref-intro-pcie-trend2}{3}
\bibcite{ref-intro-pcie-trend3}{4}
\bibcite{ref-intro-pcie-trend4}{5}
\bibcite{ref-intro-pcie-trend5}{6}
\bibcite{ref-pciessd-ocz}{7}
\bibcite{ref-pciessd-micron}{8}
\bibcite{ref-pciessd-intel}{9}
\bibcite{ref-pciessd-fusionio}{10}
\bibcite{ref-pciessd-samsung}{11}
\bibcite{ref-pciessd-owc}{12}
\bibcite{ref-if-pcie2}{13}
\bibcite{ref-if-pcie4}{14}
\bibcite{ref-onfi-1}{15}
\bibcite{ref-onfi-2}{16}
\bibcite{ref-ch-1}{17}
\bibcite{ref-if-pcie-rc}{18}
\bibcite{ref-if-pcie3}{19}
\bibcite{ref-slot-oracle}{20}
\bibcite{ref-slot-asrock}{21}
\bibcite{switch-1}{22}
\bibcite{ref-par-3}{23}
\bibcite{ref-related-1}{24}
\bibcite{ref-space-2}{25}
\bibcite{ref-flash-spec-micron}{26}
\bibcite{ref-trace1}{27}
\bibcite{ref-trace2}{28}
\bibcite{ref-workload-ooc}{29}
\bibcite{ref-array-violin}{30}
\bibcite{ref-array-kaminario}{31}
\bibcite{ref-array-skyera}{32}
\bibcite{ref-array-solidfire}{33}
\bibcite{ref-array-purestorage}{34}
\bibcite{ref-array-ibm}{35}
\bibcite{ref-array-nimbus}{36}
\bibcite{ref-related-pcie-1}{37}
\bibcite{ref-related-minerva}{38}
\bibcite{ref-related-onyx}{39}
\bibcite{ref-related-moneta}{40}
\@writefile{toc}{\contentsline {section}{\numberline {8}References}{12}{section.8}}
